<?xml version="1.0" encoding="UTF-8"?>
<svg xmlns="http://www.w3.org/2000/svg" xmlns:xlink="http://www.w3.org/1999/xlink" width="24" height="24" viewBox="0 0 24 24" version="1.1">
<g id="surface1">
<path style=" stroke:none;fill-rule:nonzero;fill:rgb(74.509804%,74.509804%,74.509804%);fill-opacity:1;" d="M 11.648438 0 L 10.234375 0.0429688 L 10.277344 0.789062 C 10.34375 1.488281 9.992188 2.246094 9.4375 2.617188 C 8.941406 2.992188 8.160156 2.917969 7.1875 2.945312 C 6.695312 2.953125 6.195312 3.074219 5.734375 3.367188 C 5.269531 3.664062 4.816406 4.1875 4.71875 4.867188 C 4.492188 6.207031 5.359375 7.320312 6.351562 7.539062 C 7.488281 7.804688 8.671875 7.65625 10.054688 7.539062 C 10.417969 7.511719 10.902344 7.570312 11.203125 7.726562 C 11.675781 8.121094 11.605469 8.332031 11.601562 9.039062 L 3.613281 9.039062 L 3.304688 10.117188 L 0.527344 20.617188 L -0.00390625 22.539062 L 23.335938 22.539062 L 22.804688 20.617188 L 20.117188 10.398438 L 18.039062 13.726562 L 19.628906 19.539062 L 3.703125 19.539062 L 5.734375 12.039062 L 10.320312 12.039062 C 10.335938 12.027344 10.351562 12.007812 10.367188 11.996094 L 12.261719 10.683594 L 13.011719 9.089844 L 13.011719 8.339844 C 13.007812 7.421875 12.4375 6.695312 11.820312 6.371094 C 11.203125 6.046875 10.507812 5.992188 9.925781 6.042969 C 8.519531 6.15625 7.46875 6.230469 6.660156 6.042969 L 6.617188 6.042969 C 6.332031 5.980469 6.027344 5.726562 6.128906 5.105469 C 6.15625 4.917969 6.238281 4.808594 6.4375 4.683594 C 6.636719 4.554688 6.9375 4.449219 7.1875 4.449219 L 7.234375 4.449219 C 8.027344 4.421875 9.175781 4.625 10.1875 3.839844 C 11.34375 2.941406 11.816406 1.746094 11.6875 0.652344 Z M 11.648438 0 "/>
<path style=" stroke:none;fill-rule:nonzero;fill:rgb(74.509804%,74.509804%,74.509804%);fill-opacity:1;" d="M 18.890625 3.105469 C 18.890625 3.105469 15.332031 8.363281 13.1875 12.058594 L 11.199219 13.808594 L 11.253906 16.171875 L 10.175781 18.039062 L 11.15625 18.035156 L 12.203125 17.160156 L 14.566406 16.46875 L 15.40625 14.246094 L 21.316406 4.699219 Z M 18.890625 3.105469 "/>
<path style=" stroke:none;fill-rule:nonzero;fill:rgb(74.509804%,74.509804%,74.509804%);fill-opacity:1;" d="M 21.136719 3.65625 C 21.140625 4.007812 20.96875 4.332031 20.683594 4.507812 C 20.398438 4.683594 20.046875 4.683594 19.761719 4.507812 C 19.476562 4.332031 19.300781 4.007812 19.304688 3.65625 C 19.300781 3.308594 19.476562 2.984375 19.761719 2.808594 C 20.046875 2.632812 20.398438 2.632812 20.683594 2.808594 C 20.96875 2.984375 21.140625 3.308594 21.136719 3.65625 Z M 21.136719 3.65625 "/>
<path style=" stroke:none;fill-rule:nonzero;fill:rgb(100%,100%,100%);fill-opacity:1;" d="M 0.0195312 22.488281 C 0.078125 22.328125 0.757812 19.792969 1.957031 15.257812 C 2.726562 12.355469 3.414062 9.777344 3.484375 9.53125 L 3.613281 9.082031 L 11.605469 9.066406 L 11.605469 8.671875 C 11.605469 8.320312 11.597656 8.257812 11.535156 8.121094 C 11.4375 7.894531 11.242188 7.722656 11.007812 7.644531 C 10.617188 7.515625 10.355469 7.503906 9.507812 7.578125 C 7.578125 7.746094 6.496094 7.675781 5.875 7.34375 C 5.167969 6.96875 4.699219 6.15625 4.699219 5.308594 C 4.699219 4.417969 5.113281 3.722656 5.894531 3.296875 C 6.394531 3.023438 6.636719 2.976562 7.832031 2.9375 C 8.796875 2.90625 8.996094 2.875 9.304688 2.710938 C 9.59375 2.558594 9.929688 2.1875 10.082031 1.851562 C 10.269531 1.441406 10.308594 1.191406 10.273438 0.578125 C 10.257812 0.300781 10.25 0.0664062 10.253906 0.0625 C 10.257812 0.0546875 10.566406 0.0429688 10.941406 0.0351562 L 11.625 0.0195312 L 11.644531 0.136719 C 11.652344 0.203125 11.667969 0.488281 11.679688 0.769531 C 11.695312 1.210938 11.691406 1.320312 11.640625 1.574219 C 11.503906 2.277344 11.164062 2.890625 10.605469 3.453125 C 10.207031 3.851562 9.835938 4.097656 9.40625 4.246094 C 8.96875 4.398438 8.714844 4.429688 7.816406 4.4375 C 7.003906 4.445312 6.980469 4.445312 6.757812 4.527344 C 6.359375 4.671875 6.175781 4.835938 6.125 5.101562 C 6.082031 5.3125 6.105469 5.554688 6.179688 5.710938 C 6.285156 5.929688 6.421875 6.011719 6.804688 6.085938 C 7.191406 6.160156 8.667969 6.160156 9.59375 6.082031 C 10.351562 6.019531 10.664062 6.027344 11.109375 6.128906 C 12.027344 6.335938 12.648438 6.890625 12.90625 7.71875 C 12.976562 7.9375 12.984375 8.027344 12.996094 8.523438 L 13.007812 9.082031 L 12.261719 10.671875 L 11.273438 11.355469 L 10.289062 12.039062 L 8.007812 12.039062 C 5.855469 12.039062 5.722656 12.039062 5.707031 12.089844 C 5.589844 12.511719 3.730469 19.410156 3.71875 19.472656 L 3.703125 19.558594 L 19.648438 19.558594 L 19.628906 19.488281 C 19.617188 19.453125 19.257812 18.140625 18.828125 16.574219 L 18.050781 13.730469 L 19.070312 12.09375 C 19.632812 11.191406 20.101562 10.464844 20.113281 10.480469 C 20.125 10.492188 20.71875 12.734375 21.4375 15.457031 C 22.507812 19.53125 22.898438 20.992188 23.304688 22.476562 C 23.320312 22.527344 22.75 22.53125 11.660156 22.53125 C 1.859375 22.53125 0.00390625 22.523438 0.0195312 22.488281 Z M 0.0195312 22.488281 "/>
<path style=" stroke:none;fill-rule:nonzero;fill:rgb(100%,100%,100%);fill-opacity:1;" d="M 10.207031 18.023438 C 10.207031 18.011719 10.445312 17.59375 10.734375 17.09375 L 11.261719 16.179688 L 11.238281 14.996094 L 11.21875 13.808594 L 12.191406 12.953125 C 12.851562 12.371094 13.191406 12.050781 13.253906 11.949219 C 13.304688 11.871094 13.535156 11.492188 13.761719 11.109375 C 14.789062 9.386719 16.6875 6.417969 18.398438 3.855469 C 18.722656 3.371094 18.902344 3.128906 18.925781 3.140625 C 18.945312 3.152344 19.042969 3.21875 19.144531 3.285156 C 19.246094 3.351562 19.332031 3.402344 19.335938 3.394531 C 19.339844 3.390625 19.367188 3.324219 19.398438 3.25 C 19.472656 3.070312 19.65625 2.875 19.835938 2.78125 C 19.957031 2.71875 20.023438 2.703125 20.230469 2.703125 C 20.441406 2.703125 20.5 2.71875 20.625 2.785156 C 20.9375 2.960938 21.113281 3.269531 21.117188 3.648438 C 21.117188 3.90625 21.082031 4.023438 20.9375 4.246094 C 20.882812 4.328125 20.839844 4.398438 20.847656 4.402344 C 20.851562 4.40625 20.957031 4.476562 21.082031 4.558594 L 21.304688 4.703125 L 21.195312 4.878906 C 21.132812 4.976562 19.804688 7.117188 18.246094 9.636719 L 15.410156 14.21875 L 14.988281 15.335938 C 14.757812 15.945312 14.566406 16.449219 14.5625 16.453125 C 14.5625 16.457031 14.027344 16.617188 13.378906 16.808594 L 12.199219 17.152344 L 11.183594 18.003906 L 10.695312 18.023438 C 10.425781 18.035156 10.207031 18.035156 10.207031 18.023438 Z M 10.207031 18.023438 "/>
</g>
</svg>
