<?xml version="1.0" encoding="UTF-8"?>
<svg xmlns="http://www.w3.org/2000/svg" xmlns:xlink="http://www.w3.org/1999/xlink" width="24" height="24" viewBox="0 0 24 24" version="1.1">
<g id="surface1">
<path style=" stroke:none;fill-rule:nonzero;fill:rgb(74.509804%,74.509804%,74.509804%);fill-opacity:1;" d="M 9 1.5 C 7.484375 1.507812 7.5 3 7.5 3 L 7.5 19.5 C 7.5 21 9 21 9 21 L 15 21 C 16.5 21 16.5 19.5 16.5 19.5 L 16.5 7.5 C 16.5 6.667969 15.832031 6 15 6 L 10.5 6 L 10.5 3 C 10.5 3 10.488281 1.507812 9 1.5 Z M 9 7.5 L 15 7.5 L 15 12.046875 L 9 12 Z M 9 13.5 L 10.5 13.5 L 10.5 15 L 12 15 L 12 13.5 L 13.5 13.5 L 13.5 15 L 15 15 L 15 16.5 L 13.5 16.5 L 13.5 18 L 15 18 L 15 19.5 L 13.5 19.5 L 13.5 18 L 12 18 L 12 19.5 L 10.5 19.5 L 10.5 18 L 9 18 L 9 16.5 L 10.5 16.5 L 10.5 15 L 9 15 Z M 10.5 16.5 L 10.5 18 L 12 18 L 12 16.5 Z M 12 16.5 L 13.5 16.5 L 13.5 15 L 12 15 Z M 12 16.5 "/>
<path style=" stroke:none;fill-rule:nonzero;fill:rgb(100%,100%,100%);fill-opacity:1;" d="M 8.621094 20.933594 C 8.015625 20.773438 7.628906 20.371094 7.539062 19.808594 C 7.515625 19.671875 7.507812 16.867188 7.507812 11.246094 C 7.507812 2.089844 7.492188 2.683594 7.691406 2.269531 C 7.917969 1.796875 8.398438 1.515625 8.980469 1.511719 C 9.582031 1.511719 10.046875 1.777344 10.292969 2.257812 C 10.472656 2.617188 10.476562 2.65625 10.476562 4.402344 L 10.476562 6 L 12.761719 6 C 14.207031 6 15.117188 6.011719 15.242188 6.035156 C 15.804688 6.125 16.292969 6.570312 16.4375 7.125 C 16.472656 7.257812 16.480469 8.339844 16.480469 13.476562 C 16.480469 18.855469 16.476562 19.695312 16.4375 19.863281 C 16.300781 20.429688 15.941406 20.816406 15.425781 20.9375 C 15.136719 21.003906 8.878906 21.003906 8.621094 20.933594 Z M 12.023438 18.753906 L 12.023438 18.011719 L 13.480469 18.011719 L 13.480469 19.496094 L 14.996094 19.496094 L 14.996094 17.980469 L 13.511719 17.980469 L 13.511719 16.527344 L 14.996094 16.527344 L 14.996094 14.976562 L 13.511719 14.976562 L 13.511719 13.492188 L 11.992188 13.492188 L 11.992188 14.976562 L 10.507812 14.976562 L 10.507812 13.492188 L 8.992188 13.492188 L 8.992188 15.007812 L 10.476562 15.007812 L 10.476562 16.496094 L 8.992188 16.496094 L 8.992188 18.011719 L 10.476562 18.011719 L 10.476562 19.496094 L 12.023438 19.496094 Z M 14.996094 9.777344 L 14.996094 7.488281 L 8.992188 7.488281 L 8.992188 12.007812 L 9.539062 12.011719 C 11.152344 12.023438 14.460938 12.054688 14.710938 12.0625 L 14.996094 12.066406 Z M 14.996094 9.777344 "/>
<path style=" stroke:none;fill-rule:nonzero;fill:rgb(100%,100%,100%);fill-opacity:1;" d="M 12.023438 15.753906 L 12.023438 15.007812 L 13.480469 15.007812 L 13.480469 16.496094 L 12.023438 16.496094 Z M 12.023438 15.753906 "/>
<path style=" stroke:none;fill-rule:nonzero;fill:rgb(100%,100%,100%);fill-opacity:1;" d="M 10.507812 17.253906 L 10.507812 16.527344 L 11.992188 16.527344 L 11.992188 17.980469 L 10.507812 17.980469 Z M 10.507812 17.253906 "/>
</g>
</svg>
