<?xml version="1.0" encoding="UTF-8"?>
<svg xmlns="http://www.w3.org/2000/svg" xmlns:xlink="http://www.w3.org/1999/xlink" width="24" height="24" viewBox="0 0 24 24" version="1.1">
<defs>
<filter id="alpha" filterUnits="objectBoundingBox" x="0%" y="0%" width="100%" height="100%">
  <feColorMatrix type="matrix" in="SourceGraphic" values="0 0 0 0 1 0 0 0 0 1 0 0 0 0 1 0 0 0 1 0"/>
</filter>
<image id="image12" width="24" height="24" xlink:href="data:image/png;base64,iVBORw0KGgoAAAANSUhEUgAAABgAAAAYCAYAAADgdz34AAAABmJLR0QA/wD/AP+gvaeTAAAAOUlEQVRIiWNgGAUEACO6wP/PGqIMbNNcyDLtV9YeRt4br5GFmMh0GNGA5haMglEwCkbBKBgFwwMAAGqFBwahvH4NAAAAAElFTkSuQmCC"/>
<mask id="mask0">
  <g filter="url(#alpha)">
<use xlink:href="#image12"/>
  </g>
</mask>
<clipPath id="clip1">
  <rect x="0" y="0" width="24" height="24"/>
</clipPath>
<g id="surface11" clip-path="url(#clip1)">
<path style=" stroke:none;fill-rule:nonzero;fill:rgb(74.509804%,74.509804%,74.509804%);fill-opacity:1;" d="M 4.5 6 L 19.5 6 L 19.5 3 L 4.5 3 Z M 4.5 6 "/>
</g>
<image id="image21" width="24" height="24" xlink:href="data:image/png;base64,iVBORw0KGgoAAAANSUhEUgAAABgAAAAYCAYAAADgdz34AAAABmJLR0QA/wD/AP+gvaeTAAAAQ0lEQVRIiWNgGAWjYBSMgoEHjPgk/3/KF2bg2mCP14RvAQcZ+Sa+xSXNgt/6nUwMf+ez41eTxYRPGq/kKBgFo2CIAADXBwnUO4DBIQAAAABJRU5ErkJggg=="/>
<mask id="mask1">
  <g filter="url(#alpha)">
<use xlink:href="#image21"/>
  </g>
</mask>
<clipPath id="clip2">
  <rect x="0" y="0" width="24" height="24"/>
</clipPath>
<g id="surface20" clip-path="url(#clip2)">
<path style=" stroke:none;fill-rule:nonzero;fill:rgb(74.509804%,74.509804%,74.509804%);fill-opacity:1;" d="M 7.5 12.042969 L 16.5 12.042969 L 16.5 13.496094 L 7.5 14.996094 Z M 7.5 12.042969 "/>
</g>
</defs>
<g id="surface3">
<path style=" stroke:none;fill-rule:nonzero;fill:rgb(74.509804%,74.509804%,74.509804%);fill-opacity:1;" d="M 4.5 0 C 3.632812 0 2.910156 0.296875 2.296875 0.84375 C 1.988281 1.117188 1.710938 1.46875 1.546875 1.96875 C 1.382812 2.46875 1.378906 3.128906 1.640625 3.65625 L 3.140625 6.65625 C 3.273438 6.921875 3.445312 7.296875 3.703125 7.6875 C 4.0625 7.578125 4.445312 7.5 4.828125 7.5 L 19.171875 7.5 C 19.554688 7.5 19.9375 7.578125 20.296875 7.6875 C 20.554688 7.296875 20.726562 6.921875 20.859375 6.65625 L 22.359375 3.65625 C 22.621094 3.128906 22.617188 2.46875 22.453125 1.96875 C 22.289062 1.46875 22.011719 1.117188 21.703125 0.84375 C 21.101562 0.304688 20.382812 0.00390625 19.511719 0.00390625 L 4.511719 0.00390625 Z M 4.6875 3 L 19.3125 3 L 18.140625 5.34375 C 17.964844 5.699219 17.875 5.898438 17.8125 6 L 6.1875 6 C 6.125 5.898438 6.035156 5.699219 5.859375 5.34375 L 4.703125 3.003906 Z M 4.6875 3 "/>
<path style=" stroke:none;fill-rule:nonzero;fill:rgb(74.509804%,74.509804%,74.509804%);fill-opacity:1;" d="M 6 9 C 5.269531 9 4.597656 9.214844 4.03125 9.65625 C 3.464844 10.097656 3 10.828125 3 11.671875 L 3 24 L 21 24 L 21 11.671875 C 21 10.828125 20.535156 10.097656 19.96875 9.65625 C 19.414062 9.207031 18.738281 8.996094 18.003906 8.996094 Z M 6 10.5 L 18 10.5 L 18 19.5 L 6 19.5 Z M 16.5 21 L 18 21 L 18 22.5 L 16.5 22.5 Z M 16.5 21 "/>
<use xlink:href="#surface11" mask="url(#mask0)"/>
<path style=" stroke:none;fill-rule:nonzero;fill:rgb(74.509804%,74.509804%,74.509804%);fill-opacity:1;" d="M 7.5 16.542969 L 16.5 16.542969 L 16.5 18.042969 L 7.5 18.042969 Z M 7.5 16.542969 "/>
<use xlink:href="#surface20" mask="url(#mask1)"/>
<path style=" stroke:none;fill-rule:nonzero;fill:rgb(100%,100%,100%);fill-opacity:1;" d="M 3.023438 17.617188 C 3.03125 10.476562 3.011719 11.144531 3.261719 10.628906 C 3.640625 9.855469 4.300781 9.34375 5.253906 9.089844 L 5.507812 9.019531 L 11.839844 9.011719 C 16.144531 9.003906 18.25 9.011719 18.414062 9.03125 C 18.953125 9.105469 19.347656 9.246094 19.746094 9.511719 C 20.335938 9.902344 20.726562 10.4375 20.921875 11.109375 L 20.984375 11.339844 L 20.996094 17.664062 L 21.003906 23.984375 L 3.015625 23.984375 Z M 18 21.742188 L 18 20.984375 L 16.484375 20.984375 L 16.484375 22.5 L 18 22.5 Z M 18 14.992188 L 18 10.488281 L 5.988281 10.488281 L 5.988281 19.496094 L 18 19.496094 Z M 18 14.992188 "/>
<path style=" stroke:none;fill-rule:nonzero;fill:rgb(100%,100%,100%);fill-opacity:1;" d="M 3.59375 7.492188 C 3.371094 7.125 1.5625 3.460938 1.511719 3.269531 C 1.4375 3.003906 1.4375 2.40625 1.507812 2.132812 C 1.582031 1.855469 1.804688 1.410156 1.984375 1.1875 C 2.386719 0.691406 3.027344 0.28125 3.671875 0.109375 L 3.929688 0.0429688 L 20.121094 0.0429688 L 20.398438 0.128906 C 20.96875 0.304688 21.40625 0.566406 21.804688 0.964844 C 22.296875 1.460938 22.511719 1.9375 22.539062 2.59375 C 22.566406 3.21875 22.59375 3.148438 21.4375 5.457031 C 20.875 6.582031 20.382812 7.539062 20.347656 7.585938 L 20.273438 7.671875 L 20.050781 7.613281 C 19.929688 7.578125 19.722656 7.539062 19.59375 7.519531 C 19.433594 7.496094 17.011719 7.488281 12 7.488281 C 4.210938 7.488281 4.351562 7.484375 3.898438 7.625 C 3.8125 7.648438 3.734375 7.671875 3.722656 7.671875 C 3.710938 7.671875 3.652344 7.59375 3.59375 7.492188 Z M 18.566406 4.507812 C 18.96875 3.691406 19.296875 3.015625 19.289062 3.007812 C 19.28125 3.003906 16 3 11.988281 3.003906 L 4.699219 3.011719 L 5.4375 4.507812 L 6.175781 6 L 17.828125 6 Z M 18.566406 4.507812 "/>
</g>
</svg>
