<?xml version="1.0" encoding="UTF-8"?>
<svg xmlns="http://www.w3.org/2000/svg" xmlns:xlink="http://www.w3.org/1999/xlink" width="96" height="96" viewBox="0 0 96 96" version="1.1">
<g id="surface1">
<path style=" stroke:none;fill-rule:nonzero;fill:rgb(74.509804%,74.509804%,74.509804%);fill-opacity:1;" d="M 47.816406 0 C 27.980469 0 11.671875 18.050781 12.003906 34.3125 C 12.371094 52.445312 17.605469 62.484375 18.753906 66 L 27.15625 66 C 20.1875 52.25 20.859375 35.0625 20.859375 35.0625 C 20.859375 20.828125 32.898438 9.1875 47.8125 9.1875 C 62.726562 9.1875 74.8125 20.710938 74.765625 35.4375 C 74.625 45.484375 73.738281 49.140625 68.734375 64.3125 L 78.15625 64.3125 C 79.503906 60.445312 84.003906 51.917969 84.003906 34.875 C 84.003906 17.898438 67.644531 0 47.8125 0 Z M 47.816406 0 "/>
<path style=" stroke:none;fill-rule:nonzero;fill:rgb(74.509804%,74.509804%,74.509804%);fill-opacity:1;" d="M 75.597656 42.324219 C 70.578125 40.925781 65 44.554688 63.128906 50.433594 L 60.570312 58.492188 C 58.703125 64.371094 61.257812 70.269531 66.277344 71.671875 C 71.296875 73.074219 76.878906 69.441406 78.742188 63.566406 L 81.304688 55.507812 C 83.171875 49.628906 80.617188 43.726562 75.597656 42.324219 Z M 75.597656 42.324219 "/>
<path style=" stroke:none;fill-rule:nonzero;fill:rgb(74.509804%,74.509804%,74.509804%);fill-opacity:1;" d="M 20.714844 42.359375 C 25.734375 40.957031 31.316406 44.585938 33.179688 50.46875 L 35.742188 58.523438 C 37.609375 64.402344 35.054688 70.304688 30.035156 71.703125 C 25.015625 73.105469 19.433594 69.472656 17.566406 63.597656 L 15.007812 55.539062 C 13.140625 49.660156 15.695312 43.757812 20.714844 42.359375 Z M 20.714844 42.359375 "/>
<path style=" stroke:none;fill-rule:nonzero;fill:rgb(74.509804%,74.509804%,74.509804%);fill-opacity:1;" d="M 42.285156 83.820312 L 53.910156 83.820312 C 57.167969 83.820312 59.816406 86.464844 59.816406 89.726562 C 59.816406 92.988281 57.167969 95.632812 53.910156 95.632812 L 42.285156 95.632812 C 39.023438 95.632812 36.378906 92.988281 36.378906 89.726562 C 36.378906 86.464844 39.023438 83.820312 42.285156 83.820312 Z M 42.285156 83.820312 "/>
<path style=" stroke:none;fill-rule:nonzero;fill:rgb(74.509804%,74.509804%,74.509804%);fill-opacity:1;" d="M 75.566406 56.460938 C 74.207031 56.703125 73.191406 57.84375 73.101562 59.21875 C 73.011719 60.59375 73.875 61.855469 75.191406 62.273438 L 83.996094 65.453125 L 83.808594 75.953125 C 83.78125 79.144531 82.996094 81.15625 81.933594 82.328125 C 80.878906 83.46875 79.523438 84.007812 77.628906 84.007812 L 52.691406 84.007812 C 51.605469 83.992188 50.601562 84.558594 50.054688 85.492188 C 49.507812 86.429688 49.507812 87.585938 50.054688 88.519531 C 50.601562 89.453125 51.605469 90.023438 52.691406 90.007812 L 77.628906 90.007812 C 80.910156 90.007812 84.179688 88.746094 86.441406 86.257812 C 88.695312 83.769531 89.773438 80.203125 89.816406 75.941406 L 90 63.34375 L 90 61.28125 L 88.125 60.53125 L 77.4375 56.59375 C 76.847656 56.332031 76.191406 56.265625 75.5625 56.40625 Z M 75.566406 56.460938 "/>
<path style=" stroke:none;fill-rule:nonzero;fill:rgb(100%,100%,100%);fill-opacity:1;" d="M 40.808594 95.382812 C 38.746094 94.828125 37.050781 93.109375 36.589844 91.105469 C 36.234375 89.5625 36.570312 87.765625 37.460938 86.429688 C 38.390625 85.035156 39.828125 84.167969 41.601562 83.933594 C 42.246094 83.847656 44.679688 83.828125 48.59375 83.871094 C 63.15625 84.039062 78.140625 84.074219 78.929688 83.941406 C 81.300781 83.546875 82.878906 81.859375 83.523438 79.019531 C 83.730469 78.113281 83.789062 77.195312 83.886719 73.539062 C 83.945312 71.117188 84 68.300781 84.003906 67.273438 L 84.007812 65.40625 L 81.566406 64.527344 C 80.21875 64.042969 79.03125 63.613281 78.925781 63.570312 C 78.777344 63.515625 78.640625 63.734375 78.324219 64.546875 C 77.769531 65.980469 76.617188 67.71875 75.484375 68.835938 C 70.628906 73.621094 63.671875 72.710938 60.972656 66.941406 C 60.289062 65.480469 60.070312 64.382812 60.066406 62.394531 C 60.0625 61.117188 60.125 60.355469 60.273438 59.757812 C 60.664062 58.164062 63.359375 49.820312 63.765625 48.9375 C 64.917969 46.417969 66.921875 44.257812 69.148438 43.136719 C 70.480469 42.464844 71.542969 42.191406 73.070312 42.117188 C 74.347656 42.054688 74.460938 42.03125 74.523438 41.789062 C 74.699219 41.070312 74.84375 35.101562 74.722656 33.472656 C 73.917969 22.863281 66.855469 13.9375 56.59375 10.566406 C 46.601562 7.285156 35.609375 9.851562 28.34375 17.15625 C 24.136719 21.386719 21.640625 26.5625 20.96875 32.421875 C 20.820312 33.757812 20.867188 41.703125 21.03125 42.085938 C 21.101562 42.25 21.246094 42.261719 22.050781 42.15625 C 24.890625 41.796875 28.351562 43.28125 30.484375 45.769531 C 32.085938 47.640625 32.5625 48.6875 34.292969 54.097656 C 36.203125 60.078125 36.253906 60.304688 36.25 62.453125 C 36.246094 64.539062 36.007812 65.578125 35.140625 67.34375 C 34.40625 68.832031 33.046875 70.253906 31.667969 70.972656 C 26.402344 73.71875 19.851562 70.300781 17.640625 63.660156 C 14.742188 54.933594 13.515625 50.007812 12.75 44.003906 C 12.183594 39.570312 11.917969 33.640625 12.179688 31.25 C 13.6875 17.382812 25.855469 4.261719 40.296875 0.925781 C 43.039062 0.292969 44.824219 0.101562 47.890625 0.101562 C 57.453125 0.101562 66.402344 4.0625 73.679688 11.515625 C 78.292969 16.242188 81.6875 22.203125 83.085938 28.027344 C 83.863281 31.265625 84.046875 33.582031 83.882812 38.042969 C 83.636719 44.699219 82.648438 51.066406 81.0625 56.234375 L 80.582031 57.800781 L 80.902344 57.914062 C 82.363281 58.4375 87.671875 60.40625 88.683594 60.800781 L 89.953125 61.296875 L 89.945312 63.484375 C 89.945312 64.6875 89.894531 68.429688 89.832031 71.804688 C 89.710938 78.460938 89.605469 79.621094 88.902344 81.761719 C 87.375 86.421875 83.816406 89.324219 78.929688 89.882812 C 78.34375 89.949219 73.921875 90.003906 68.839844 90.003906 L 59.792969 90.003906 L 59.640625 90.832031 C 59.21875 93.042969 57.542969 94.816406 55.316406 95.394531 C 54.289062 95.664062 41.808594 95.652344 40.808594 95.382812 Z M 40.808594 95.382812 "/>
</g>
</svg>
