<?xml version="1.0" encoding="UTF-8"?>
<svg xmlns="http://www.w3.org/2000/svg" xmlns:xlink="http://www.w3.org/1999/xlink" width="96" height="96" viewBox="0 0 96 96" version="1.1">
<g id="surface1">
<path style=" stroke:none;fill-rule:nonzero;fill:rgb(74.509804%,74.509804%,74.509804%);fill-opacity:1;" d="M 23.921875 54.675781 C 29.597656 53.019531 35.652344 56.464844 37.441406 62.371094 L 41.492188 75.726562 C 43.28125 81.632812 40.136719 87.765625 34.460938 89.425781 C 28.789062 91.082031 22.738281 87.640625 20.945312 81.730469 L 16.894531 68.375 C 15.101562 62.46875 18.25 56.335938 23.921875 54.675781 Z M 23.921875 54.675781 "/>
<path style=" stroke:none;fill-rule:nonzero;fill:rgb(74.509804%,74.509804%,74.509804%);fill-opacity:1;" d="M 47.820312 6 C 27.988281 6 11.679688 24.050781 12.007812 40.3125 C 12.296875 54.507812 16.859375 68.484375 18.007812 72 L 27.160156 72 C 20.191406 58.25 20.867188 41.0625 20.867188 41.0625 C 20.867188 26.828125 32.90625 15.1875 47.820312 15.1875 C 62.734375 15.1875 74.816406 26.148438 74.769531 40.875 C 74.628906 50.921875 73.742188 56.828125 68.742188 72 L 78.167969 72 C 79.511719 68.132812 84.007812 52.855469 84.007812 40.3125 C 84.007812 23.335938 67.652344 6 47.820312 6 Z M 47.820312 6 "/>
<path style=" stroke:none;fill-rule:nonzero;fill:rgb(74.509804%,74.509804%,74.509804%);fill-opacity:1;" d="M 72.078125 54.832031 C 66.40625 53.171875 60.355469 56.617188 58.5625 62.523438 L 54.511719 75.878906 C 52.71875 81.785156 55.867188 87.917969 61.539062 89.578125 C 67.214844 91.234375 73.269531 87.792969 75.058594 81.882812 L 79.109375 68.53125 C 80.898438 62.621094 77.753906 56.488281 72.078125 54.832031 Z M 72.078125 54.832031 "/>
<path style=" stroke:none;fill-rule:nonzero;fill:rgb(100%,100%,100%);fill-opacity:1;" d="M 63.203125 89.871094 C 58.082031 89.195312 54.386719 85.105469 54.085938 79.785156 C 54.035156 78.945312 54.074219 78.207031 54.199219 77.496094 C 54.46875 75.964844 58.675781 62.160156 59.253906 60.921875 C 59.894531 59.542969 60.632812 58.535156 61.8125 57.425781 C 64.777344 54.644531 68.886719 53.753906 72.667969 55.074219 C 73.070312 55.214844 73.421875 55.308594 73.445312 55.285156 C 73.539062 55.191406 74.089844 51.765625 74.277344 50.128906 C 74.804688 45.476562 74.9375 39.460938 74.554688 37.066406 C 72.871094 26.464844 65.253906 18.464844 54.402344 15.902344 C 50.136719 14.894531 44.9375 14.960938 40.722656 16.070312 C 29.976562 18.898438 22.066406 27.878906 20.96875 38.476562 C 20.78125 40.296875 20.894531 47.035156 21.15625 49.511719 C 21.417969 52.023438 21.863281 55.25 21.960938 55.359375 C 22.007812 55.410156 22.433594 55.289062 22.90625 55.089844 C 24.96875 54.226562 27.785156 54.097656 29.898438 54.769531 C 33.167969 55.8125 35.75 58.203125 37.03125 61.390625 C 37.484375 62.511719 41.648438 76.347656 41.78125 77.171875 C 41.960938 78.273438 41.9375 80.324219 41.726562 81.292969 C 40.898438 85.199219 38.359375 88.089844 34.726562 89.277344 C 33.214844 89.769531 31.015625 89.898438 29.488281 89.582031 C 26.128906 88.890625 23.140625 86.535156 21.660156 83.414062 C 21.414062 82.902344 20.582031 80.382812 19.804688 77.824219 C 19.023438 75.261719 18.078125 72.175781 17.695312 70.964844 C 14.304688 60.210938 12.347656 49.8125 12.109375 41.277344 C 12.03125 38.5 12.148438 36.851562 12.566406 34.765625 C 14.664062 24.355469 22.582031 14.5625 32.929688 9.570312 C 38.199219 7.027344 43.402344 5.894531 48.96875 6.089844 C 56.5625 6.355469 63.59375 8.972656 70.027344 13.933594 C 71.710938 15.234375 75.039062 18.515625 76.375 20.195312 C 81.617188 26.796875 84.285156 34.410156 83.949219 41.832031 C 83.640625 48.570312 82.636719 55.132812 80.722656 62.890625 C 79.789062 66.667969 78.578125 70.839844 78.113281 71.859375 C 78.019531 72.0625 77.21875 74.628906 76.328125 77.558594 C 74.609375 83.199219 74.238281 84.121094 73.066406 85.644531 C 71.152344 88.128906 68.175781 89.71875 65.0625 89.910156 C 64.484375 89.945312 63.648438 89.929688 63.203125 89.871094 Z M 63.203125 89.871094 "/>
</g>
</svg>
