<?xml version="1.0" encoding="UTF-8"?>
<svg xmlns="http://www.w3.org/2000/svg" xmlns:xlink="http://www.w3.org/1999/xlink" width="96" height="96" viewBox="0 0 96 96" version="1.1">
<g id="surface1">
<path style=" stroke:none;fill-rule:nonzero;fill:rgb(74.509804%,74.509804%,74.509804%);fill-opacity:1;" d="M 21.359375 12 C 16.257812 12 12 16.257812 12 21.359375 L 12 74.609375 C 12 79.699219 16.285156 83.984375 21.375 83.984375 L 68.625 83.984375 C 73.714844 83.984375 78 79.699219 78 74.609375 L 78 24.734375 L 76.3125 23.046875 L 67.6875 13.859375 L 66.007812 11.941406 L 63.367188 11.941406 Z M 23.984375 24 L 60.734375 24 L 66.015625 29.640625 L 66.015625 72 L 24.015625 72 Z M 23.984375 24 "/>
<path style=" stroke:none;fill-rule:nonzero;fill:rgb(74.509804%,74.509804%,74.509804%);fill-opacity:1;" d="M 35.582031 30.417969 L 54.375 30.417969 C 57.480469 30.417969 59.976562 32.917969 59.976562 36.023438 L 59.976562 48.320312 C 59.976562 51.421875 57.480469 53.921875 54.375 53.921875 L 35.582031 53.921875 C 32.476562 53.921875 29.976562 51.421875 29.976562 48.320312 L 29.976562 36.023438 C 29.976562 32.902344 32.5 30.441406 35.558594 30.441406 Z M 35.582031 30.417969 "/>
<path style=" stroke:none;fill-rule:nonzero;fill:rgb(100%,100%,100%);fill-opacity:1;" d="M 34.183594 53.707031 C 32.921875 53.410156 31.367188 52.199219 30.71875 51.003906 C 30.039062 49.753906 30.019531 49.535156 30.019531 42.246094 C 30.019531 37.785156 30.066406 35.3125 30.15625 34.875 C 30.625 32.648438 32.445312 30.933594 34.726562 30.570312 C 35.234375 30.492188 39.121094 30.445312 45.191406 30.445312 C 53.375 30.445312 54.96875 30.476562 55.640625 30.632812 C 57.90625 31.164062 59.5625 32.992188 59.859375 35.292969 C 60.015625 36.507812 60.015625 47.972656 59.855469 49.078125 C 59.546875 51.226562 58.070312 52.96875 56.011719 53.609375 C 55.296875 53.832031 54.738281 53.84375 44.960938 53.832031 C 39.25 53.824219 34.449219 53.769531 34.183594 53.707031 Z M 34.183594 53.707031 "/>
<path style=" stroke:none;fill-rule:nonzero;fill:rgb(100%,100%,100%);fill-opacity:1;" d="M 19.539062 83.75 C 16.609375 83.113281 14.160156 81.121094 12.882812 78.34375 C 11.996094 76.414062 12.054688 78.691406 12.09375 47.59375 L 12.128906 19.609375 L 12.417969 18.742188 C 13.5 15.523438 15.871094 13.25 19.109375 12.324219 L 20.054688 12.054688 L 43.035156 12.019531 L 66.011719 11.988281 L 66.792969 12.886719 C 67.8125 14.0625 75.925781 22.695312 77.0625 23.8125 L 77.941406 24.675781 L 77.9375 50.125 C 77.9375 77.65625 77.96875 76.28125 77.28125 77.984375 C 76.773438 79.246094 76.191406 80.101562 75.152344 81.144531 C 73.75 82.546875 72.273438 83.359375 70.410156 83.753906 C 69.214844 84.003906 20.707031 84.003906 19.539062 83.75 Z M 66.050781 50.835938 L 66.050781 29.625 L 63.425781 26.816406 L 60.800781 24.003906 L 23.953125 24.003906 L 23.953125 72.046875 L 66.050781 72.046875 Z M 66.050781 50.835938 "/>
</g>
</svg>
