<?xml version="1.0" encoding="UTF-8"?>
<svg xmlns="http://www.w3.org/2000/svg" xmlns:xlink="http://www.w3.org/1999/xlink" width="96" height="96" viewBox="0 0 96 96" version="1.1">
<g id="surface1">
<path style=" stroke:none;fill-rule:nonzero;fill:rgb(74.509804%,74.509804%,74.509804%);fill-opacity:1;" d="M 12 24 C 9 24 6 27 6 30 L 6 54 C 6 57 9 60 12 60 L 18 60 L 18 48 L 78 48 L 78 60 L 84 60 C 87 60 90 57 90 54 L 90 30 C 90 27 87 24 84 24 Z M 12 24 "/>
<path style=" stroke:none;fill-rule:nonzero;fill:rgb(74.509804%,74.509804%,74.509804%);fill-opacity:1;" d="M 24 6 L 24 18 L 72 18 L 72 6 Z M 24 6 "/>
<path style=" stroke:none;fill-rule:nonzero;fill:rgb(74.509804%,74.509804%,74.509804%);fill-opacity:1;" d="M 24 54 L 24 84 L 72 84 L 72 54 Z M 30 60 L 66 60 L 66 66 L 30 66 Z M 30 72 L 60 72 L 60 78 L 30 78 Z M 30 72 "/>
<path style=" stroke:none;fill-rule:nonzero;fill:rgb(100%,100%,100%);fill-opacity:1;" d="M 24.078125 69.011719 L 24.078125 54.089844 L 71.996094 54.089844 L 71.996094 83.933594 L 24.078125 83.933594 Z M 59.984375 74.957031 L 59.984375 71.921875 L 29.960938 71.984375 L 29.925781 74.988281 L 29.890625 77.988281 L 59.984375 77.988281 Z M 66.023438 62.976562 L 66.058594 59.910156 L 48.007812 59.941406 L 29.960938 59.972656 L 29.925781 62.878906 C 29.90625 64.480469 29.917969 65.859375 29.953125 65.945312 C 30 66.074219 33.523438 66.097656 48.003906 66.074219 L 65.992188 66.039062 Z M 66.023438 62.976562 "/>
<path style=" stroke:none;fill-rule:nonzero;fill:rgb(100%,100%,100%);fill-opacity:1;" d="M 10.425781 59.671875 C 10.039062 59.546875 9.4375 59.265625 9.101562 59.050781 C 8.308594 58.539062 7.144531 57.292969 6.707031 56.476562 C 6 55.167969 6.003906 55.238281 6.003906 42.082031 C 6 34.820312 6.050781 29.710938 6.121094 29.265625 C 6.515625 26.835938 8.832031 24.519531 11.261719 24.125 C 12.351562 23.945312 83.851562 23.960938 84.820312 24.136719 C 86.980469 24.53125 89.035156 26.390625 89.707031 28.558594 C 89.945312 29.328125 89.949219 29.734375 89.949219 41.945312 C 89.949219 55.8125 89.980469 55.273438 89.179688 56.6875 C 88.59375 57.722656 87.417969 58.8125 86.285156 59.375 L 85.320312 59.851562 L 78.066406 59.925781 L 78.003906 47.960938 L 48.003906 47.933594 L 18.007812 47.898438 L 18.007812 59.910156 L 14.574219 59.90625 C 11.59375 59.898438 11.042969 59.867188 10.425781 59.671875 Z M 10.425781 59.671875 "/>
<path style=" stroke:none;fill-rule:nonzero;fill:rgb(100%,100%,100%);fill-opacity:1;" d="M 24.078125 11.992188 L 24.078125 6.050781 L 71.996094 6.050781 L 71.996094 17.9375 L 24.078125 17.9375 Z M 24.078125 11.992188 "/>
</g>
</svg>
