<?xml version="1.0" encoding="UTF-8"?>
<svg xmlns="http://www.w3.org/2000/svg" xmlns:xlink="http://www.w3.org/1999/xlink" width="48" height="48" viewBox="0 0 48 48" version="1.1">
<g id="surface1">
<path style=" stroke:none;fill-rule:nonzero;fill:rgb(74.509804%,74.509804%,74.509804%);fill-opacity:1;" d="M 3 15 C 1.34375 15 0.0078125 16.570312 0.0078125 18.46875 L 0.0078125 32.15625 C 0.0078125 34.054688 1.253906 36 2.910156 36 L 5.914062 36 C 5.914062 37.898438 7.335938 39 8.996094 39 L 11.984375 39 C 13.640625 39 14.914062 37.898438 14.914062 36 L 32.875 36 C 32.875 37.898438 34.277344 39 35.9375 39 L 38.917969 39 C 40.578125 39 41.914062 37.898438 41.914062 36 L 44.917969 36 C 46.578125 36 47.914062 34.054688 47.914062 32.15625 L 47.914062 18.46875 C 47.882812 16.546875 46.5625 14.988281 44.882812 14.988281 Z M 4.496094 18.574219 C 5.324219 18.574219 5.992188 21.359375 5.992188 25.5 C 5.992188 29.640625 5.324219 32.214844 4.496094 32.214844 C 3.671875 32.214844 3 29.640625 3 25.5 C 3 21.359375 3.671875 18.574219 4.496094 18.574219 Z M 10.484375 18.574219 C 11.3125 18.574219 11.984375 21.933594 11.984375 26.074219 C 11.984375 30.21875 11.207031 32.199219 10.382812 32.199219 C 9.554688 32.199219 8.988281 29.640625 8.988281 25.5 C 8.988281 21.359375 9.660156 18.574219 10.484375 18.574219 Z M 16.371094 18.574219 C 17.195312 18.574219 17.96875 21.359375 17.96875 25.5 C 17.96875 29.640625 17.300781 32.199219 16.472656 32.199219 C 15.648438 32.199219 14.976562 29.640625 14.976562 25.5 C 14.976562 21.359375 15.542969 18.574219 16.371094 18.574219 Z M 37.429688 18.007812 C 41.5625 18.007812 44.914062 21.363281 44.914062 25.507812 C 44.914062 29.648438 41.5625 33.007812 37.429688 33.007812 C 33.292969 33.007812 29.945312 29.648438 29.945312 25.507812 C 29.945312 21.363281 33.292969 18.007812 37.429688 18.007812 Z M 37.429688 18.007812 "/>
<path style=" stroke:none;fill-rule:nonzero;fill:rgb(74.509804%,74.509804%,74.509804%);fill-opacity:1;" d="M 41.910156 25.5 C 41.910156 27.984375 39.894531 30 37.410156 30 C 34.925781 30 32.910156 27.984375 32.910156 25.5 C 32.910156 23.015625 34.925781 21 37.410156 21 C 39.894531 21 41.910156 23.015625 41.910156 25.5 Z M 41.910156 25.5 "/>
<path style=" stroke:none;fill-rule:nonzero;fill:rgb(100%,100%,100%);fill-opacity:1;" d="M 8.417969 38.929688 C 7.703125 38.808594 7.203125 38.546875 6.726562 38.042969 C 6.359375 37.65625 6.054688 37.066406 6 36.644531 C 5.984375 36.492188 5.953125 36.273438 5.9375 36.164062 L 5.90625 35.964844 L 4.125 35.949219 L 2.347656 35.929688 L 1.984375 35.757812 C 1.234375 35.410156 0.527344 34.480469 0.203125 33.421875 L 0.0585938 32.960938 L 0.0429688 25.546875 C 0.0234375 17.269531 0.00390625 17.648438 0.457031 16.738281 C 0.777344 16.089844 1.257812 15.601562 1.878906 15.292969 L 2.34375 15.066406 L 45.570312 15.066406 L 46.039062 15.296875 C 46.898438 15.722656 47.582031 16.652344 47.796875 17.683594 C 47.875 18.078125 47.886719 19.132812 47.871094 25.546875 L 47.855469 32.960938 L 47.710938 33.390625 C 47.34375 34.476562 46.648438 35.375 45.875 35.75 L 45.503906 35.929688 L 41.878906 35.96875 L 41.878906 36.183594 C 41.878906 36.578125 41.691406 37.246094 41.472656 37.609375 C 41.191406 38.085938 40.832031 38.40625 40.300781 38.660156 C 39.664062 38.964844 39.226562 39.007812 37.125 38.984375 C 35.40625 38.960938 35.261719 38.949219 34.890625 38.820312 C 33.773438 38.421875 33.09375 37.597656 32.941406 36.445312 L 32.875 35.960938 L 14.886719 35.960938 L 14.886719 36.195312 C 14.882812 36.566406 14.710938 37.191406 14.503906 37.582031 C 14.132812 38.28125 13.378906 38.796875 12.535156 38.929688 C 12.0625 39.007812 8.867188 39.003906 8.417969 38.929688 Z M 38.769531 32.890625 C 40.210938 32.632812 41.5 31.980469 42.570312 30.964844 C 45.585938 28.09375 45.71875 23.394531 42.871094 20.34375 C 40.910156 18.246094 37.796875 17.460938 35.054688 18.378906 C 32.835938 19.125 31.054688 20.90625 30.308594 23.132812 C 29.707031 24.921875 29.851562 27.136719 30.675781 28.789062 C 32.207031 31.851562 35.429688 33.484375 38.769531 32.890625 Z M 4.734375 32.152344 C 5.253906 31.886719 5.703125 30.34375 5.917969 28.097656 C 6.011719 27.101562 6.011719 23.839844 5.917969 22.835938 C 5.601562 19.542969 4.878906 17.921875 4.113281 18.792969 C 3.40625 19.597656 3 22.03125 3 25.460938 C 3 28.976562 3.429688 31.421875 4.15625 32.0625 C 4.394531 32.273438 4.480469 32.285156 4.734375 32.152344 Z M 10.71875 32.085938 C 11.199219 31.785156 11.578125 30.773438 11.828125 29.144531 C 11.960938 28.269531 12.015625 24.96875 11.917969 23.625 C 11.714844 20.757812 11.199219 18.8125 10.59375 18.597656 C 10.316406 18.5 10.121094 18.65625 9.855469 19.183594 C 9.273438 20.335938 8.988281 22.417969 8.988281 25.53125 C 8.984375 28.011719 9.164062 29.867188 9.503906 30.976562 C 9.839844 32.070312 10.210938 32.40625 10.71875 32.085938 Z M 16.960938 31.90625 C 17.324219 31.433594 17.644531 30.246094 17.839844 28.65625 C 17.996094 27.363281 17.996094 23.738281 17.839844 22.46875 C 17.59375 20.496094 17.222656 19.238281 16.75 18.765625 C 16.117188 18.132812 15.550781 19.03125 15.230469 21.164062 C 14.894531 23.414062 14.867188 26.90625 15.171875 29.117188 C 15.390625 30.726562 15.8125 31.921875 16.238281 32.132812 C 16.503906 32.265625 16.75 32.1875 16.960938 31.90625 Z M 16.960938 31.90625 "/>
<path style=" stroke:none;fill-rule:nonzero;fill:rgb(100%,100%,100%);fill-opacity:1;" d="M 36.320312 29.835938 C 35.101562 29.535156 34.039062 28.691406 33.429688 27.535156 C 32.792969 26.320312 32.792969 24.675781 33.429688 23.460938 C 34.226562 21.945312 35.71875 21.039062 37.417969 21.039062 C 41.144531 21.046875 43.191406 25.269531 40.921875 28.269531 C 40.367188 29.003906 39.460938 29.585938 38.5 29.835938 C 37.886719 29.988281 36.953125 29.992188 36.320312 29.835938 Z M 36.320312 29.835938 "/>
</g>
</svg>
