<?xml version="1.0" encoding="UTF-8"?>
<svg xmlns="http://www.w3.org/2000/svg" xmlns:xlink="http://www.w3.org/1999/xlink" width="48" height="48" viewBox="0 0 48 48" version="1.1">
<g id="surface1">
<path style=" stroke:none;fill-rule:nonzero;fill:rgb(74.509804%,74.509804%,74.509804%);fill-opacity:1;" d="M 9.570312 0 C 5.964844 0 3.007812 2.964844 3.007812 6.5625 L 3.007812 41.4375 C 3.007812 45.035156 5.964844 48 9.570312 48 L 38.445312 48 C 42.050781 48 45.007812 45.035156 45.007812 41.4375 L 45.007812 6.5625 C 45.007812 2.964844 42.050781 0 38.445312 0 Z M 9.570312 6 L 38.445312 6 C 38.816406 6 39.007812 6.171875 39.007812 6.5625 L 39.007812 41.4375 C 39.007812 41.828125 38.816406 42 38.445312 42 L 9.570312 42 C 9.199219 42 9.007812 41.828125 9.007812 41.4375 L 9.007812 6.5625 C 9.007812 6.171875 9.199219 6 9.570312 6 Z M 9.570312 6 "/>
<path style=" stroke:none;fill-rule:nonzero;fill:rgb(74.509804%,74.509804%,74.509804%);fill-opacity:1;" d="M 23.519531 9 C 22.722656 9.03125 21.886719 9.175781 21.082031 9.375 C 14.648438 10.96875 10.769531 17.472656 12.363281 23.90625 C 13.714844 29.355469 18.589844 32.972656 23.960938 32.984375 C 24.464844 32.984375 24.972656 32.953125 25.484375 32.886719 L 24.316406 23.949219 C 24.214844 23.980469 24.105469 24 23.988281 24 C 22.332031 24 20.988281 22.65625 20.988281 21 C 20.988281 19.34375 22.332031 18 23.988281 18 C 25.648438 18 26.988281 19.34375 26.988281 21 C 26.988281 21.351562 26.902344 21.675781 26.773438 21.972656 L 34.875 26.136719 C 36.03125 23.644531 36.28125 20.792969 35.613281 18.09375 C 34.21875 12.464844 29.097656 8.773438 23.519531 9 Z M 23.519531 9 "/>
<path style=" stroke:none;fill-rule:nonzero;fill:rgb(74.509804%,74.509804%,74.509804%);fill-opacity:1;" d="M 25.980469 24 L 30 36 C 32.203125 42.167969 39 37.152344 34.488281 33 Z M 25.980469 24 "/>
<path style=" stroke:none;fill-rule:nonzero;fill:rgb(100%,100%,100%);fill-opacity:1;" d="M 23.152344 32.921875 C 20.804688 32.777344 18.390625 31.839844 16.535156 30.351562 C 10.9375 25.863281 10.496094 17.546875 15.585938 12.488281 C 17.800781 10.289062 20.878906 9.03125 24.050781 9.03125 C 28.992188 9.03125 33.429688 12.105469 35.164062 16.738281 C 36.210938 19.535156 36.199219 22.734375 35.125 25.476562 L 34.875 26.121094 L 33.933594 25.632812 C 33.417969 25.363281 31.617188 24.4375 29.929688 23.578125 C 28.246094 22.714844 26.855469 22.003906 26.84375 21.996094 C 26.832031 21.984375 26.871094 21.789062 26.929688 21.554688 C 27.25 20.273438 26.535156 18.890625 25.226562 18.261719 C 24.769531 18.039062 24.75 18.039062 23.988281 18.039062 C 23.226562 18.039062 23.207031 18.039062 22.75 18.261719 C 21.128906 19.039062 20.523438 20.8125 21.332031 22.417969 C 21.800781 23.34375 22.886719 24.007812 23.9375 24.011719 C 24.289062 24.011719 24.292969 24.015625 24.328125 24.214844 C 24.34375 24.324219 24.597656 26.238281 24.882812 28.46875 C 25.171875 30.699219 25.421875 32.601562 25.4375 32.691406 C 25.46875 32.847656 25.453125 32.859375 25.207031 32.890625 C 24.683594 32.953125 23.875 32.964844 23.152344 32.921875 Z M 23.152344 32.921875 "/>
<path style=" stroke:none;fill-rule:nonzero;fill:rgb(100%,100%,100%);fill-opacity:1;" d="M 32.539062 38.777344 C 31.617188 38.519531 30.90625 37.855469 30.335938 36.714844 C 30.125 36.292969 26.058594 24.273438 26.109375 24.222656 C 26.140625 24.195312 34.261719 32.742188 34.933594 33.503906 C 35.453125 34.09375 35.851562 34.894531 35.945312 35.539062 C 36.1875 37.21875 34.964844 38.75 33.304688 38.847656 C 33.03125 38.859375 32.75 38.835938 32.539062 38.777344 Z M 32.539062 38.777344 "/>
<path style=" stroke:none;fill-rule:nonzero;fill:rgb(100%,100%,100%);fill-opacity:1;" d="M 8.726562 47.929688 C 7.035156 47.699219 5.398438 46.734375 4.363281 45.363281 C 3.589844 44.335938 3.160156 43.171875 3.054688 41.8125 C 3.015625 41.289062 3 34.789062 3.015625 23.394531 L 3.035156 5.777344 L 3.164062 5.21875 C 3.769531 2.613281 5.761719 0.660156 8.355469 0.132812 C 8.886719 0.0273438 9.636719 0.0234375 24.019531 0.0234375 C 38.398438 0.0234375 39.152344 0.0273438 39.648438 0.132812 C 42.210938 0.6875 44.09375 2.445312 44.78125 4.9375 L 44.945312 5.53125 L 44.964844 23.703125 C 44.976562 36.992188 44.960938 42.007812 44.910156 42.367188 C 44.519531 45.140625 42.320312 47.394531 39.535156 47.882812 C 39.085938 47.960938 36.949219 47.96875 23.964844 47.964844 C 15.6875 47.957031 8.828125 47.941406 8.726562 47.929688 Z M 38.746094 41.960938 C 38.832031 41.921875 38.929688 41.816406 38.964844 41.726562 C 39.015625 41.613281 39.03125 36.425781 39.015625 23.898438 L 39 6.234375 L 38.855469 6.113281 C 38.710938 6 38.390625 5.996094 24.019531 5.996094 L 9.332031 5.996094 L 9.003906 6.253906 L 9.003906 23.960938 C 9.003906 36.367188 9.023438 41.703125 9.070312 41.789062 C 9.105469 41.855469 9.199219 41.9375 9.273438 41.964844 C 9.484375 42.054688 38.558594 42.046875 38.746094 41.960938 Z M 38.746094 41.960938 "/>
</g>
</svg>
