<?xml version="1.0" encoding="UTF-8"?>
<svg xmlns="http://www.w3.org/2000/svg" xmlns:xlink="http://www.w3.org/1999/xlink" width="48" height="48" viewBox="0 0 48 48" version="1.1">
<g id="surface1">
<path style=" stroke:none;fill-rule:nonzero;fill:rgb(74.509804%,74.509804%,74.509804%);fill-opacity:1;" d="M 18 3 C 14.972656 3.015625 15 6 15 6 L 15 39 C 15 42 18 42 18 42 L 30 42 C 33 42 33 39 33 39 L 33 15 C 33.003906 13.335938 31.664062 12 30 12 L 21 12 L 21 6 C 21 6 20.972656 3.015625 18 3 Z M 18 15 L 30 15 L 30 24.09375 L 18 24 Z M 18 27 L 21 27 L 21 30 L 24 30 L 24 27 L 27 27 L 27 30 L 30 30 L 30 33 L 27 33 L 27 36 L 30 36 L 30 39 L 27 39 L 27 36 L 24 36 L 24 39 L 21 39 L 21 36 L 18 36 L 18 33 L 21 33 L 21 30 L 18 30 Z M 21 33 L 21 36 L 24 36 L 24 33 Z M 24 33 L 27 33 L 27 30 L 24 30 Z M 24 33 "/>
<path style=" stroke:none;fill-rule:nonzero;fill:rgb(100%,100%,100%);fill-opacity:1;" d="M 17.238281 41.867188 C 16.027344 41.546875 15.257812 40.746094 15.078125 39.613281 C 15.03125 39.34375 15.011719 33.734375 15.011719 22.496094 C 15.011719 4.175781 14.988281 5.367188 15.382812 4.542969 C 15.835938 3.59375 16.792969 3.027344 17.957031 3.023438 C 19.160156 3.023438 20.097656 3.554688 20.585938 4.515625 C 20.945312 5.230469 20.953125 5.3125 20.953125 8.808594 L 20.953125 12 L 25.519531 12 C 28.414062 12.003906 30.234375 12.027344 30.488281 12.066406 C 31.605469 12.25 32.582031 13.140625 32.878906 14.253906 C 32.949219 14.515625 32.964844 16.679688 32.964844 26.953125 C 32.964844 37.710938 32.949219 39.386719 32.871094 39.726562 C 32.601562 40.863281 31.882812 41.628906 30.855469 41.871094 C 30.273438 42.007812 17.757812 42.007812 17.238281 41.867188 Z M 24.050781 37.507812 L 24.050781 36.023438 L 26.960938 36.023438 L 26.960938 38.996094 L 29.992188 38.996094 L 29.992188 35.960938 L 27.023438 35.960938 L 27.023438 33.050781 L 29.992188 33.050781 L 29.992188 29.957031 L 27.023438 29.957031 L 27.023438 26.984375 L 23.988281 26.984375 L 23.988281 29.957031 L 21.015625 29.957031 L 21.015625 26.984375 L 17.984375 26.984375 L 17.984375 30.015625 L 20.953125 30.015625 L 20.953125 32.988281 L 17.984375 32.988281 L 17.984375 36.023438 L 20.953125 36.023438 L 20.953125 38.996094 L 24.050781 38.996094 Z M 29.992188 19.554688 L 29.992188 14.972656 L 17.984375 14.972656 L 17.984375 24.011719 L 19.082031 24.023438 C 22.300781 24.046875 28.921875 24.113281 29.421875 24.125 L 29.992188 24.136719 Z M 29.992188 19.554688 "/>
<path style=" stroke:none;fill-rule:nonzero;fill:rgb(100%,100%,100%);fill-opacity:1;" d="M 24.050781 31.503906 L 24.050781 30.015625 L 26.960938 30.015625 L 26.960938 32.988281 L 24.050781 32.988281 Z M 24.050781 31.503906 "/>
<path style=" stroke:none;fill-rule:nonzero;fill:rgb(100%,100%,100%);fill-opacity:1;" d="M 21.015625 34.507812 L 21.015625 33.050781 L 23.988281 33.050781 L 23.988281 35.960938 L 21.015625 35.960938 Z M 21.015625 34.507812 "/>
</g>
</svg>
