<?xml version="1.0" encoding="UTF-8"?>
<svg xmlns="http://www.w3.org/2000/svg" xmlns:xlink="http://www.w3.org/1999/xlink" width="48" height="48" viewBox="0 0 48 48" version="1.1">
<g id="surface1">
<path style=" stroke:none;fill-rule:nonzero;fill:rgb(74.509804%,74.509804%,74.509804%);fill-opacity:1;" d="M 6 12 C 4.5 12 3 13.5 3 15 L 3 27 C 3 28.5 4.5 30 6 30 L 9 30 L 9 24 L 39 24 L 39 30 L 42 30 C 43.5 30 45 28.5 45 27 L 45 15 C 45 13.5 43.5 12 42 12 Z M 6 12 "/>
<path style=" stroke:none;fill-rule:nonzero;fill:rgb(74.509804%,74.509804%,74.509804%);fill-opacity:1;" d="M 12 3 L 12 9 L 36 9 L 36 3 Z M 12 3 "/>
<path style=" stroke:none;fill-rule:nonzero;fill:rgb(74.509804%,74.509804%,74.509804%);fill-opacity:1;" d="M 12 27 L 12 42 L 36 42 L 36 27 Z M 15 30 L 33 30 L 33 33 L 15 33 Z M 15 36 L 30 36 L 30 39 L 15 39 Z M 15 36 "/>
<path style=" stroke:none;fill-rule:nonzero;fill:rgb(100%,100%,100%);fill-opacity:1;" d="M 12.039062 34.507812 L 12.039062 27.046875 L 36 27.046875 L 36 41.964844 L 12.039062 41.964844 Z M 29.992188 37.476562 L 29.992188 35.960938 L 22.488281 35.976562 L 14.980469 35.992188 L 14.964844 37.492188 L 14.945312 38.992188 L 29.992188 38.992188 Z M 33.011719 31.488281 L 33.03125 29.957031 L 24.003906 29.96875 L 14.980469 29.988281 L 14.964844 31.441406 C 14.953125 32.238281 14.960938 32.929688 14.976562 32.972656 C 15 33.035156 16.761719 33.046875 24 33.035156 L 32.996094 33.019531 Z M 33.011719 31.488281 "/>
<path style=" stroke:none;fill-rule:nonzero;fill:rgb(100%,100%,100%);fill-opacity:1;" d="M 5.214844 29.835938 C 5.019531 29.773438 4.71875 29.632812 4.550781 29.523438 C 4.15625 29.269531 3.574219 28.648438 3.351562 28.238281 C 3 27.585938 3 27.621094 3 21.039062 C 3 17.410156 3.023438 14.855469 3.058594 14.632812 C 3.257812 13.417969 4.417969 12.257812 5.632812 12.0625 C 6.175781 11.972656 41.925781 11.980469 42.410156 12.070312 C 43.492188 12.265625 44.519531 13.195312 44.851562 14.28125 C 44.972656 14.664062 44.976562 14.867188 44.976562 20.972656 C 44.976562 27.90625 44.988281 27.636719 44.589844 28.34375 C 44.296875 28.863281 43.710938 29.40625 43.140625 29.6875 L 42.660156 29.925781 L 39.035156 29.964844 L 39 23.980469 L 24.003906 23.964844 L 9.003906 23.949219 L 9.003906 29.957031 L 7.289062 29.953125 C 5.796875 29.949219 5.519531 29.933594 5.214844 29.835938 Z M 5.214844 29.835938 "/>
<path style=" stroke:none;fill-rule:nonzero;fill:rgb(100%,100%,100%);fill-opacity:1;" d="M 12.039062 5.996094 L 12.039062 3.023438 L 36 3.023438 L 36 8.96875 L 12.039062 8.96875 Z M 12.039062 5.996094 "/>
</g>
</svg>
