<?xml version="1.0" encoding="UTF-8"?>
<svg xmlns="http://www.w3.org/2000/svg" xmlns:xlink="http://www.w3.org/1999/xlink" width="48" height="48" viewBox="0 0 48 48" version="1.1">
<g id="surface1">
<path style=" stroke:none;fill-rule:nonzero;fill:rgb(100%,100%,100%);fill-opacity:1;" d="M 24 0 C 10.753906 0 0 10.753906 0 24 C 0 37.246094 10.753906 48 24 48 C 37.246094 48 48 37.246094 48 24 C 48 10.753906 37.246094 0 24 0 Z M 12 19 L 37 19 L 37 29 L 12 29 Z M 12 19 "/>
</g>
</svg>
