<?xml version="1.0" encoding="UTF-8"?>
<svg xmlns="http://www.w3.org/2000/svg" xmlns:xlink="http://www.w3.org/1999/xlink" width="96" height="96" viewBox="0 0 96 96" version="1.1">
<g id="surface1">
<path style=" stroke:none;fill-rule:nonzero;fill:rgb(100%,100%,100%);fill-opacity:1;" d="M 48 4 C 47.835938 4.007812 47.664062 4.03125 47.5 4.0625 C 45.96875 4.460938 44.835938 5.742188 44.625 7.3125 C 44.625 7.375 44.625 7.4375 44.625 7.5 C 44.5625 7.5625 44.5 7.625 44.4375 7.6875 C 44.429688 7.796875 44.429688 7.898438 44.4375 8 C 44.328125 8.28125 44.265625 8.578125 44.25 8.875 L 44.4375 38.625 L 34.4375 28.5 C 33.578125 27.210938 32.023438 26.554688 30.492188 26.835938 C 28.960938 27.125 27.75 28.296875 27.414062 29.8125 C 27.078125 31.328125 27.671875 32.90625 28.9375 33.8125 L 42.875 47.9375 L 28.9375 61.875 C 27.882812 62.84375 27.445312 64.3125 27.796875 65.695312 C 28.148438 67.078125 29.234375 68.164062 30.617188 68.515625 C 32 68.867188 33.46875 68.429688 34.4375 67.375 L 44.625 57.0625 L 44.75 86.8125 C 44.78125 87.046875 44.84375 87.28125 44.9375 87.5 C 44.9375 87.5625 44.9375 87.625 44.9375 87.6875 C 44.75 89.320312 45.609375 90.882812 47.078125 91.617188 C 48.546875 92.34375 50.3125 92.070312 51.5 90.9375 L 70.75 70.3125 C 72.140625 68.757812 72.054688 66.390625 70.5625 64.9375 L 53.75 47.9375 L 70.5625 30.75 C 72.054688 29.296875 72.140625 26.929688 70.75 25.375 L 51.125 5.25 C 50.328125 4.382812 49.179688 3.921875 48 4 Z M 49.75 14.9375 L 62.5 28 L 49.9375 40.6875 Z M 76.4375 33.4375 C 74.820312 33.4375 73.210938 33.929688 71.9375 35.0625 C 70.664062 36.195312 69.8125 37.984375 69.8125 40.0625 L 69.8125 43.1875 L 69.75 43.1875 C 67.90625 43.1875 66.375 44.71875 66.375 46.5625 L 66.375 56.4375 C 66.375 58.28125 67.90625 59.8125 69.75 59.8125 L 83 59.8125 C 84.84375 59.8125 86.3125 58.28125 86.3125 56.4375 L 86.3125 46.5625 C 86.3125 44.75 84.921875 43.242188 83.125 43.1875 L 83.125 40.0625 C 83.125 37.984375 82.210938 36.195312 80.9375 35.0625 C 79.664062 33.929688 78.054688 33.4375 76.4375 33.4375 Z M 76.4375 36.75 C 77.3125 36.75 78.15625 37.039062 78.75 37.5625 C 79.34375 38.085938 79.8125 38.8125 79.8125 40.0625 L 79.8125 43.1875 L 73.125 43.1875 L 73.125 40.0625 C 73.125 38.8125 73.53125 38.085938 74.125 37.5625 C 74.71875 37.039062 75.5625 36.75 76.4375 36.75 Z M 50.125 55.3125 L 62.5 67.75 L 50.25 80.8125 Z M 50.125 55.3125 "/>
</g>
</svg>
