<?xml version="1.0" encoding="UTF-8"?>
<svg xmlns="http://www.w3.org/2000/svg" xmlns:xlink="http://www.w3.org/1999/xlink" width="96" height="96" viewBox="0 0 96 96" version="1.1">
<g id="surface1">
<path style=" stroke:none;fill-rule:nonzero;fill:rgb(100%,100%,100%);fill-opacity:1;" d="M 72.6875 22.625 L 72.6875 29.5625 L 60.6875 29.5625 L 60.375 29.75 L 43 43.25 L 25.625 29.75 L 25.3125 29.5625 L 7.1875 29.5625 L 7.1875 39.5625 L 24.625 39.5625 L 36.1875 48.5625 L 24.625 57.5625 L 7.1875 57.5625 L 7.1875 67.5625 L 25.3125 67.5625 L 25.625 67.375 L 43 53.875 L 60.375 67.375 L 60.6875 67.5625 L 72.6875 67.5625 L 72.6875 74.5 L 74.25 73.375 L 88.25 63.375 L 89.375 62.5625 L 88.25 61.75 L 74.25 51.75 L 72.6875 50.625 L 72.6875 57.5625 L 61.375 57.5625 L 49.8125 48.5625 L 61.375 39.5625 L 72.6875 39.5625 L 72.6875 46.5 L 74.25 45.375 L 88.25 35.375 L 89.375 34.5625 L 88.25 33.75 L 74.25 23.75 Z M 72.6875 22.625 "/>
</g>
</svg>
