<?xml version="1.0" encoding="UTF-8"?>
<svg xmlns="http://www.w3.org/2000/svg" xmlns:xlink="http://www.w3.org/1999/xlink" width="96" height="96" viewBox="0 0 96 96" version="1.1">
<g id="surface1">
<path style=" stroke:none;fill-rule:nonzero;fill:rgb(100%,100%,100%);fill-opacity:1;" d="M 84.480469 77.460938 C 84.433594 77.207031 84.367188 76.953125 84.292969 76.710938 C 83.664062 73.914062 81.152344 71.953125 78.292969 72.023438 L 68.167969 72.023438 C 71.632812 69.730469 74.660156 66.925781 77.167969 63.585938 C 82.367188 56.652344 84.679688 48.390625 84.292969 40.335938 C 84.238281 39.183594 84.078125 38.101562 83.917969 36.960938 C 82.609375 27.828125 77.777344 19.09375 69.851562 13.148438 C 54.003906 1.257812 31.304688 4.609375 19.417969 20.460938 C 7.53125 36.3125 10.882812 59.007812 26.730469 70.898438 C 27.765625 71.640625 29.015625 72.035156 30.292969 72.023438 C 30.601562 72.046875 30.917969 72.046875 31.230469 72.023438 L 36.292969 72.023438 L 36.292969 66.585938 C 36.300781 66.398438 36.296875 66.210938 36.289062 66.023438 C 36.300781 64.101562 35.398438 62.289062 33.851562 61.148438 C 23.195312 53.148438 21.171875 38.242188 29.164062 27.585938 C 37.164062 16.925781 52.070312 14.898438 62.730469 22.898438 C 73.386719 30.894531 75.414062 45.800781 67.417969 56.457031 C 65.484375 59.035156 63.015625 61.078125 60.292969 62.644531 L 60.292969 54.019531 C 60.289062 50.707031 57.605469 48.019531 54.292969 48.019531 C 53.855469 47.972656 53.414062 47.972656 52.980469 48.019531 L 48.292969 48.019531 L 48.292969 84.019531 L 78.292969 84.019531 C 78.664062 84.054688 79.042969 84.054688 79.417969 84.019531 L 84.289062 84.019531 L 84.289062 79.144531 C 84.433594 78.59375 84.5 78.027344 84.480469 77.457031 Z M 84.480469 77.460938 "/>
</g>
</svg>
