<?xml version="1.0" encoding="UTF-8"?>
<svg xmlns="http://www.w3.org/2000/svg" xmlns:xlink="http://www.w3.org/1999/xlink" width="96" height="96" viewBox="0 0 96 96" version="1.1">
<g id="surface1">
<path style=" stroke:none;fill-rule:nonzero;fill:rgb(74.509804%,74.509804%,74.509804%);fill-opacity:1;" d="M 58.679688 30 C 56.441406 30.40625 54.625 32.042969 53.988281 34.226562 C 53.351562 36.414062 54.007812 38.769531 55.679688 40.3125 L 67.679688 52.3125 L 71.992188 56.4375 L 76.304688 52.3125 L 88.304688 40.3125 C 89.867188 38.777344 90.484375 36.523438 89.921875 34.402344 C 89.359375 32.285156 87.707031 30.628906 85.589844 30.070312 C 83.472656 29.507812 81.21875 30.125 79.679688 31.6875 L 72 39.367188 L 64.320312 31.6875 C 62.863281 30.179688 60.722656 29.542969 58.679688 30.007812 Z M 58.679688 30 "/>
<path style=" stroke:none;fill-rule:nonzero;fill:rgb(74.509804%,74.509804%,74.509804%);fill-opacity:1;" d="M 36 6 C 26.132812 6 18 14.132812 18 24 L 18 72 C 18 81.867188 26.132812 90 36 90 L 60 90 L 60 78 L 36 78 C 32.570312 78 30 75.425781 30 72 L 30 24 C 30 20.570312 32.570312 18 36 18 L 60 18 C 63.425781 18 66 20.570312 66 24 L 66 48 L 78 48 L 78 24 C 78 14.132812 69.867188 6 60 6 Z M 36 6 "/>
<path style=" stroke:none;fill-rule:nonzero;fill:rgb(74.509804%,74.509804%,74.509804%);fill-opacity:1;" d="M 54 36 L 54 30 L 60 30 L 60 36 Z M 54 36 "/>
<path style=" stroke:none;fill-rule:nonzero;fill:rgb(74.509804%,74.509804%,74.509804%);fill-opacity:1;" d="M 84 36 L 84 30 L 90 30 L 90 36 Z M 84 36 "/>
<path style=" stroke:none;fill-rule:nonzero;fill:rgb(100%,100%,100%);fill-opacity:1;" d="M 32.15625 89.363281 C 26.847656 88.210938 22.40625 84.601562 19.898438 79.402344 L 18.425781 76.351562 L 18.425781 19.808594 L 19.339844 17.574219 C 21.179688 13.058594 25.105469 9.132812 29.613281 7.300781 C 31.765625 6.429688 32.414062 6.390625 47.023438 6.265625 C 60.152344 6.15625 62.511719 6.226562 64.515625 6.804688 C 68.015625 7.816406 70.53125 9.351562 72.929688 11.941406 C 76.871094 16.199219 77.996094 19.964844 78.011719 28.945312 L 78.019531 33.601562 L 79.546875 32.117188 C 81.316406 30.394531 83.070312 29.925781 87.070312 30.101562 L 89.816406 30.21875 L 89.816406 33.882812 C 89.816406 36.28125 89.617188 37.925781 89.234375 38.644531 C 88.914062 39.25 84.894531 43.484375 80.304688 48.058594 L 71.957031 56.375 L 63.5625 48.058594 C 58.949219 43.484375 54.914062 39.25 54.597656 38.644531 C 54.222656 37.933594 54.019531 36.25 54.019531 33.863281 L 54.019531 30.183594 L 56.765625 30.121094 C 61.855469 30.007812 62.609375 30.226562 65.105469 32.546875 L 66.222656 33.589844 L 66.214844 28.328125 C 66.203125 22.242188 65.578125 20.199219 63.296875 18.792969 C 62 17.996094 61.429688 17.96875 47.621094 18.074219 L 33.289062 18.183594 L 31.753906 19.714844 L 30.222656 21.246094 L 30.113281 47.609375 L 30.003906 73.96875 L 30.933594 75.363281 C 32.761719 78.101562 33.234375 78.179688 47.207031 78.183594 L 59.714844 78.183594 L 59.714844 89.980469 L 47.207031 89.945312 C 38.300781 89.925781 33.964844 89.757812 32.15625 89.363281 Z M 32.15625 89.363281 "/>
</g>
</svg>
