<?xml version="1.0" encoding="UTF-8"?>
<svg xmlns="http://www.w3.org/2000/svg" xmlns:xlink="http://www.w3.org/1999/xlink" width="16" height="16" viewBox="0 0 16 16" version="1.1">
<g id="surface1">
<path style=" stroke:none;fill-rule:nonzero;fill:rgb(74.509804%,74.509804%,74.509804%);fill-opacity:1;" d="M 6.410156 5 C 6.167969 5.042969 5.996094 5.253906 6 5.5 L 6 8 L 4.5 8 C 4.320312 7.996094 4.152344 8.09375 4.0625 8.246094 C 3.96875 8.402344 3.96875 8.597656 4.0625 8.75 C 4.152344 8.90625 4.320312 9.003906 4.5 9 L 6.5 9 C 6.777344 9 7 8.777344 7 8.5 L 7 5.5 C 7.003906 5.351562 6.9375 5.207031 6.820312 5.109375 C 6.707031 5.011719 6.554688 4.972656 6.40625 5 Z M 6.410156 5 "/>
<path style=" stroke:none;fill-rule:nonzero;fill:rgb(74.509804%,74.509804%,74.509804%);fill-opacity:1;" d="M 11 11 L 12.375 11 L 13.5 12.09375 L 14.59375 11 L 16 11 L 16 12.46875 L 14.90625 13.53125 L 16 14.59375 L 16 16 L 14.5625 16 L 13.5 14.9375 L 12.4375 16 L 11 16 L 11 14.59375 L 12.0625 13.53125 L 11 12.46875 Z M 11 11 "/>
<path style=" stroke:none;fill-rule:nonzero;fill:rgb(74.509804%,74.509804%,74.509804%);fill-opacity:1;" d="M 6.5 2 C 2.921875 2 0 4.921875 0 8.5 C 0 12.078125 2.921875 15 6.5 15 C 7.789062 15 8.984375 14.625 10 13.96875 L 10 11.3125 C 9.179688 12.339844 7.929688 13 6.5 13 C 4.003906 13 2 10.996094 2 8.5 C 2 6.003906 4.003906 4 6.5 4 C 8.996094 4 11 6.003906 11 8.5 C 11 9.03125 10.886719 9.527344 10.71875 10 L 12.8125 10 C 12.925781 9.519531 13 9.015625 13 8.5 C 13 4.921875 10.078125 2 6.5 2 Z M 6.5 2 "/>
<path style=" stroke:none;fill-rule:nonzero;fill:rgb(100%,0%,0%);fill-opacity:1;" d="M 11.039062 15.253906 L 11.039062 14.558594 L 12.085938 13.503906 L 11.5625 12.976562 L 11.039062 12.453125 L 11.039062 10.996094 L 12.355469 10.996094 L 12.914062 11.554688 L 13.472656 12.109375 L 14.042969 11.554688 L 14.613281 10.996094 L 15.988281 10.996094 L 15.988281 12.457031 L 14.902344 13.535156 L 15.988281 14.625 L 15.988281 15.945312 L 14.53125 15.945312 L 13.476562 14.898438 L 12.949219 15.421875 L 12.425781 15.945312 L 11.039062 15.945312 Z M 11.039062 15.253906 "/>
<path style=" stroke:none;fill-rule:nonzero;fill:rgb(100%,100%,100%);fill-opacity:1;" d="M 5.699219 14.929688 C 3.203125 14.578125 1.167969 12.902344 0.363281 10.527344 C -0.0195312 9.410156 -0.046875 7.828125 0.289062 6.691406 C 0.929688 4.53125 2.621094 2.878906 4.839844 2.238281 C 5.304688 2.101562 5.527344 2.082031 6.527344 2.085938 C 7.585938 2.089844 7.730469 2.105469 8.277344 2.273438 C 8.914062 2.46875 9.664062 2.820312 10.15625 3.152344 C 10.605469 3.460938 11.417969 4.257812 11.757812 4.734375 C 12.113281 5.230469 12.601562 6.257812 12.757812 6.828125 C 12.988281 7.6875 13.023438 9.039062 12.832031 9.792969 L 12.785156 9.980469 L 11.769531 9.980469 C 10.890625 9.980469 10.757812 9.964844 10.789062 9.878906 C 10.8125 9.820312 10.878906 9.527344 10.941406 9.222656 C 11.128906 8.296875 11.007812 7.488281 10.519531 6.472656 C 9.878906 5.128906 8.542969 4.191406 7.035156 4.019531 C 5.609375 3.863281 4.3125 4.308594 3.3125 5.308594 C 1 7.621094 1.820312 11.507812 4.875 12.714844 C 6.449219 13.335938 8.246094 12.988281 9.5625 11.808594 L 9.957031 11.457031 L 9.917969 14.011719 L 9.34375 14.300781 C 8.304688 14.820312 6.785156 15.082031 5.699219 14.929688 Z M 5.699219 14.929688 "/>
<path style=" stroke:none;fill-rule:nonzero;fill:rgb(100%,100%,100%);fill-opacity:1;" d="M 4.1875 8.839844 C 3.984375 8.671875 3.988281 8.300781 4.191406 8.132812 C 4.316406 8.035156 4.480469 8.011719 5.179688 8.011719 L 6.019531 8.011719 L 6.019531 6.671875 C 6.019531 5.414062 6.027344 5.316406 6.160156 5.179688 C 6.332031 4.992188 6.652344 4.984375 6.832031 5.167969 C 6.960938 5.292969 6.96875 5.390625 6.96875 6.996094 C 6.96875 8.601562 6.960938 8.699219 6.832031 8.828125 C 6.707031 8.953125 6.609375 8.960938 5.519531 8.960938 C 4.476562 8.960938 4.324219 8.949219 4.1875 8.839844 Z M 4.1875 8.839844 "/>
</g>
</svg>
