<?xml version="1.0" encoding="UTF-8"?>
<svg xmlns="http://www.w3.org/2000/svg" xmlns:xlink="http://www.w3.org/1999/xlink" width="16" height="16" viewBox="0 0 16 16" version="1.1">
<g id="surface1">
<path style=" stroke:none;fill-rule:nonzero;fill:rgb(100%,100%,100%);fill-opacity:1;" d="M 5.78125 9 C 5.40625 9.066406 5.105469 9.339844 5 9.703125 C 4.890625 10.070312 5 10.460938 5.28125 10.71875 L 6.558594 12 L 5.277344 13.28125 C 5.019531 13.535156 4.914062 13.914062 5.007812 14.265625 C 5.101562 14.617188 5.378906 14.894531 5.730469 14.988281 C 6.085938 15.082031 6.460938 14.976562 6.714844 14.71875 L 8.714844 12.71875 L 9.402344 12 L 8.714844 11.28125 L 6.714844 9.28125 C 6.472656 9.027344 6.117188 8.921875 5.777344 9 Z M 5.78125 9 "/>
<path style=" stroke:none;fill-rule:nonzero;fill:rgb(100%,100%,100%);fill-opacity:1;" d="M 15 9.007812 L 15 10.003906 C 15 11.648438 13.644531 13.003906 12 13.003906 L 11 13.003906 L 11 11.003906 L 12 11.003906 C 12.570312 11.003906 13 10.574219 13 10.003906 L 13 9.019531 Z M 6.992188 5 L 3.996094 5 C 3.425781 5 2.996094 5.429688 2.996094 6 L 2.996094 10 C 2.996094 10.570312 3.425781 11 3.996094 11 L 7.996094 11 L 7.996094 13 L 3.996094 13 C 2.351562 13 0.996094 11.644531 0.996094 10 L 0.996094 6 C 0.996094 4.355469 2.351562 3 3.996094 3 L 6.980469 3 Z M 6.992188 5 "/>
<path style=" stroke:none;fill-rule:nonzero;fill:rgb(100%,100%,100%);fill-opacity:1;" d="M 6 9 L 5 9 L 5 10 L 6 10 Z M 6 9 "/>
<path style=" stroke:none;fill-rule:nonzero;fill:rgb(100%,100%,100%);fill-opacity:1;" d="M 6 14 L 5 14 L 5 15 L 6 15 Z M 6 14 "/>
<path style=" stroke:none;fill-rule:nonzero;fill:rgb(100%,100%,100%);fill-opacity:1;" d="M 12 0 C 9.789062 0 8 1.789062 8 4 C 8 6.210938 9.789062 8 12 8 C 14.210938 8 16 6.210938 16 4 C 16 1.789062 14.210938 0 12 0 Z M 11 2 L 13 2 L 13 6 L 11 6 L 10.996094 4.011719 L 10 4 L 10 3 Z M 11 2 "/>
</g>
</svg>
