<?xml version="1.0" encoding="UTF-8"?>
<svg xmlns="http://www.w3.org/2000/svg" xmlns:xlink="http://www.w3.org/1999/xlink" width="16" height="16" viewBox="0 0 16 16" version="1.1">
<defs>
<filter id="alpha" filterUnits="objectBoundingBox" x="0%" y="0%" width="100%" height="100%">
  <feColorMatrix type="matrix" in="SourceGraphic" values="0 0 0 0 1 0 0 0 0 1 0 0 0 0 1 0 0 0 1 0"/>
</filter>
<image id="image12" width="16" height="16" xlink:href="data:image/png;base64,iVBORw0KGgoAAAANSUhEUgAAABAAAAAQCAYAAAAf8/9hAAAABmJLR0QA/wD/AP+gvaeTAAAAJElEQVQ4jWNgoBAwkqL4/+//DSiaWRkbmCh1wcAbMApGwTABAJYPBAg5mld9AAAAAElFTkSuQmCC"/>
<mask id="mask0">
  <g filter="url(#alpha)">
<use xlink:href="#image12"/>
  </g>
</mask>
<clipPath id="clip1">
  <rect x="0" y="0" width="16" height="16"/>
</clipPath>
<g id="surface11" clip-path="url(#clip1)">
<path style=" stroke:none;fill-rule:nonzero;fill:rgb(74.509804%,74.509804%,74.509804%);fill-opacity:1;" d="M 13 1 C 11.894531 1 11 1.894531 11 3 C 11 4.105469 11.894531 5 13 5 C 14.105469 5 15 4.105469 15 3 C 15 1.894531 14.105469 1 13 1 Z M 13 2 C 13.550781 2 14 2.449219 14 3 C 14 3.550781 13.550781 4 13 4 C 12.449219 4 12 3.550781 12 3 C 12 2.449219 12.449219 2 13 2 Z M 13 2 "/>
</g>
<clipPath id="clip2">
  <path d="M 1 5.515625 L 10.03125 5.515625 L 10.03125 13.03125 L 1 13.03125 Z M 1 5.515625 "/>
</clipPath>
<image id="image21" width="16" height="16" xlink:href="data:image/png;base64,iVBORw0KGgoAAAANSUhEUgAAABAAAAAQCAYAAAAf8/9hAAAABmJLR0QA/wD/AP+gvaeTAAAAJUlEQVQ4jWNgGAUDDxhJUfz/9/8GFM2sjA1MlLpg4A0YBYMBAAB44QQIvjbMbAAAAABJRU5ErkJggg=="/>
<mask id="mask1">
  <g filter="url(#alpha)">
<use xlink:href="#image21"/>
  </g>
</mask>
<clipPath id="clip3">
  <rect x="0" y="0" width="16" height="16"/>
</clipPath>
<g id="surface20" clip-path="url(#clip3)">
<path style=" stroke:none;fill-rule:nonzero;fill:rgb(74.509804%,74.509804%,74.509804%);fill-opacity:1;" d="M 13 6 C 11.894531 6 11 6.894531 11 8 C 11 9.105469 11.894531 10 13 10 C 14.105469 10 15 9.105469 15 8 C 15 6.894531 14.105469 6 13 6 Z M 13 7 C 13.550781 7 14 7.449219 14 8 C 14 8.550781 13.550781 9 13 9 C 12.449219 9 12 8.550781 12 8 C 12 7.449219 12.449219 7 13 7 Z M 13 7 "/>
</g>
</defs>
<g id="surface3">
<use xlink:href="#surface11" mask="url(#mask0)"/>
<path style=" stroke:none;fill-rule:nonzero;fill:rgb(100%,100%,100%);fill-opacity:1;" d="M 5.5 1 C 6.878906 1 8 2.117188 8 3.5 L 8 8.5 C 8 9.882812 6.878906 11 5.5 11 C 4.117188 11 3 9.882812 3 8.5 L 3 3.5 C 3 2.117188 4.117188 1 5.5 1 Z M 5.5 1 "/>
<g clip-path="url(#clip2)" clip-rule="nonzero">
<path style=" stroke:none;fill-rule:nonzero;fill:rgb(100%,100%,100%);fill-opacity:1;" d="M 5.511719 -1.867188 C 3.023438 -1.867188 1.007812 0.164062 1.007812 2.664062 L 1.007812 8.476562 C 1.007812 10.980469 3.023438 13.007812 5.511719 13.007812 C 7.996094 13.007812 10.015625 10.980469 10.015625 8.476562 L 10.015625 2.664062 C 10.015625 0.164062 7.996094 -1.867188 5.511719 -1.867188 Z M 5.511719 -0.867188 C 7.460938 -0.867188 9.019531 0.703125 9.019531 2.664062 L 9.019531 8.476562 C 9.019531 10.441406 7.460938 12.007812 5.511719 12.007812 C 3.558594 12.007812 2 10.441406 2 8.476562 L 2 2.664062 C 2 0.703125 3.558594 -0.867188 5.511719 -0.867188 Z M 5.511719 -0.867188 "/>
</g>
<path style=" stroke:none;fill-rule:nonzero;fill:rgb(100%,100%,100%);fill-opacity:1;" d="M 2 5.5 C 2 5.777344 1.777344 6 1.5 6 C 1.222656 6 1 5.777344 1 5.5 C 1 5.222656 1.222656 5 1.5 5 C 1.777344 5 2 5.222656 2 5.5 Z M 2 5.5 "/>
<path style=" stroke:none;fill-rule:nonzero;fill:rgb(100%,100%,100%);fill-opacity:1;" d="M 10 5.5 C 10 5.777344 9.777344 6 9.5 6 C 9.222656 6 9 5.777344 9 5.5 C 9 5.222656 9.222656 5 9.5 5 C 9.777344 5 10 5.222656 10 5.5 Z M 10 5.5 "/>
<path style=" stroke:none;fill-rule:nonzero;fill:rgb(100%,100%,100%);fill-opacity:1;" d="M 1.910156 14 C 1.550781 14.011719 1.222656 14.214844 1.054688 14.535156 C 0.886719 14.855469 0.90625 15.242188 1.101562 15.542969 C 1.296875 15.847656 1.640625 16.019531 2 16 L 9 16 C 9.359375 16.003906 9.695312 15.816406 9.878906 15.503906 C 10.058594 15.191406 10.058594 14.808594 9.878906 14.496094 C 9.695312 14.183594 9.359375 13.996094 9 14 L 2 14 C 1.96875 14 1.9375 14 1.90625 14 Z M 1.910156 14 "/>
<path style=" stroke:none;fill-rule:nonzero;fill:rgb(100%,100%,100%);fill-opacity:1;" d="M 1 15 L 10 15 L 10 16 L 1 16 Z M 1 15 "/>
<path style=" stroke:none;fill-rule:nonzero;fill:rgb(100%,100%,100%);fill-opacity:1;" d="M 4 12 L 7 12 L 7 16 L 4 16 Z M 4 12 "/>
<path style=" stroke:none;fill-rule:nonzero;fill:rgb(100%,100%,100%);fill-opacity:1;" d="M 14.992188 13.007812 C 14.992188 14.109375 14.09375 15.007812 12.992188 15.007812 C 11.886719 15.007812 10.992188 14.109375 10.992188 13.007812 C 10.992188 11.902344 11.886719 11.007812 12.992188 11.007812 C 14.09375 11.007812 14.992188 11.902344 14.992188 13.007812 Z M 14.992188 13.007812 "/>
<use xlink:href="#surface20" mask="url(#mask1)"/>
</g>
</svg>
