<?xml version="1.0" encoding="UTF-8"?>
<svg xmlns="http://www.w3.org/2000/svg" xmlns:xlink="http://www.w3.org/1999/xlink" width="16" height="16" viewBox="0 0 16 16" version="1.1">
<defs>
<filter id="alpha" filterUnits="objectBoundingBox" x="0%" y="0%" width="100%" height="100%">
  <feColorMatrix type="matrix" in="SourceGraphic" values="0 0 0 0 1 0 0 0 0 1 0 0 0 0 1 0 0 0 1 0"/>
</filter>
<image id="image11" width="16" height="16" xlink:href="data:image/png;base64,iVBORw0KGgoAAAANSUhEUgAAABAAAAAQCAYAAAAf8/9hAAAABmJLR0QA/wD/AP+gvaeTAAAAJ0lEQVQ4jWNgGGjAyMDAwPD/575IsjSzOy1notQFA2/AKBgFgwMAAAQABAjor717AAAAAElFTkSuQmCC"/>
<mask id="mask0">
  <g filter="url(#alpha)">
<use xlink:href="#image11"/>
  </g>
</mask>
<clipPath id="clip1">
  <rect x="0" y="0" width="16" height="16"/>
</clipPath>
<g id="surface10" clip-path="url(#clip1)">
<path style=" stroke:none;fill-rule:nonzero;fill:rgb(74.509804%,74.509804%,74.509804%);fill-opacity:1;" d="M 8 2 C 5.1875 2 2.828125 3 1 4.585938 L 1 6 L 2.480469 6 C 4 4.734375 5.699219 4 8 4 C 10.300781 4 12 4.78125 13.519531 6 L 15 6 L 15 4.617188 C 13.359375 3.152344 10.8125 2 8 2 Z M 8 2 "/>
</g>
</defs>
<g id="surface2">
<path style=" stroke:none;fill-rule:nonzero;fill:rgb(100%,100%,100%);fill-opacity:1;" d="M 10 13 C 10 14.105469 9.105469 15 8 15 C 6.894531 15 6 14.105469 6 13 C 6 11.894531 6.894531 11 8 11 C 9.105469 11 10 11.894531 10 13 Z M 10 13 "/>
<use xlink:href="#surface10" mask="url(#mask0)"/>
<path style=" stroke:none;fill-rule:nonzero;fill:rgb(100%,100%,100%);fill-opacity:1;" d="M 8 5 C 5.832031 5 3.980469 5.738281 3 7 L 3 8 L 5 8 C 5.789062 7.394531 6.757812 7 8 7 C 9.242188 7 10.21875 7.394531 11 8 L 13 8 L 13 7 C 12.003906 5.777344 10.125 5 8 5 Z M 8 5 "/>
<path style=" stroke:none;fill-rule:nonzero;fill:rgb(100%,100%,100%);fill-opacity:1;" d="M 8 8 C 6.742188 8 5.785156 8.3125 5 9 L 5 10 L 11 10 L 11 9 C 10.164062 8.328125 9.257812 8 8 8 Z M 8 8 "/>
</g>
</svg>
