<?xml version="1.0" encoding="UTF-8"?>
<svg xmlns="http://www.w3.org/2000/svg" xmlns:xlink="http://www.w3.org/1999/xlink" width="16" height="16" viewBox="0 0 16 16" version="1.1">
<defs>
<filter id="alpha" filterUnits="objectBoundingBox" x="0%" y="0%" width="100%" height="100%">
  <feColorMatrix type="matrix" in="SourceGraphic" values="0 0 0 0 1 0 0 0 0 1 0 0 0 0 1 0 0 0 1 0"/>
</filter>
<image id="image12" width="16" height="16" xlink:href="data:image/png;base64,iVBORw0KGgoAAAANSUhEUgAAABAAAAAQCAYAAAAf8/9hAAAABmJLR0QA/wD/AP+gvaeTAAAAJ0lEQVQ4jWNgoBAwMjAwMPz/uS+SLM3sTsuZKHXBqAGjBowaQCUAACrYBByYRe4dAAAAAElFTkSuQmCC"/>
<mask id="mask0">
  <g filter="url(#alpha)">
<use xlink:href="#image12"/>
  </g>
</mask>
<clipPath id="clip1">
  <rect x="0" y="0" width="16" height="16"/>
</clipPath>
<g id="surface11" clip-path="url(#clip1)">
<path style=" stroke:none;fill-rule:nonzero;fill:rgb(74.509804%,74.509804%,74.509804%);fill-opacity:1;" d="M 3 1 C 1.890625 1 1 1.890625 1 3 L 1 6 L 3 6 C 3 5.445312 3.445312 5 4 5 L 5 5 L 5 4 C 5 3.445312 5.445312 3 6 3 L 10 3 C 10.554688 3 10.96875 3.445312 11 4 L 11 5 L 12 5 C 12.554688 5 13 5.445312 13 6 L 15 6 L 15 3 C 15 1.890625 14.109375 1 13 1 Z M 1 11 L 1 13 C 1 14.109375 1.890625 15 3 15 L 13 15 C 14.109375 15 15 14.109375 15 13 L 15 11 L 13 11 L 13 12 C 13 12.554688 12.554688 13 12 13 L 4 13 C 3.445312 13 3 12.554688 3 12 L 3 11 Z M 1 11 "/>
</g>
<image id="image21" width="16" height="16" xlink:href="data:image/png;base64,iVBORw0KGgoAAAANSUhEUgAAABAAAAAQCAYAAAAf8/9hAAAABmJLR0QA/wD/AP+gvaeTAAAAJElEQVQ4jWNgGAWjYBQwMDAwMGIT/P9jpxpWxRzut2jrnAEBAJ9RBAIRkrPJAAAAAElFTkSuQmCC"/>
<mask id="mask1">
  <g filter="url(#alpha)">
<use xlink:href="#image21"/>
  </g>
</mask>
<clipPath id="clip2">
  <rect x="0" y="0" width="16" height="16"/>
</clipPath>
<g id="surface20" clip-path="url(#clip2)">
<path style=" stroke:none;fill-rule:nonzero;fill:rgb(74.509804%,74.509804%,74.509804%);fill-opacity:1;" d="M 5 12 L 11 12 L 11 13 L 5 13 Z M 5 12 "/>
</g>
</defs>
<g id="surface3">
<use xlink:href="#surface11" mask="url(#mask0)"/>
<path style=" stroke:none;fill-rule:nonzero;fill:rgb(100%,100%,100%);fill-opacity:1;" d="M 5 8.5 C 5 9.328125 4.328125 10 3.5 10 C 2.671875 10 2 9.328125 2 8.5 C 2 7.671875 2.671875 7 3.5 7 C 4.328125 7 5 7.671875 5 8.5 Z M 5 8.5 "/>
<path style=" stroke:none;fill-rule:nonzero;fill:rgb(100%,100%,100%);fill-opacity:1;" d="M 9 8.5 C 9 9.328125 8.328125 10 7.5 10 C 6.671875 10 6 9.328125 6 8.5 C 6 7.671875 6.671875 7 7.5 7 C 8.328125 7 9 7.671875 9 8.5 Z M 9 8.5 "/>
<path style=" stroke:none;fill-rule:nonzero;fill:rgb(100%,100%,100%);fill-opacity:1;" d="M 13 8.5 C 13 9.328125 12.328125 10 11.5 10 C 10.671875 10 10 9.328125 10 8.5 C 10 7.671875 10.671875 7 11.5 7 C 12.328125 7 13 7.671875 13 8.5 Z M 13 8.5 "/>
<use xlink:href="#surface20" mask="url(#mask1)"/>
<path style=" stroke:none;fill-rule:nonzero;fill:rgb(100%,100%,100%);fill-opacity:1;" d="M 1.015625 4.234375 C 1.035156 2.761719 1.058594 2.449219 1.15625 2.226562 C 1.359375 1.777344 1.664062 1.457031 2.101562 1.238281 L 2.515625 1.03125 L 7.953125 1.03125 C 14.15625 1.03125 13.792969 1 14.398438 1.601562 C 14.933594 2.140625 14.96875 2.300781 14.96875 4.296875 L 14.96875 5.980469 L 13.023438 5.980469 L 12.949219 5.722656 C 12.789062 5.1875 12.367188 4.96875 11.503906 4.964844 L 11.054688 4.960938 L 11.023438 4.355469 C 10.984375 3.695312 10.871094 3.421875 10.539062 3.171875 C 10.355469 3.035156 10.265625 3.03125 8.066406 3.011719 C 5.992188 2.996094 5.761719 3.003906 5.550781 3.113281 C 5.132812 3.328125 5.039062 3.53125 5.015625 4.28125 L 4.992188 4.945312 L 4.359375 4.976562 C 3.492188 5.023438 3.199219 5.214844 3.007812 5.859375 C 2.976562 5.96875 2.867188 5.980469 1.984375 5.980469 L 0.992188 5.980469 Z M 1.015625 4.234375 "/>
<path style=" stroke:none;fill-rule:nonzero;fill:rgb(100%,100%,100%);fill-opacity:1;" d="M 2.5625 14.933594 C 2 14.816406 1.496094 14.414062 1.199219 13.84375 C 1.050781 13.5625 1.039062 13.441406 1.015625 12.269531 L 0.992188 10.996094 L 2.96875 10.996094 L 2.96875 11.558594 C 2.96875 12.292969 3.136719 12.65625 3.578125 12.878906 L 3.882812 13.035156 L 8.101562 13.015625 C 12.238281 12.996094 12.320312 12.992188 12.503906 12.855469 C 12.898438 12.558594 12.96875 12.394531 12.992188 11.667969 L 13.015625 10.996094 L 14.980469 10.996094 L 14.957031 12.300781 C 14.9375 13.503906 14.921875 13.628906 14.78125 13.894531 C 14.574219 14.28125 14.199219 14.644531 13.824219 14.820312 C 13.515625 14.960938 13.460938 14.960938 8.15625 14.972656 C 5.210938 14.976562 2.691406 14.960938 2.5625 14.933594 Z M 2.5625 14.933594 "/>
</g>
</svg>
