<?xml version="1.0" encoding="UTF-8"?>
<svg xmlns="http://www.w3.org/2000/svg" xmlns:xlink="http://www.w3.org/1999/xlink" width="16" height="16" viewBox="0 0 16 16" version="1.1">
<defs>
<filter id="alpha" filterUnits="objectBoundingBox" x="0%" y="0%" width="100%" height="100%">
  <feColorMatrix type="matrix" in="SourceGraphic" values="0 0 0 0 1 0 0 0 0 1 0 0 0 0 1 0 0 0 1 0"/>
</filter>
<image id="image12" width="16" height="16" xlink:href="data:image/png;base64,iVBORw0KGgoAAAANSUhEUgAAABAAAAAQCAYAAAAf8/9hAAAABmJLR0QA/wD/AP+gvaeTAAAAKUlEQVQ4jWNgGAXDADD+f72Ql0EgrpigQlbGBmziTJS6YNSAwWAAxQAAGgoEEEwnioUAAAAASUVORK5CYII="/>
<mask id="mask0">
  <g filter="url(#alpha)">
<use xlink:href="#image12"/>
  </g>
</mask>
<clipPath id="clip1">
  <rect x="0" y="0" width="16" height="16"/>
</clipPath>
<g id="surface11" clip-path="url(#clip1)">
<path style=" stroke:none;fill-rule:nonzero;fill:rgb(74.509804%,74.509804%,74.509804%);fill-opacity:1;" d="M 5 7 C 4.691406 7 4.386719 7.089844 4.1875 7.28125 L 0.585938 11 L 4.242188 14.71875 C 4.441406 14.910156 4.683594 15 4.992188 15 L 5.992188 15 L 5.992188 14 C 5.992188 13.746094 5.863281 13.472656 5.679688 13.28125 L 4.402344 12.003906 L 9.996094 12.003906 L 9.996094 10.003906 L 4.371094 10.003906 L 5.589844 8.722656 C 5.773438 8.53125 5.996094 8.257812 5.996094 8.003906 L 5.996094 7.003906 Z M 5 7 "/>
</g>
<image id="image21" width="16" height="16" xlink:href="data:image/png;base64,iVBORw0KGgoAAAANSUhEUgAAABAAAAAQCAYAAAAf8/9hAAAABmJLR0QA/wD/AP+gvaeTAAAAJUlEQVQ4jWNgoBAw4pL4//t/A0HdHxb1MlHqglEDBoMBo2BYAACdhQWoAfKaAwAAAABJRU5ErkJggg=="/>
<mask id="mask1">
  <g filter="url(#alpha)">
<use xlink:href="#image21"/>
  </g>
</mask>
<clipPath id="clip2">
  <rect x="0" y="0" width="16" height="16"/>
</clipPath>
<g id="surface20" clip-path="url(#clip2)">
<path style=" stroke:none;fill-rule:nonzero;fill:rgb(74.509804%,74.509804%,74.509804%);fill-opacity:1;" d="M 11 9 C 11.308594 9 11.613281 8.910156 11.8125 8.71875 L 15.414062 5 L 11.753906 1.277344 C 11.554688 1.085938 11.3125 0.996094 11.003906 0.996094 L 10.003906 0.996094 L 10.003906 1.996094 C 10.003906 2.253906 10.132812 2.527344 10.316406 2.714844 L 11.597656 3.996094 L 7.003906 3.996094 C 6.472656 3.992188 6.003906 4.46875 6.003906 4.996094 C 6.003906 5.527344 6.472656 6.003906 7.003906 5.996094 L 11.628906 5.996094 L 10.410156 7.277344 C 10.226562 7.46875 10.003906 7.742188 10.003906 7.996094 L 10.003906 8.996094 Z M 11 9 "/>
</g>
</defs>
<g id="surface3">
<use xlink:href="#surface11" mask="url(#mask0)"/>
<path style=" stroke:none;fill-rule:nonzero;fill:rgb(100%,0%,0%);fill-opacity:1;" d="M 11 11 L 12.375 11 L 13.5 12.09375 L 14.59375 11 L 16 11 L 16 12.46875 L 14.90625 13.53125 L 16 14.59375 L 16 16 L 14.5625 16 L 13.5 14.9375 L 12.4375 16 L 11 16 L 11 14.59375 L 12.0625 13.53125 L 11 12.46875 Z M 11 11 "/>
<use xlink:href="#surface20" mask="url(#mask1)"/>
</g>
</svg>
