<?xml version="1.0" encoding="UTF-8"?>
<svg xmlns="http://www.w3.org/2000/svg" xmlns:xlink="http://www.w3.org/1999/xlink" width="16" height="16" viewBox="0 0 16 16" version="1.1">
<g id="surface1">
<path style=" stroke:none;fill-rule:nonzero;fill:rgb(74.509804%,74.509804%,74.509804%);fill-opacity:1;" d="M 0.96875 2.5 L 0.96875 14.46875 C 0.96875 16 2.46875 16 2.46875 16 L 6.96875 16 L 6.96875 14 L 2.96875 14 L 2.96875 3 L 3.96875 3 L 3.96875 1 L 2.46875 1 C 2.46875 1 0.96875 1 0.96875 2.5 Z M 10.96875 1 L 10.96875 3 L 12 3 L 12 7.03125 L 13.96875 7 L 13.96875 2.5 C 13.96875 1 12.46875 1 12.46875 1 Z M 4.03125 5.03125 L 4.03125 12 L 6.96875 12 L 6.96875 8.996094 C 6.96875 8.996094 6.96875 7 8.96875 7 L 10.96875 7 L 10.96875 5 Z M 4.03125 5.03125 "/>
<path style=" stroke:none;fill-rule:nonzero;fill:rgb(74.509804%,74.509804%,74.509804%);fill-opacity:1;" d="M 5.5 0 L 9.46875 0 C 9.746094 0 9.96875 0.222656 9.96875 0.5 L 9.96875 3.5 C 9.96875 3.777344 9.746094 4 9.46875 4 L 5.5 4 C 5.222656 4 5 3.777344 5 3.5 L 5 0.5 C 5 0.222656 5.222656 0 5.5 0 Z M 5.5 0 "/>
<path style=" stroke:none;fill-rule:nonzero;fill:rgb(96.078431%,47.45098%,0%);fill-opacity:1;" d="M 8.96875 8 C 7.96875 8 7.96875 9 7.96875 9 L 7.96875 15 C 7.96875 15 7.96875 16 8.96875 16 L 14.96875 16 C 15.96875 16 15.96875 15 15.96875 15 L 15.96875 9 C 15.96875 8 14.96875 8 14.96875 8 Z M 10.96875 9 L 13 9 L 13 13 L 10.96875 13 Z M 10.96875 14 L 13 14 L 12.96875 15 L 10.96875 15 Z M 10.96875 14 "/>
<path style=" stroke:none;fill-rule:nonzero;fill:rgb(100%,100%,100%);fill-opacity:1;" d="M 5.179688 3.839844 C 5.007812 3.667969 4.996094 3.515625 5.015625 1.851562 C 5.039062 0.285156 5.039062 0.273438 5.199219 0.144531 C 5.347656 0.0234375 5.492188 0.0117188 7.488281 0.0117188 L 9.621094 0.0117188 L 9.785156 0.179688 L 9.953125 0.347656 L 9.953125 2.011719 C 9.953125 3.585938 9.945312 3.683594 9.816406 3.808594 C 9.6875 3.941406 9.589844 3.945312 7.484375 3.945312 C 5.574219 3.945312 5.269531 3.929688 5.179688 3.839844 Z M 5.179688 3.839844 "/>
<path style=" stroke:none;fill-rule:nonzero;fill:rgb(100%,100%,100%);fill-opacity:1;" d="M 4.054688 8.488281 L 4.054688 5.03125 L 10.96875 5.03125 L 10.96875 6.988281 L 9.628906 7.007812 C 8.097656 7.035156 7.957031 7.074219 7.464844 7.632812 C 7.015625 8.140625 6.96875 8.398438 6.96875 10.292969 L 6.96875 11.945312 L 4.054688 11.945312 Z M 4.054688 8.488281 "/>
<path style=" stroke:none;fill-rule:nonzero;fill:rgb(100%,100%,100%);fill-opacity:1;" d="M 1.886719 15.855469 C 1.566406 15.753906 1.160156 15.332031 1.074219 15.007812 C 1.023438 14.820312 1.007812 12.726562 1.019531 8.375 C 1.039062 2.070312 1.039062 2.011719 1.179688 1.742188 C 1.265625 1.574219 1.445312 1.394531 1.648438 1.269531 C 1.964844 1.070312 2.003906 1.0625 2.945312 1.042969 L 3.917969 1.019531 L 3.917969 2.996094 L 2.96875 2.996094 L 2.96875 14.046875 L 6.96875 14.046875 L 6.96875 15.945312 L 4.546875 15.9375 C 2.988281 15.933594 2.039062 15.90625 1.886719 15.855469 Z M 1.886719 15.855469 "/>
<path style=" stroke:none;fill-rule:nonzero;fill:rgb(100%,100%,100%);fill-opacity:1;" d="M 12.054688 4.996094 L 12.054688 2.996094 L 10.96875 2.996094 L 10.96875 1.03125 L 11.839844 1.03125 C 12.882812 1.03125 13.226562 1.125 13.570312 1.503906 C 13.703125 1.648438 13.839844 1.882812 13.878906 2.027344 C 13.925781 2.183594 13.953125 3.1875 13.953125 4.640625 L 13.953125 6.996094 L 12.054688 6.996094 Z M 12.054688 4.996094 "/>
</g>
</svg>
