<?xml version="1.0" encoding="UTF-8"?>
<svg xmlns="http://www.w3.org/2000/svg" xmlns:xlink="http://www.w3.org/1999/xlink" width="28" height="28" viewBox="0 0 28 28" version="1.1">
<g id="surface1">
<path style=" stroke:none;fill-rule:nonzero;fill:rgb(100%,100%,100%);fill-opacity:1;" d="M 18.027344 1.167969 C 17.214844 1.167969 16.582031 1.171875 16.332031 1.183594 C 15.34375 1.242188 14.851562 1.859375 14.65625 2.769531 C 14.632812 3.230469 14.65625 10.792969 14.65625 10.792969 C 14.65625 11.722656 15.402344 12.488281 16.332031 12.488281 L 25.136719 12.488281 C 26.070312 12.488281 26.816406 11.722656 26.816406 10.792969 C 26.816406 9.859375 26.929688 2.894531 26.6875 2.261719 C 26.445312 1.628906 25.859375 1.183594 25.136719 1.183594 C 24.597656 1.183594 20.472656 1.160156 18.027344 1.167969 Z M 16.933594 2.496094 L 24.519531 2.496094 C 25.058594 2.496094 25.503906 2.921875 25.503906 3.464844 L 25.503906 10.207031 C 25.503906 10.75 25.058594 11.175781 24.519531 11.175781 L 16.933594 11.175781 C 16.394531 11.175781 15.949219 10.75 15.949219 10.207031 L 15.949219 3.464844 C 15.949219 2.921875 16.394531 2.496094 16.933594 2.496094 Z M 24.226562 13.378906 C 23.957031 13.390625 23.6875 13.535156 23.535156 13.78125 C 23.289062 14.175781 23.414062 14.703125 23.808594 14.949219 C 24.203125 15.195312 24.726562 15.070312 24.972656 14.675781 C 25.21875 14.28125 25.09375 13.753906 24.699219 13.507812 C 24.550781 13.414062 24.390625 13.375 24.226562 13.378906 Z M 4.539062 15.511719 C 3.726562 15.515625 3.109375 15.515625 2.863281 15.53125 C 1.875 15.589844 1.363281 16.207031 1.167969 17.117188 C 1.140625 17.574219 1.167969 25.136719 1.167969 25.136719 C 1.167969 26.070312 1.929688 26.832031 2.863281 26.832031 L 11.648438 26.832031 C 12.15625 26.832031 12.597656 26.605469 12.90625 26.25 C 13.382812 26.066406 13.800781 25.710938 14.035156 25.210938 C 14.472656 24.289062 14.15625 23.222656 13.34375 22.660156 C 13.367188 20.25 13.390625 17.058594 13.214844 16.605469 C 12.976562 15.972656 12.371094 15.53125 11.648438 15.53125 C 11.109375 15.53125 6.980469 15.503906 4.539062 15.511719 Z M 3.445312 16.84375 L 11.027344 16.84375 C 11.570312 16.84375 12.011719 17.269531 12.011719 17.808594 L 12.011719 24.554688 C 12.011719 25.097656 11.570312 25.519531 11.027344 25.519531 L 3.445312 25.519531 C 2.902344 25.519531 2.460938 25.097656 2.460938 24.554688 L 2.460938 17.808594 C 2.460938 17.269531 2.902344 16.84375 3.445312 16.84375 Z M 22.53125 18.59375 C 22.070312 18.574219 21.613281 18.824219 21.402344 19.269531 C 21.121094 19.859375 21.375 20.574219 21.964844 20.855469 C 22.558594 21.136719 23.269531 20.882812 23.550781 20.289062 C 23.832031 19.695312 23.578125 18.984375 22.988281 18.703125 C 22.839844 18.632812 22.683594 18.601562 22.53125 18.59375 Z M 17.828125 21.894531 C 17.265625 21.949219 16.738281 22.292969 16.480469 22.839844 C 16.082031 23.675781 16.429688 24.6875 17.261719 25.082031 C 18.097656 25.480469 19.109375 25.117188 19.503906 24.28125 C 19.902344 23.445312 19.539062 22.453125 18.703125 22.058594 C 18.496094 21.957031 18.28125 21.902344 18.066406 21.894531 C 17.984375 21.890625 17.910156 21.886719 17.828125 21.894531 Z M 17.828125 21.894531 "/>
</g>
</svg>
