<?xml version="1.0" encoding="UTF-8"?>
<svg xmlns="http://www.w3.org/2000/svg" xmlns:xlink="http://www.w3.org/1999/xlink" width="28" height="28" viewBox="0 0 28 28" version="1.1">
<g id="surface1">
<path style=" stroke:none;fill-rule:nonzero;fill:rgb(100%,100%,100%);fill-opacity:1;" d="M 16.222656 3.007812 C 15.496094 3.089844 14.976562 3.753906 15.058594 4.484375 C 15.140625 5.214844 15.785156 5.734375 16.515625 5.652344 C 17.246094 5.570312 17.78125 4.921875 17.699219 4.191406 C 17.617188 3.464844 16.953125 2.925781 16.222656 3.007812 Z M 12.722656 3.9375 C 12.257812 3.9375 11.886719 4.3125 11.886719 4.777344 C 11.886719 5.242188 12.257812 5.613281 12.722656 5.613281 C 13.1875 5.613281 13.582031 5.242188 13.582031 4.777344 C 13.582031 4.3125 13.1875 3.9375 12.722656 3.9375 Z M 20.433594 4.464844 C 19.398438 4.582031 18.660156 5.527344 18.777344 6.5625 C 18.894531 7.597656 19.816406 8.339844 20.855469 8.222656 C 21.890625 8.105469 22.628906 7.179688 22.511719 6.144531 C 22.394531 5.105469 21.472656 4.347656 20.433594 4.464844 Z M 9.480469 5.175781 C 6.816406 5.175781 4.902344 6.78125 4.902344 9.386719 L 4.902344 11.667969 L 4.15625 11.667969 C 3.394531 11.667969 3.007812 12.050781 3.007812 12.816406 L 3.007812 19.304688 C 3.007812 19.679688 3.394531 20.453125 4.15625 20.453125 L 15.332031 20.453125 C 15.945312 20.449219 16.332031 19.679688 16.332031 19.304688 L 16.332031 12.816406 C 16.332031 12.050781 15.945312 11.667969 15.183594 11.667969 L 14.417969 11.667969 L 14.417969 9.386719 C 14.417969 6.714844 12.527344 5.175781 9.863281 5.175781 Z M 9.480469 7.089844 L 9.863281 7.089844 C 12.527344 7.089844 12.523438 9.371094 12.523438 10.136719 L 12.523438 11.667969 L 6.816406 11.667969 L 6.816406 10.136719 C 6.816406 9.371094 6.816406 7.089844 9.480469 7.089844 Z M 9.480469 7.089844 "/>
</g>
</svg>
