<?xml version="1.0" encoding="UTF-8"?>
<svg xmlns="http://www.w3.org/2000/svg" xmlns:xlink="http://www.w3.org/1999/xlink" width="28" height="28" viewBox="0 0 28 28" version="1.1">
<g id="surface1">
<path style=" stroke:none;fill-rule:nonzero;fill:rgb(100%,100%,100%);fill-opacity:1;" d="M 9.476562 5.179688 C 6.8125 5.179688 4.910156 6.773438 4.910156 9.378906 L 4.910156 11.671875 L 4.148438 11.671875 C 3.386719 11.671875 3.003906 12.054688 3.003906 12.816406 L 3.003906 19.3125 C 3.003906 19.683594 3.386719 20.457031 4.148438 20.457031 L 15.335938 20.457031 C 15.949219 20.453125 16.332031 19.683594 16.332031 19.3125 L 16.332031 12.816406 C 16.332031 12.054688 15.949219 11.667969 15.1875 11.667969 L 14.425781 11.671875 L 14.425781 9.378906 C 14.425781 6.707031 12.523438 5.179688 9.859375 5.179688 Z M 9.476562 7.089844 L 9.859375 7.089844 C 12.523438 7.089844 12.523438 9.378906 12.523438 10.144531 L 12.523438 11.671875 L 6.8125 11.671875 L 6.8125 10.144531 C 6.8125 9.378906 6.8125 7.089844 9.476562 7.089844 Z M 9.476562 7.089844 "/>
</g>
</svg>
