<?xml version="1.0" encoding="UTF-8"?>
<svg xmlns="http://www.w3.org/2000/svg" xmlns:xlink="http://www.w3.org/1999/xlink" width="28" height="28" viewBox="0 0 28 28" version="1.1">
<g id="surface1">
<path style=" stroke:none;fill-rule:nonzero;fill:rgb(74.509804%,74.509804%,74.509804%);fill-opacity:1;" d="M 22.59375 1.75 C 21.6875 1.832031 20.996094 2.589844 21 3.5 L 21 26.25 C 20.992188 26.882812 21.324219 27.46875 21.867188 27.785156 C 22.414062 28.105469 23.085938 28.105469 23.632812 27.785156 C 24.175781 27.46875 24.507812 26.882812 24.5 26.25 L 24.5 5.25 L 26.25 5.25 C 26.882812 5.257812 27.46875 4.925781 27.785156 4.382812 C 28.105469 3.835938 28.105469 3.164062 27.785156 2.617188 C 27.46875 2.074219 26.882812 1.742188 26.25 1.75 L 22.75 1.75 C 22.695312 1.746094 22.640625 1.746094 22.585938 1.75 Z M 22.59375 1.75 "/>
<path style=" stroke:none;fill-rule:nonzero;fill:rgb(74.509804%,74.509804%,74.509804%);fill-opacity:1;" d="M 22.75 10.5 L 22.75 15.75 L 28 15.75 L 28 10.5 Z M 24.5 12.25 L 26.25 12.25 L 26.25 14 L 24.5 14 Z M 24.5 12.25 "/>
<path style=" stroke:none;fill-rule:nonzero;fill:rgb(74.509804%,74.509804%,74.509804%);fill-opacity:1;" d="M 22.75 17.5 L 22.75 22.75 L 28 22.75 L 28 17.5 Z M 24.5 19.25 L 26.25 19.25 L 26.25 21 L 24.5 21 Z M 24.5 19.25 "/>
<path style=" stroke:none;fill-rule:nonzero;fill:rgb(74.509804%,74.509804%,74.509804%);fill-opacity:1;" d="M 0 7 L 0 28 L 17.5 28 L 17.5 24.5 L 19.25 24.5 L 19.25 21 L 14 21 L 14 24.5 L 3.5 24.5 L 3.5 10.5 L 8.75 10.5 L 8.75 7 Z M 0 7 "/>
<path style=" stroke:none;fill-rule:nonzero;fill:rgb(74.509804%,74.509804%,74.509804%);fill-opacity:1;" d="M 10.5 1.75 L 19.25 8.75 L 14 8.75 L 14 16.679688 L 10.5 16.679688 Z M 10.5 1.75 "/>
<path style=" stroke:none;fill-rule:nonzero;fill:rgb(74.509804%,74.509804%,74.509804%);fill-opacity:1;" d="M 13.984375 16.632812 C 13.984375 19.042969 12.03125 20.996094 9.617188 20.996094 C 7.207031 20.996094 5.25 19.042969 5.25 16.632812 C 5.25 14.21875 7.207031 12.265625 9.617188 12.265625 C 12.03125 12.265625 13.984375 14.21875 13.984375 16.632812 Z M 13.984375 16.632812 "/>
<path style=" stroke:none;fill-rule:nonzero;fill:rgb(100%,100%,100%);fill-opacity:1;" d="M 9.289062 20.972656 C 8.109375 20.835938 7.234375 20.417969 6.484375 19.636719 C 6.125 19.261719 5.910156 18.953125 5.691406 18.496094 C 5.195312 17.453125 5.132812 16.269531 5.519531 15.175781 C 5.738281 14.554688 6.0625 14.046875 6.539062 13.566406 C 7.230469 12.875 8.097656 12.441406 9.042969 12.316406 C 9.351562 12.277344 10.183594 12.289062 10.398438 12.34375 L 10.5 12.367188 L 10.5 1.765625 L 19.195312 8.722656 L 16.601562 8.734375 L 14.003906 8.742188 L 14.003906 12.621094 C 14.003906 16.695312 13.996094 17.011719 13.84375 17.652344 C 13.515625 19.042969 12.523438 20.167969 11.160156 20.703125 C 10.628906 20.910156 9.792969 21.03125 9.289062 20.972656 Z M 9.289062 20.972656 "/>
<path style=" stroke:none;fill-rule:nonzero;fill:rgb(100%,100%,100%);fill-opacity:1;" d="M 0.015625 17.488281 L 0.015625 7.007812 L 8.726562 7.007812 L 8.726562 10.476562 L 3.484375 10.476562 L 3.484375 24.5 L 14.003906 24.5 L 14.003906 20.996094 L 19.246094 20.996094 L 19.246094 24.5 L 17.476562 24.5 L 17.476562 27.972656 L 0.015625 27.972656 Z M 0.015625 17.488281 "/>
<path style=" stroke:none;fill-rule:nonzero;fill:rgb(100%,100%,100%);fill-opacity:1;" d="M 22.335938 27.957031 C 21.785156 27.820312 21.320312 27.402344 21.113281 26.859375 L 21.035156 26.652344 L 21.035156 3.085938 L 21.121094 2.875 C 21.3125 2.398438 21.753906 1.988281 22.230469 1.839844 C 22.460938 1.769531 22.5625 1.765625 24.484375 1.765625 C 26.675781 1.765625 26.722656 1.769531 27.105469 1.976562 C 27.398438 2.128906 27.6875 2.441406 27.839844 2.765625 C 27.972656 3.046875 27.976562 3.054688 27.976562 3.5 C 27.976562 3.949219 27.972656 3.957031 27.839844 4.238281 C 27.6875 4.558594 27.398438 4.867188 27.105469 5.027344 C 26.769531 5.207031 26.550781 5.234375 25.472656 5.234375 L 24.488281 5.234375 L 24.488281 10.511719 L 27.992188 10.511719 L 27.992188 15.753906 L 24.488281 15.753906 L 24.488281 17.527344 L 27.992188 17.527344 L 27.992188 22.730469 L 24.488281 22.730469 L 24.488281 24.570312 C 24.488281 25.667969 24.472656 26.484375 24.449219 26.601562 C 24.269531 27.554688 23.277344 28.191406 22.335938 27.957031 Z M 26.257812 20.109375 L 26.257812 19.222656 L 25.382812 19.234375 L 24.507812 19.242188 L 24.496094 20.117188 L 24.484375 20.996094 L 26.257812 20.996094 Z M 26.257812 13.132812 L 26.257812 12.25 L 24.488281 12.25 L 24.488281 14.019531 L 26.257812 14.019531 Z M 26.257812 13.132812 "/>
</g>
</svg>
