<?xml version="1.0" encoding="UTF-8"?>
<svg xmlns="http://www.w3.org/2000/svg" xmlns:xlink="http://www.w3.org/1999/xlink" width="28" height="28" viewBox="0 0 28 28" version="1.1">
<g id="surface1">
<path style=" stroke:none;fill-rule:nonzero;fill:rgb(74.509804%,74.509804%,74.509804%);fill-opacity:1;" d="M 1.75 8.75 C 0.78125 8.75 0.00390625 9.664062 0.00390625 10.773438 L 0.00390625 18.757812 C 0.00390625 19.867188 0.730469 21 1.699219 21 L 3.449219 21 C 3.449219 22.109375 4.28125 22.75 5.246094 22.75 L 6.988281 22.75 C 7.957031 22.75 8.699219 22.109375 8.699219 21 L 19.179688 21 C 19.179688 22.109375 19.996094 22.75 20.960938 22.75 L 22.703125 22.75 C 23.667969 22.75 24.449219 22.109375 24.449219 21 L 26.203125 21 C 27.167969 21 27.949219 19.867188 27.949219 18.757812 L 27.949219 10.773438 C 27.929688 9.652344 27.160156 8.742188 26.179688 8.742188 Z M 2.625 10.835938 C 3.105469 10.835938 3.496094 12.457031 3.496094 14.875 C 3.496094 17.292969 3.105469 18.792969 2.625 18.792969 C 2.140625 18.792969 1.75 17.292969 1.75 14.875 C 1.75 12.457031 2.140625 10.835938 2.625 10.835938 Z M 6.117188 10.835938 C 6.597656 10.835938 6.988281 12.792969 6.988281 15.210938 C 6.988281 17.628906 6.539062 18.78125 6.054688 18.78125 C 5.574219 18.78125 5.242188 17.292969 5.242188 14.875 C 5.242188 12.457031 5.632812 10.835938 6.117188 10.835938 Z M 9.550781 10.835938 C 10.03125 10.835938 10.484375 12.457031 10.484375 14.875 C 10.484375 17.292969 10.089844 18.78125 9.609375 18.78125 C 9.128906 18.78125 8.734375 17.292969 8.734375 14.875 C 8.734375 12.457031 9.066406 10.835938 9.550781 10.835938 Z M 21.835938 10.503906 C 24.246094 10.503906 26.199219 12.460938 26.199219 14.878906 C 26.199219 17.296875 24.246094 19.253906 21.835938 19.253906 C 19.421875 19.253906 17.46875 17.296875 17.46875 14.878906 C 17.46875 12.460938 19.421875 10.503906 21.835938 10.503906 Z M 21.835938 10.503906 "/>
<path style=" stroke:none;fill-rule:nonzero;fill:rgb(74.509804%,74.509804%,74.509804%);fill-opacity:1;" d="M 24.449219 14.875 C 24.449219 16.324219 23.273438 17.5 21.824219 17.5 C 20.371094 17.5 19.199219 16.324219 19.199219 14.875 C 19.199219 13.425781 20.371094 12.25 21.824219 12.25 C 23.273438 12.25 24.449219 13.425781 24.449219 14.875 Z M 24.449219 14.875 "/>
<path style=" stroke:none;fill-rule:nonzero;fill:rgb(100%,100%,100%);fill-opacity:1;" d="M 4.910156 22.707031 C 4.492188 22.640625 4.203125 22.484375 3.921875 22.191406 C 3.710938 21.964844 3.53125 21.621094 3.5 21.375 C 3.488281 21.285156 3.472656 21.160156 3.460938 21.097656 L 3.445312 20.980469 L 2.40625 20.96875 L 1.371094 20.960938 L 1.15625 20.859375 C 0.722656 20.65625 0.308594 20.113281 0.117188 19.496094 L 0.0351562 19.226562 L 0.0234375 14.902344 C 0.015625 10.074219 0.00390625 10.296875 0.265625 9.761719 C 0.453125 9.386719 0.734375 9.101562 1.097656 8.921875 L 1.367188 8.789062 L 26.582031 8.789062 L 26.855469 8.921875 C 27.359375 9.171875 27.753906 9.714844 27.878906 10.316406 C 27.925781 10.542969 27.933594 11.160156 27.925781 14.902344 L 27.914062 19.226562 L 27.832031 19.480469 C 27.617188 20.109375 27.210938 20.632812 26.757812 20.855469 L 26.542969 20.960938 L 25.488281 20.96875 L 24.429688 20.980469 L 24.429688 21.109375 C 24.429688 21.335938 24.320312 21.726562 24.191406 21.941406 C 24.027344 22.21875 23.820312 22.40625 23.507812 22.550781 C 23.136719 22.730469 22.882812 22.753906 21.65625 22.738281 C 20.652344 22.726562 20.570312 22.71875 20.351562 22.644531 C 19.703125 22.414062 19.304688 21.929688 19.214844 21.261719 L 19.179688 20.976562 L 8.683594 20.976562 L 8.683594 21.113281 C 8.683594 21.332031 8.582031 21.695312 8.460938 21.921875 C 8.242188 22.328125 7.804688 22.628906 7.3125 22.710938 C 7.035156 22.753906 5.171875 22.753906 4.910156 22.707031 Z M 22.613281 19.1875 C 23.457031 19.035156 24.207031 18.65625 24.832031 18.0625 C 26.59375 16.390625 26.671875 13.644531 25.007812 11.867188 C 23.863281 10.644531 22.046875 10.1875 20.449219 10.722656 C 19.15625 11.15625 18.117188 12.195312 17.679688 13.492188 C 17.328125 14.535156 17.414062 15.828125 17.894531 16.792969 C 18.789062 18.578125 20.667969 19.53125 22.613281 19.1875 Z M 2.761719 18.757812 C 3.0625 18.601562 3.328125 17.699219 3.453125 16.390625 C 3.507812 15.808594 3.507812 13.90625 3.453125 13.320312 C 3.265625 11.398438 2.84375 10.453125 2.398438 10.960938 C 1.984375 11.433594 1.75 12.851562 1.75 14.851562 C 1.75 16.902344 2 18.332031 2.425781 18.703125 C 2.5625 18.824219 2.613281 18.832031 2.761719 18.757812 Z M 6.253906 18.71875 C 6.53125 18.542969 6.753906 17.949219 6.898438 17 C 6.976562 16.488281 7.007812 14.5625 6.953125 13.78125 C 6.832031 12.109375 6.53125 10.972656 6.179688 10.847656 C 6.019531 10.792969 5.90625 10.882812 5.75 11.191406 C 5.410156 11.863281 5.242188 13.078125 5.242188 14.890625 C 5.242188 16.339844 5.34375 17.421875 5.542969 18.070312 C 5.742188 18.707031 5.957031 18.902344 6.253906 18.71875 Z M 9.894531 18.613281 C 10.105469 18.335938 10.292969 17.644531 10.40625 16.714844 C 10.496094 15.960938 10.5 13.847656 10.40625 13.109375 C 10.261719 11.957031 10.046875 11.222656 9.769531 10.945312 C 9.402344 10.578125 9.070312 11.101562 8.886719 12.34375 C 8.6875 13.660156 8.671875 15.695312 8.847656 16.984375 C 8.976562 17.921875 9.226562 18.621094 9.472656 18.742188 C 9.625 18.820312 9.769531 18.777344 9.894531 18.613281 Z M 9.894531 18.613281 "/>
<path style=" stroke:none;fill-rule:nonzero;fill:rgb(100%,100%,100%);fill-opacity:1;" d="M 21.1875 17.40625 C 20.476562 17.230469 19.855469 16.734375 19.5 16.0625 C 19.128906 15.351562 19.128906 14.394531 19.5 13.6875 C 19.964844 12.800781 20.835938 12.273438 21.828125 12.273438 C 24 12.277344 25.195312 14.742188 23.871094 16.492188 C 23.546875 16.917969 23.019531 17.257812 22.457031 17.402344 C 22.101562 17.492188 21.554688 17.496094 21.1875 17.40625 Z M 21.1875 17.40625 "/>
</g>
</svg>
