<?xml version="1.0" encoding="UTF-8"?>
<svg xmlns="http://www.w3.org/2000/svg" xmlns:xlink="http://www.w3.org/1999/xlink" width="28" height="28" viewBox="0 0 28 28" version="1.1">
<g id="surface1">
<path style=" stroke:none;fill-rule:nonzero;fill:rgb(74.509804%,74.509804%,74.509804%);fill-opacity:1;" d="M 5.53125 7 C 2.476562 7 0.0078125 10.132812 0.0078125 14 C 0.0078125 17.867188 2.476562 21 5.53125 21 C 8.585938 21 11.054688 17.867188 11.054688 14 C 11.054688 10.132812 8.585938 7 5.53125 7 Z M 5.257812 10.5 L 7.007812 10.5 L 7.007812 12.25 L 8.757812 12.25 L 8.757812 14 L 7.007812 14 L 7.007812 15.75 L 5.257812 15.75 L 5.257812 14 L 3.507812 14 L 3.507812 12.25 L 5.257812 12.25 Z M 5.257812 10.5 "/>
<path style=" stroke:none;fill-rule:nonzero;fill:rgb(74.509804%,74.509804%,74.509804%);fill-opacity:1;" d="M 22.46875 7 C 19.414062 7 16.945312 10.132812 16.945312 14 C 16.945312 17.867188 19.414062 21 22.46875 21 C 25.523438 21 27.992188 17.867188 27.992188 14 C 27.992188 10.132812 25.523438 7 22.46875 7 Z M 20.117188 9.625 C 21.085938 9.625 21.867188 10.410156 21.867188 11.375 C 21.867188 12.339844 21.085938 13.125 20.117188 13.125 C 19.152344 13.125 18.367188 12.339844 18.367188 11.375 C 18.367188 10.410156 19.152344 9.625 20.117188 9.625 Z M 23.617188 13.125 C 24.585938 13.125 25.367188 13.910156 25.367188 14.875 C 25.367188 15.839844 24.585938 16.625 23.617188 16.625 C 22.652344 16.625 21.867188 15.839844 21.867188 14.875 C 21.867188 13.910156 22.652344 13.125 23.617188 13.125 Z M 23.617188 13.125 "/>
<path style=" stroke:none;fill-rule:nonzero;fill:rgb(74.509804%,74.509804%,74.509804%);fill-opacity:1;" d="M 5.25 7 L 5.25 10.5 L 7 10.5 L 7 12.25 L 8.75 12.25 L 8.75 14 L 7 14 L 7 15.75 L 5.25 15.75 L 5.25 17.5 L 22.75 17.5 L 22.585938 16.425781 C 22.078125 16.121094 21.484375 15.492188 21.484375 14.855469 C 21.484375 14.214844 22.109375 13.488281 22.621094 13.183594 L 22.742188 6.988281 Z M 20.125 9.625 C 21.089844 9.625 21.875 10.410156 21.875 11.375 C 21.875 12.339844 21.089844 13.125 20.125 13.125 C 19.160156 13.125 18.375 12.339844 18.375 11.375 C 18.375 10.410156 19.160156 9.625 20.125 9.625 Z M 20.125 9.625 "/>
<path style=" stroke:none;fill-rule:nonzero;fill:rgb(100%,100%,100%);fill-opacity:1;" d="M 4.765625 20.917969 C 2.589844 20.527344 0.789062 18.515625 0.21875 15.839844 C 0.0742188 15.167969 0.0351562 14.785156 0.0390625 13.988281 C 0.0390625 13.140625 0.09375 12.652344 0.273438 11.914062 C 0.617188 10.515625 1.269531 9.34375 2.226562 8.421875 C 2.972656 7.707031 3.769531 7.28125 4.742188 7.082031 C 5.035156 7.023438 5.585938 7.019531 14.011719 7.019531 C 22.652344 7.019531 22.980469 7.019531 23.292969 7.085938 C 24.957031 7.4375 26.34375 8.617188 27.195312 10.414062 C 27.691406 11.457031 27.925781 12.472656 27.960938 13.742188 C 27.992188 15.003906 27.828125 16.011719 27.40625 17.101562 C 26.964844 18.246094 26.144531 19.363281 25.265625 20.019531 C 24.652344 20.476562 23.886719 20.808594 23.183594 20.925781 C 22.714844 21.003906 21.90625 20.976562 21.484375 20.875 C 19.953125 20.492188 18.734375 19.472656 17.859375 17.828125 L 17.671875 17.472656 L 10.316406 17.472656 L 10.179688 17.75 C 9.84375 18.425781 9.390625 19.042969 8.824219 19.585938 C 8.066406 20.316406 7.21875 20.753906 6.25 20.921875 C 5.855469 20.992188 5.152344 20.988281 4.765625 20.917969 Z M 24.199219 16.53125 C 24.925781 16.261719 25.367188 15.632812 25.367188 14.875 C 25.367188 14.011719 24.796875 13.328125 23.921875 13.148438 C 23.679688 13.097656 23.601562 13.09375 23.375 13.132812 C 22.660156 13.253906 22.09375 13.753906 21.921875 14.421875 C 21.757812 15.054688 21.972656 15.773438 22.445312 16.1875 C 22.632812 16.351562 23.042969 16.558594 23.277344 16.605469 C 23.519531 16.65625 23.957031 16.621094 24.199219 16.53125 Z M 7.023438 14.875 L 7.023438 14.007812 L 8.757812 14.007812 L 8.757812 12.238281 L 7.023438 12.238281 L 7.023438 10.503906 L 5.253906 10.503906 L 5.253906 12.238281 L 3.484375 12.238281 L 3.484375 14.007812 L 5.253906 14.007812 L 5.253906 15.742188 L 7.023438 15.742188 Z M 20.460938 13.089844 C 21.285156 12.914062 21.867188 12.210938 21.867188 11.394531 C 21.867188 10.390625 21.109375 9.636719 20.109375 9.636719 C 19.433594 9.636719 18.84375 10.007812 18.546875 10.621094 C 17.992188 11.757812 18.828125 13.09375 20.113281 13.136719 C 20.171875 13.136719 20.328125 13.117188 20.460938 13.089844 Z M 20.460938 13.089844 "/>
</g>
</svg>
