<?xml version="1.0" encoding="UTF-8"?>
<svg xmlns="http://www.w3.org/2000/svg" xmlns:xlink="http://www.w3.org/1999/xlink" width="32" height="32" viewBox="0 0 32 32" version="1.1">
<g id="surface1">
<path style=" stroke:none;fill-rule:nonzero;fill:rgb(74.509804%,74.509804%,74.509804%);fill-opacity:1;" d="M 23 2 C 26.867188 2 30 5.132812 30 9 C 30 11.238281 28.949219 13.21875 27.3125 14.5 C 27.730469 14.867188 28 15.394531 28 16 C 27.996094 20 28 22.105469 28 28 C 28 29.109375 27.105469 30 26 30 L 8 30 C 6.890625 30 6 29.109375 6 28 L 6 23.6875 L 0.875 27.5 C 0.835938 27.527344 0.792969 27.546875 0.75 27.5625 C 0.6875 27.570312 0.625 27.570312 0.5625 27.5625 C 0.523438 27.566406 0.476562 27.566406 0.4375 27.5625 C 0.394531 27.546875 0.351562 27.527344 0.3125 27.5 C 0.269531 27.484375 0.226562 27.464844 0.1875 27.4375 C 0.164062 27.417969 0.144531 27.398438 0.125 27.375 C 0.101562 27.355469 0.0820312 27.335938 0.0625 27.3125 C 0.0351562 27.273438 0.015625 27.230469 0 27.1875 C -0.00390625 27.148438 -0.00390625 27.105469 0 27.0625 L 0 14.9375 C -0.00390625 14.894531 -0.00390625 14.855469 0 14.8125 C 0.015625 14.769531 0.0351562 14.726562 0.0625 14.6875 C 0.0820312 14.664062 0.101562 14.644531 0.125 14.625 C 0.144531 14.601562 0.164062 14.582031 0.1875 14.5625 C 0.207031 14.539062 0.226562 14.519531 0.25 14.5 C 0.269531 14.476562 0.289062 14.457031 0.3125 14.4375 C 0.351562 14.410156 0.394531 14.390625 0.4375 14.375 C 0.5 14.367188 0.5625 14.367188 0.625 14.375 C 0.644531 14.375 0.664062 14.375 0.6875 14.375 C 0.710938 14.394531 0.730469 14.414062 0.75 14.4375 C 0.792969 14.453125 0.835938 14.472656 0.875 14.5 L 6 18.3125 L 6 16 C 6 15.398438 6.269531 14.867188 6.6875 14.5 C 5.050781 13.21875 4 11.238281 4 9 C 4 5.132812 7.132812 2 11 2 C 13.566406 2 15.78125 3.378906 17 5.4375 C 18.21875 3.378906 20.433594 2 23 2 Z M 23 6 C 21.34375 6 20 7.34375 20 9 C 20 10.65625 21.34375 12 23 12 C 24.65625 12 26 10.65625 26 9 C 26 7.34375 24.65625 6 23 6 Z M 11 6 C 9.34375 6 8 7.34375 8 9 C 8 10.65625 9.34375 12 11 12 C 12.65625 12 14 10.65625 14 9 C 14 7.34375 12.65625 6 11 6 Z M 17 12.5625 C 16.683594 13.097656 16.316406 13.566406 15.875 14 L 18.125 14 C 17.683594 13.566406 17.316406 13.097656 17 12.5625 Z M 17 12.5625 "/>
<path style=" stroke:none;fill-rule:nonzero;fill:rgb(100%,100%,100%);fill-opacity:1;" d="M 7.675781 29.953125 C 7.113281 29.871094 6.511719 29.441406 6.261719 28.945312 C 6.023438 28.476562 6.03125 28.546875 6.007812 26.027344 L 5.984375 23.683594 L 3.671875 25.402344 C 2.398438 26.351562 1.222656 27.222656 1.054688 27.34375 C 0.710938 27.59375 0.574219 27.617188 0.308594 27.484375 C -0.0078125 27.320312 0.0195312 27.925781 0.0195312 20.988281 L 0.0195312 14.757812 L 0.199219 14.578125 C 0.414062 14.363281 0.589844 14.339844 0.835938 14.5 C 0.917969 14.550781 2.113281 15.433594 3.484375 16.457031 L 5.984375 18.316406 L 6.003906 16.964844 C 6.023438 15.808594 6.039062 15.585938 6.101562 15.410156 C 6.203125 15.128906 6.355469 14.871094 6.542969 14.667969 L 6.699219 14.5 L 6.347656 14.191406 C 5.398438 13.367188 4.613281 12.113281 4.277344 10.890625 C 4.082031 10.175781 4.042969 9.875 4.046875 8.96875 C 4.046875 7.988281 4.105469 7.625 4.394531 6.757812 C 5.128906 4.542969 6.964844 2.835938 9.242188 2.242188 C 11.21875 1.730469 13.347656 2.117188 15 3.285156 C 15.511719 3.644531 16.3125 4.449219 16.652344 4.941406 C 16.800781 5.152344 16.941406 5.355469 16.964844 5.390625 C 17.007812 5.449219 17.023438 5.441406 17.082031 5.328125 C 17.230469 5.035156 17.78125 4.363281 18.210938 3.953125 C 19.917969 2.300781 22.316406 1.660156 24.675781 2.21875 C 25.441406 2.398438 26.253906 2.769531 26.992188 3.265625 C 27.484375 3.601562 28.398438 4.515625 28.730469 5.007812 C 29.621094 6.328125 30.027344 7.726562 29.96875 9.257812 C 29.890625 11.210938 29.085938 12.902344 27.601562 14.230469 L 27.304688 14.496094 L 27.445312 14.652344 C 27.648438 14.875 27.777344 15.097656 27.886719 15.394531 L 27.980469 15.65625 L 27.992188 21.765625 C 28 25.695312 27.992188 27.996094 27.964844 28.21875 C 27.855469 29.117188 27.164062 29.835938 26.289062 29.957031 C 25.925781 30.007812 8.027344 30.003906 7.675781 29.953125 Z M 17.835938 13.671875 C 17.664062 13.476562 17.410156 13.152344 17.273438 12.949219 C 17.132812 12.75 17.003906 12.582031 16.992188 12.582031 C 16.972656 12.582031 16.898438 12.6875 16.824219 12.8125 C 16.6875 13.035156 16.382812 13.429688 16.03125 13.832031 L 15.859375 14.027344 L 18.144531 14.027344 Z M 11.925781 11.863281 C 13.242188 11.417969 14.078125 10.195312 14 8.828125 C 13.933594 7.726562 13.289062 6.761719 12.300781 6.289062 C 11.84375 6.070312 11.539062 6.003906 10.996094 6.003906 C 10.4375 6.003906 10.144531 6.070312 9.636719 6.320312 C 9.34375 6.460938 9.214844 6.558594 8.890625 6.882812 C 8.570312 7.207031 8.464844 7.34375 8.324219 7.628906 C 8.070312 8.132812 8.007812 8.421875 8.007812 9.011719 C 8.007812 9.414062 8.023438 9.566406 8.101562 9.816406 C 8.445312 10.921875 9.265625 11.695312 10.355469 11.945312 C 10.765625 12.039062 11.519531 12 11.925781 11.863281 Z M 23.648438 11.941406 C 24.007812 11.867188 24.515625 11.625 24.855469 11.363281 C 25.34375 11 25.726562 10.421875 25.902344 9.792969 C 26.011719 9.40625 26.03125 8.691406 25.941406 8.332031 C 25.664062 7.207031 24.792969 6.335938 23.667969 6.058594 C 23.351562 5.976562 22.597656 5.988281 22.265625 6.074219 C 21.390625 6.300781 20.683594 6.894531 20.277344 7.734375 C 19.863281 8.59375 19.910156 9.691406 20.398438 10.511719 C 20.824219 11.238281 21.550781 11.761719 22.367188 11.941406 C 22.703125 12.015625 23.296875 12.015625 23.648438 11.941406 Z M 23.648438 11.941406 "/>
</g>
</svg>
