<?xml version="1.0" encoding="UTF-8"?>
<svg xmlns="http://www.w3.org/2000/svg" xmlns:xlink="http://www.w3.org/1999/xlink" width="32" height="32" viewBox="0 0 32 32" version="1.1">
<g id="surface1">
<path style=" stroke:none;fill-rule:nonzero;fill:rgb(74.509804%,74.509804%,74.509804%);fill-opacity:1;" d="M 4.0625 8 L 20 8 C 21.105469 8 22 8.894531 22 10 L 22 24 C 22 25.105469 21.105469 26 20 26 L 4.0625 26 C 2.957031 26 2.0625 25.105469 2.0625 24 L 2.0625 10 C 2.0625 8.894531 2.957031 8 4.0625 8 Z M 4.0625 8 "/>
<path style=" stroke:none;fill-rule:nonzero;fill:rgb(74.509804%,74.509804%,74.509804%);fill-opacity:1;" d="M 22 16.941406 L 28.9375 10 L 30 10 L 30 24 L 29 24 Z M 22 16.941406 "/>
<path style=" stroke:none;fill-rule:nonzero;fill:rgb(100%,100%,100%);fill-opacity:1;" d="M 3.671875 25.949219 C 3.15625 25.851562 2.578125 25.429688 2.335938 24.972656 C 2.066406 24.460938 2.082031 24.980469 2.082031 17 C 2.082031 10.707031 2.089844 9.71875 2.144531 9.515625 C 2.3125 8.859375 2.765625 8.367188 3.425781 8.113281 L 3.671875 8.019531 L 11.84375 8.007812 C 17.476562 8 20.105469 8.011719 20.304688 8.042969 C 21.0625 8.160156 21.683594 8.71875 21.910156 9.484375 C 21.96875 9.6875 21.976562 10.445312 21.976562 16.996094 C 21.976562 23.023438 21.964844 24.320312 21.917969 24.496094 C 21.722656 25.230469 21.09375 25.8125 20.347656 25.949219 C 20.03125 26.007812 3.976562 26.007812 3.671875 25.949219 Z M 3.671875 25.949219 "/>
<path style=" stroke:none;fill-rule:nonzero;fill:rgb(100%,100%,100%);fill-opacity:1;" d="M 25.507812 20.457031 L 22.015625 16.9375 L 28.929688 10.023438 L 29.984375 10.023438 L 29.984375 23.972656 L 29 23.972656 Z M 25.507812 20.457031 "/>
</g>
</svg>
