<?xml version="1.0" encoding="UTF-8"?>
<svg xmlns="http://www.w3.org/2000/svg" xmlns:xlink="http://www.w3.org/1999/xlink" width="32" height="32" viewBox="0 0 32 32" version="1.1">
<defs>
<filter id="alpha" filterUnits="objectBoundingBox" x="0%" y="0%" width="100%" height="100%">
  <feColorMatrix type="matrix" in="SourceGraphic" values="0 0 0 0 1 0 0 0 0 1 0 0 0 0 1 0 0 0 1 0"/>
</filter>
<image id="image11" width="32" height="32" xlink:href="data:image/png;base64,iVBORw0KGgoAAAANSUhEUgAAACAAAAAgCAYAAABzenr0AAAABmJLR0QA/wD/AP+gvaeTAAAAZElEQVRYhe3VsQ2AMAxE0QtOT8cGnog5GYUJvAEzcAoFHUmFXMG90pHiXyWAyN+V56CdywqGpW4xZ6nHNjqq3YRhwJ4bwAAwD4+m1EUvKEABClCAAvq/wJz3253InLkXiojIl1x7Rw/UqMTmfQAAAABJRU5ErkJggg=="/>
<mask id="mask0">
  <g filter="url(#alpha)">
<use xlink:href="#image11"/>
  </g>
</mask>
<clipPath id="clip1">
  <rect x="0" y="0" width="32" height="32"/>
</clipPath>
<g id="surface10" clip-path="url(#clip1)">
<path style=" stroke:none;fill-rule:nonzero;fill:rgb(74.509804%,74.509804%,74.509804%);fill-opacity:1;" d="M 4 6 L 26 6 L 26 20 L 4 20 Z M 4 6 "/>
</g>
</defs>
<g id="surface2">
<path style=" stroke:none;fill-rule:nonzero;fill:rgb(74.509804%,74.509804%,74.509804%);fill-opacity:1;" d="M 6.058594 2 C 2.722656 2 -0.00390625 4.726562 -0.00390625 8.0625 L -0.00390625 23.9375 C -0.00390625 27.273438 2.722656 30 6.058594 30 L 23.933594 30 C 27.273438 30 29.996094 27.273438 29.996094 23.9375 L 29.996094 8.0625 C 29.996094 4.722656 27.273438 2 23.933594 2 Z M 6.058594 6 L 23.933594 6 C 25.125 6 25.996094 6.871094 25.996094 8.0625 L 25.996094 20 L 3.996094 20 L 3.996094 8.0625 C 3.996094 6.871094 4.867188 6 6.058594 6 Z M 4 22 L 14 22 L 14 26 L 6.058594 26 C 4.867188 26 4 25.128906 4 23.9375 Z M 16 22 L 25.996094 22 L 25.996094 23.9375 C 25.996094 25.128906 25.125 26 23.933594 26 L 16 26 Z M 16 22 "/>
<use xlink:href="#surface10" mask="url(#mask0)"/>
<path style=" stroke:none;fill-rule:nonzero;fill:rgb(100%,100%,100%);fill-opacity:1;" d="M 5.507812 29.957031 C 4.601562 29.871094 3.585938 29.53125 2.851562 29.058594 C 1.4375 28.152344 0.449219 26.710938 0.113281 25.058594 C 0.0429688 24.71875 0.0390625 24.183594 0.0390625 15.988281 L 0.0390625 7.277344 L 0.132812 6.851562 C 0.40625 5.640625 0.949219 4.636719 1.796875 3.792969 C 2.65625 2.929688 3.699219 2.375 4.953125 2.113281 C 5.308594 2.039062 5.6875 2.039062 14.980469 2.039062 C 24.164062 2.039062 24.65625 2.039062 25.027344 2.113281 C 26.65625 2.429688 28.078125 3.378906 28.980469 4.75 C 29.421875 5.421875 29.683594 6.046875 29.867188 6.886719 L 29.960938 7.320312 L 29.960938 24.695312 L 29.871094 25.117188 C 29.511719 26.730469 28.609375 28.074219 27.296875 28.949219 C 26.414062 29.539062 25.523438 29.851562 24.433594 29.957031 C 23.898438 30.007812 6.0625 30.007812 5.507812 29.957031 Z M 14.011719 23.996094 L 14.011719 21.992188 L 3.976562 21.992188 L 3.992188 23.199219 C 4.007812 24.316406 4.015625 24.425781 4.097656 24.652344 C 4.332031 25.289062 4.773438 25.707031 5.425781 25.917969 C 5.636719 25.988281 5.941406 25.992188 9.832031 25.992188 L 14.011719 25.996094 Z M 24.539062 25.929688 C 25.085938 25.769531 25.503906 25.433594 25.75 24.964844 C 25.984375 24.515625 26.019531 24.273438 26.019531 23.054688 L 26.023438 21.992188 L 15.992188 21.992188 L 15.992188 25.996094 L 20.152344 25.996094 C 23.859375 25.996094 24.339844 25.988281 24.539062 25.929688 Z M 26.019531 13.953125 C 26.019531 7.371094 26.027344 7.613281 25.789062 7.105469 C 25.644531 6.800781 25.210938 6.363281 24.90625 6.214844 C 24.402344 5.96875 24.929688 5.980469 15 5.980469 C 5.027344 5.980469 5.597656 5.964844 5.074219 6.222656 C 4.566406 6.472656 4.132812 7.0625 4.027344 7.648438 C 3.996094 7.816406 3.980469 9.808594 3.980469 13.953125 L 3.980469 20.011719 L 26.023438 20.011719 Z M 26.019531 13.953125 "/>
</g>
</svg>
