<?xml version="1.0" encoding="UTF-8"?>
<svg xmlns="http://www.w3.org/2000/svg" xmlns:xlink="http://www.w3.org/1999/xlink" width="32" height="32" viewBox="0 0 32 32" version="1.1">
<defs>
<filter id="alpha" filterUnits="objectBoundingBox" x="0%" y="0%" width="100%" height="100%">
  <feColorMatrix type="matrix" in="SourceGraphic" values="0 0 0 0 1 0 0 0 0 1 0 0 0 0 1 0 0 0 1 0"/>
</filter>
<image id="image12" width="32" height="32" xlink:href="data:image/png;base64,iVBORw0KGgoAAAANSUhEUgAAACAAAAAgCAYAAABzenr0AAAABmJLR0QA/wD/AP+gvaeTAAAAXElEQVRYhe3QsRWAQAgD0Jxcb+cGTOScjuIEbOAM5mlhe1RSaX6bB+EByN+1LLjOZQXDSlrM2fqxjaKeDjEM2GsOYACYh9FUUvBC/gFzPpcXMGfNIhERERER+aIbObMPwGT2sXcAAAAASUVORK5CYII="/>
<mask id="mask0">
  <g filter="url(#alpha)">
<use xlink:href="#image12"/>
  </g>
</mask>
<clipPath id="clip1">
  <rect x="0" y="0" width="32" height="32"/>
</clipPath>
<g id="surface11" clip-path="url(#clip1)">
<path style=" stroke:none;fill-rule:nonzero;fill:rgb(74.509804%,74.509804%,74.509804%);fill-opacity:1;" d="M 6 8 L 26 8 L 26 4 L 6 4 Z M 6 8 "/>
</g>
<image id="image21" width="32" height="32" xlink:href="data:image/png;base64,iVBORw0KGgoAAAANSUhEUgAAACAAAAAgCAYAAABzenr0AAAABmJLR0QA/wD/AP+gvaeTAAAAWklEQVRYhe3QsQ2AMAxE0QuBBeiRaGmgZQDWpsooiCmsBFa4hor/6i/LtgQAAP4uueET5ZDuzquXmobtdMreXUBtHaXIXjxXd6x50Xf8D+Q9pKt58WR/AACAF26FDZaeaqqkAAAAAElFTkSuQmCC"/>
<mask id="mask1">
  <g filter="url(#alpha)">
<use xlink:href="#image21"/>
  </g>
</mask>
<clipPath id="clip2">
  <rect x="0" y="0" width="32" height="32"/>
</clipPath>
<g id="surface20" clip-path="url(#clip2)">
<path style=" stroke:none;fill-rule:nonzero;fill:rgb(74.509804%,74.509804%,74.509804%);fill-opacity:1;" d="M 10 16.058594 L 22 16.058594 L 22 17.996094 L 10 19.996094 Z M 10 16.058594 "/>
</g>
</defs>
<g id="surface3">
<path style=" stroke:none;fill-rule:nonzero;fill:rgb(74.509804%,74.509804%,74.509804%);fill-opacity:1;" d="M 6 0 C 4.84375 0 3.882812 0.398438 3.0625 1.125 C 2.652344 1.488281 2.28125 1.960938 2.0625 2.625 C 1.839844 3.289062 1.839844 4.175781 2.1875 4.875 L 4.1875 8.875 C 4.363281 9.230469 4.59375 9.730469 4.9375 10.25 C 5.417969 10.105469 5.925781 10 6.4375 10 L 25.5625 10 C 26.074219 10 26.582031 10.105469 27.0625 10.25 C 27.40625 9.730469 27.636719 9.230469 27.8125 8.875 L 29.8125 4.875 C 30.160156 4.175781 30.15625 3.289062 29.9375 2.625 C 29.714844 1.960938 29.347656 1.488281 28.9375 1.125 C 28.136719 0.40625 27.179688 0.00390625 26.015625 0.00390625 L 6.019531 0.00390625 Z M 6.25 4 L 25.75 4 L 24.1875 7.125 C 23.953125 7.601562 23.835938 7.867188 23.75 8 L 8.25 8 C 8.164062 7.867188 8.046875 7.601562 7.8125 7.125 L 6.273438 4.003906 Z M 6.25 4 "/>
<path style=" stroke:none;fill-rule:nonzero;fill:rgb(74.509804%,74.509804%,74.509804%);fill-opacity:1;" d="M 8 12 C 7.027344 12 6.128906 12.289062 5.375 12.875 C 4.621094 13.460938 4 14.4375 4 15.5625 L 4 32 L 28 32 L 28 15.5625 C 28 14.4375 27.378906 13.460938 26.625 12.875 C 25.882812 12.273438 24.984375 11.996094 24.003906 11.996094 Z M 8 14 L 24 14 L 24 26 L 8 26 Z M 22 28 L 24 28 L 24 30 L 22 30 Z M 22 28 "/>
<use xlink:href="#surface11" mask="url(#mask0)"/>
<path style=" stroke:none;fill-rule:nonzero;fill:rgb(74.509804%,74.509804%,74.509804%);fill-opacity:1;" d="M 10 22.058594 L 22 22.058594 L 22 24.058594 L 10 24.058594 Z M 10 22.058594 "/>
<use xlink:href="#surface20" mask="url(#mask1)"/>
<path style=" stroke:none;fill-rule:nonzero;fill:rgb(100%,100%,100%);fill-opacity:1;" d="M 4.03125 23.488281 C 4.042969 13.96875 4.015625 14.859375 4.351562 14.171875 C 4.855469 13.136719 5.734375 12.457031 7.003906 12.117188 L 7.34375 12.027344 L 15.785156 12.011719 C 21.523438 12.003906 24.332031 12.015625 24.554688 12.042969 C 25.269531 12.136719 25.796875 12.328125 26.328125 12.683594 C 27.113281 13.203125 27.636719 13.917969 27.894531 14.8125 L 27.980469 15.121094 L 28.003906 31.980469 L 4.023438 31.980469 Z M 24 28.988281 L 24 27.976562 L 21.976562 27.976562 L 21.976562 30 L 24 30 Z M 24 19.992188 L 24 13.984375 L 7.984375 13.984375 L 7.984375 25.996094 L 24 25.996094 Z M 24 19.992188 "/>
<path style=" stroke:none;fill-rule:nonzero;fill:rgb(100%,100%,100%);fill-opacity:1;" d="M 4.792969 9.992188 C 4.496094 9.5 2.085938 4.613281 2.015625 4.363281 C 1.917969 4.007812 1.914062 3.210938 2.011719 2.84375 C 2.109375 2.472656 2.40625 1.878906 2.648438 1.585938 C 3.183594 0.921875 4.039062 0.378906 4.898438 0.148438 L 5.238281 0.0546875 L 26.824219 0.0546875 L 27.199219 0.171875 C 27.957031 0.40625 28.542969 0.753906 29.070312 1.285156 C 29.726562 1.949219 30.015625 2.585938 30.054688 3.460938 C 30.089844 4.289062 30.125 4.199219 28.585938 7.277344 C 27.835938 8.777344 27.179688 10.054688 27.128906 10.113281 L 27.03125 10.226562 L 26.734375 10.148438 C 26.570312 10.105469 26.296875 10.050781 26.121094 10.027344 C 25.910156 9.996094 22.679688 9.980469 16 9.980469 C 5.617188 9.980469 5.804688 9.980469 5.199219 10.164062 C 5.085938 10.199219 4.980469 10.230469 4.964844 10.230469 C 4.949219 10.230469 4.871094 10.125 4.792969 9.992188 Z M 24.753906 6.011719 C 25.292969 4.921875 25.726562 4.019531 25.71875 4.011719 C 25.710938 4.003906 21.332031 4.003906 15.984375 4.007812 L 6.269531 4.019531 L 7.25 6.007812 L 8.230469 8 L 23.773438 8 Z M 24.753906 6.011719 "/>
</g>
</svg>
