<?xml version="1.0" encoding="UTF-8"?>
<svg xmlns="http://www.w3.org/2000/svg" xmlns:xlink="http://www.w3.org/1999/xlink" width="32" height="32" viewBox="0 0 32 32" version="1.1">
<g id="surface1">
<path style=" stroke:none;fill-rule:evenodd;fill:rgb(0%,26.666667%,33.333333%);fill-opacity:1;" d="M 4.035156 9.847656 L 7.441406 13.179688 L 7.335938 8.503906 L 4.03125 8.488281 Z M 4.035156 9.847656 "/>
<path style="fill-rule:evenodd;fill:rgb(94.901961%,94.901961%,94.901961%);fill-opacity:1;stroke-width:5.03546;stroke-linecap:butt;stroke-linejoin:miter;stroke:rgb(68.627451%,68.627451%,68.627451%);stroke-opacity:1;stroke-miterlimit:4;" d="M 97.045898 1029.840207 L 433.898926 1028.680539 L 435.119629 664.788937 L 347.045898 575.555539 L 97.045898 575.555539 Z M 97.045898 1029.840207 " transform="matrix(0.064,0,0,0.064,0,-35.35118)"/>
<path style=" stroke:none;fill-rule:nonzero;fill:rgb(21.568627%,67.058824%,78.431373%);fill-opacity:1;" d="M 16.257812 14.363281 C 16.160156 14.628906 16.046875 14.898438 15.929688 15.15625 C 15.921875 15.179688 15.90625 15.199219 15.898438 15.21875 C 15.789062 15.453125 15.6875 15.675781 15.570312 15.902344 C 15.542969 15.949219 15.523438 16 15.5 16.046875 C 15.394531 16.246094 15.285156 16.453125 15.171875 16.648438 C 15.132812 16.71875 15.089844 16.789062 15.050781 16.855469 C 14.050781 18.527344 12.738281 20.277344 11.699219 21.742188 C 10.878906 22.847656 10.40625 24.039062 10.265625 25.1875 C 10.265625 28.042969 12.945312 30.363281 16.257812 30.363281 C 19.574219 30.363281 22.253906 28.042969 22.253906 25.1875 C 22.253906 23.390625 20.816406 21.542969 19.160156 19.171875 C 18.636719 18.4375 18.128906 17.664062 17.675781 16.933594 C 17.429688 16.535156 17.1875 16.125 16.949219 15.695312 C 16.875 15.5625 16.796875 15.421875 16.726562 15.285156 C 16.570312 14.988281 16.40625 14.675781 16.257812 14.363281 Z M 16.257812 14.363281 "/>
<path style=" stroke:none;fill-rule:nonzero;fill:rgb(0%,53.333333%,66.666667%);fill-opacity:1;" d="M 11.6875 21.742188 C 10.863281 22.847656 10.390625 24.039062 10.253906 25.1875 C 10.253906 28.042969 12.933594 30.363281 16.246094 30.363281 C 19.558594 30.363281 22.238281 28.042969 22.238281 25.1875 C 11.097656 28.523438 12.730469 21.128906 17.125 22.390625 C 21.960938 23.78125 19.21875 20.394531 16.046875 20.035156 C 13.492188 19.75 11.6875 21.742188 11.6875 21.742188 Z M 11.6875 21.742188 "/>
<path style="fill-rule:evenodd;fill:rgb(68.627451%,68.627451%,68.627451%);fill-opacity:1;stroke-width:5.03546;stroke-linecap:butt;stroke-linejoin:miter;stroke:rgb(68.627451%,68.627451%,68.627451%);stroke-opacity:1;stroke-miterlimit:4;" d="M 431.518555 662.896848 L 349.365234 662.347531 L 350.097656 578.546262 Z M 431.518555 662.896848 " transform="matrix(0.064,0,0,0.064,0,-35.35118)"/>
<path style=" stroke:none;fill-rule:nonzero;fill:rgb(0%,53.333333%,66.666667%);fill-opacity:1;" d="M 4.039062 4.46875 L 18.4375 4.46875 L 18.4375 9.867188 L 4.039062 9.867188 Z M 4.039062 4.46875 "/>
<path style="fill:none;stroke-width:9;stroke-linecap:butt;stroke-linejoin:miter;stroke:rgb(100%,100%,100%);stroke-opacity:1;stroke-miterlimit:4;" d="M 133.361168 354.179988 L 133.300133 304.680477 " transform="matrix(0.064,0,0,0.064,-0.980427,-13.81205)"/>
<path style=" stroke:none;fill-rule:nonzero;fill:rgb(100%,100%,100%);fill-opacity:1;" d="M 7.277344 4.871094 L 7.84375 4.871094 L 7.84375 5.425781 L 7.277344 5.425781 Z M 7.277344 4.871094 "/>
<path style="fill:none;stroke-width:9;stroke-linecap:butt;stroke-linejoin:miter;stroke:rgb(100%,100%,100%);stroke-opacity:1;stroke-miterlimit:4;" d="M 122.784363 699.624617 L 122.784363 642.312605 " transform="matrix(0.064,0,0,0.064,2.024613,-35.955663)"/>
<path style="fill:none;stroke-width:8.670217;stroke-linecap:butt;stroke-linejoin:miter;stroke:rgb(100%,100%,100%);stroke-opacity:1;stroke-miterlimit:4;" d="M 96.23407 642.739852 L 149.395691 642.739852 " transform="matrix(0.064,0,0,0.064,2.024613,-35.955663)"/>
<path style="fill:none;stroke-width:9;stroke-linecap:butt;stroke-linejoin:miter;stroke:rgb(100%,100%,100%);stroke-opacity:1;stroke-miterlimit:4;" d="M 236.938477 633.355832 L 275.146484 633.966184 L 240.41748 689.019895 " transform="matrix(0.064,0,0,0.064,0,-35.35118)"/>
<path style="fill:none;stroke-width:9;stroke-linecap:round;stroke-linejoin:round;stroke:rgb(100%,100%,100%);stroke-opacity:1;stroke-miterlimit:4;" d="M 210.266113 686.517453 C 202.941895 686.822629 193.54248 683.52673 193.359375 672.906613 C 193.17627 662.286496 210.449219 659.112668 210.449219 659.112668 C 210.449219 659.112668 194.580078 654.229855 195.007324 644.891477 C 195.43457 635.492062 204.528809 632.318234 210.693359 632.50134 C 216.85791 632.74548 225.219727 635.980344 225.280762 645.684934 C 225.463867 655.389523 210.449219 658.258176 210.449219 658.258176 C 210.449219 658.258176 227.416992 662.652707 227.172852 672.906613 C 226.867676 683.16052 217.651367 686.212277 210.266113 686.517453 Z M 210.266113 686.517453 " transform="matrix(0.064,0,0,0.064,0,-35.35118)"/>
</g>
</svg>
