<?xml version="1.0" encoding="UTF-8"?>
<svg xmlns="http://www.w3.org/2000/svg" xmlns:xlink="http://www.w3.org/1999/xlink" width="32" height="32" viewBox="0 0 32 32" version="1.1">
<g id="surface1">
<path style=" stroke:none;fill-rule:evenodd;fill:rgb(19.607843%,19.607843%,19.607843%);fill-opacity:1;" d="M 4.035156 9.847656 L 7.441406 13.179688 L 7.335938 8.503906 L 4.03125 8.488281 Z M 4.035156 9.847656 "/>
<path style="fill-rule:evenodd;fill:rgb(94.901961%,94.901961%,94.901961%);fill-opacity:1;stroke-width:5.03546;stroke-linecap:butt;stroke-linejoin:miter;stroke:rgb(68.627451%,68.627451%,68.627451%);stroke-opacity:1;stroke-miterlimit:4;" d="M 97.045898 1029.840207 L 433.898926 1028.680539 L 435.119629 664.788937 L 347.045898 575.555539 L 97.045898 575.555539 Z M 97.045898 1029.840207 " transform="matrix(0.064,0,0,0.064,0,-35.35118)"/>
<path style="fill-rule:evenodd;fill:rgb(68.627451%,68.627451%,68.627451%);fill-opacity:1;stroke-width:5.03546;stroke-linecap:butt;stroke-linejoin:miter;stroke:rgb(68.627451%,68.627451%,68.627451%);stroke-opacity:1;stroke-miterlimit:4;" d="M 431.518555 662.896848 L 349.365234 662.347531 L 350.097656 578.546262 Z M 431.518555 662.896848 " transform="matrix(0.064,0,0,0.064,0,-35.35118)"/>
<path style=" stroke:none;fill-rule:nonzero;fill:rgb(40%,40%,40%);fill-opacity:1;" d="M 4.039062 4.46875 L 19.753906 4.46875 L 19.753906 9.867188 L 4.039062 9.867188 Z M 4.039062 4.46875 "/>
<path style="fill:none;stroke-width:9;stroke-linecap:butt;stroke-linejoin:miter;stroke:rgb(100%,100%,100%);stroke-opacity:1;stroke-miterlimit:4;" d="M 380.200273 670.71393 L 346.203691 670.286684 L 346.630938 618.589906 L 381.054766 618.711977 " transform="matrix(0.064,0,0,0.064,-12.578911,-34.203035)"/>
<path style="fill:none;stroke-width:9;stroke-linecap:butt;stroke-linejoin:miter;stroke:rgb(100%,100%,100%);stroke-opacity:1;stroke-miterlimit:4;" d="M 348.950273 642.393617 L 378.125078 642.515688 " transform="matrix(0.064,0,0,0.064,-12.578911,-34.203035)"/>
<path style=" stroke:none;fill-rule:nonzero;fill:rgb(60%,60%,60%);fill-opacity:1;" d="M 9.90625 22.679688 L 24.179688 22.679688 L 24.179688 26.101562 L 9.90625 26.101562 Z M 9.90625 22.679688 "/>
<path style=" stroke:none;fill-rule:nonzero;fill:rgb(36.470588%,41.568627%,48.235294%);fill-opacity:1;" d="M 11.398438 16.988281 L 22.539062 16.988281 L 22.539062 21.433594 L 11.398438 21.433594 Z M 11.398438 16.988281 "/>
<path style=" stroke:none;fill-rule:nonzero;fill:rgb(100%,100%,100%);fill-opacity:1;" d="M 12.28125 18.683594 L 12.28125 16.125 L 14.457031 14.363281 L 21.609375 14.328125 L 21.644531 18.71875 Z M 12.28125 18.683594 "/>
<path style=" stroke:none;fill-rule:nonzero;fill:rgb(40%,40%,40%);fill-opacity:1;" d="M 9.882812 18.378906 L 24.152344 18.378906 L 24.152344 22.828125 L 9.882812 22.828125 Z M 9.882812 18.378906 "/>
<path style=" stroke:none;fill-rule:nonzero;fill:rgb(100%,100%,100%);fill-opacity:1;" d="M 11.640625 24.855469 L 22.785156 24.855469 L 22.785156 30.328125 L 11.640625 30.328125 Z M 11.640625 24.855469 "/>
<path style=" stroke:none;fill-rule:nonzero;fill:rgb(36.470588%,41.568627%,48.235294%);fill-opacity:1;" d="M 11.640625 23.828125 L 22.785156 23.828125 L 22.785156 24.953125 L 11.640625 24.953125 Z M 11.640625 23.828125 "/>
<path style=" stroke:none;fill-rule:nonzero;fill:rgb(55.294118%,82.745098%,37.254902%);fill-opacity:1;" d="M 23.261719 19.738281 C 23.261719 20.054688 23.015625 20.308594 22.707031 20.3125 C 22.398438 20.3125 22.152344 20.054688 22.148438 19.738281 C 22.148438 19.421875 22.398438 19.164062 22.703125 19.164062 C 23.011719 19.160156 23.261719 19.417969 23.261719 19.734375 "/>
<path style=" stroke:none;fill-rule:nonzero;fill:rgb(92.156863%,92.156863%,92.156863%);fill-opacity:1;" d="M 12.265625 16.140625 L 14.457031 16.140625 L 14.460938 14.355469 Z M 12.265625 16.140625 "/>
<path style=" stroke:none;fill-rule:nonzero;fill:rgb(80%,80%,80%);fill-opacity:1;" d="M 12.339844 25.550781 L 22.113281 25.550781 L 22.113281 26.085938 L 12.339844 26.085938 Z M 12.339844 25.550781 "/>
<path style=" stroke:none;fill-rule:nonzero;fill:rgb(80%,80%,80%);fill-opacity:1;" d="M 12.265625 28.195312 L 22.039062 28.195312 L 22.039062 28.730469 L 12.265625 28.730469 Z M 12.265625 28.195312 "/>
<path style=" stroke:none;fill-rule:nonzero;fill:rgb(80%,80%,80%);fill-opacity:1;" d="M 12.265625 26.8125 L 22.039062 26.8125 L 22.039062 27.347656 L 12.265625 27.347656 Z M 12.265625 26.8125 "/>
<path style="fill:none;stroke-width:9.063828;stroke-linecap:butt;stroke-linejoin:miter;stroke:rgb(100%,100%,100%);stroke-opacity:1;stroke-miterlimit:4;" d="M 198.120117 692.620969 L 198.120117 636.163449 C 198.120117 636.163449 228.942871 630.182004 228.820801 650.445676 C 228.69873 670.709348 198.730469 665.216184 198.730469 665.216184 " transform="matrix(0.064,0,0,0.064,0,-35.35118)"/>
<path style="fill:none;stroke-width:10;stroke-linecap:butt;stroke-linejoin:miter;stroke:rgb(100%,100%,100%);stroke-opacity:1;stroke-miterlimit:4;" d="M 277.404785 638.482785 C 277.404785 638.482785 268.127441 634.210324 259.338379 634.088254 C 250.549316 634.027219 245.056152 639.337277 244.750977 646.905637 C 244.445801 654.535031 248.718262 660.577512 263.85498 662.408566 C 278.991699 664.178586 278.076172 677.36218 276.245117 682.061887 C 274.353027 686.700559 265.563965 691.09509 256.530762 689.935422 C 247.558594 688.714719 240.112305 684.686398 240.112305 684.686398 " transform="matrix(0.064,0,0,0.064,0,-35.35118)"/>
</g>
</svg>
