<?xml version="1.0" encoding="UTF-8"?>
<svg xmlns="http://www.w3.org/2000/svg" xmlns:xlink="http://www.w3.org/1999/xlink" width="32" height="32" viewBox="0 0 32 32" version="1.1">
<g id="surface1">
<path style=" stroke:none;fill-rule:evenodd;fill:rgb(10.196078%,10.196078%,10.196078%);fill-opacity:1;" d="M 4.054688 9.882812 L 7.460938 13.21875 L 7.351562 8.542969 L 4.050781 8.527344 Z M 4.054688 9.882812 "/>
<path style="fill-rule:evenodd;fill:rgb(94.901961%,94.901961%,94.901961%);fill-opacity:1;stroke-width:5.03546;stroke-linecap:butt;stroke-linejoin:miter;stroke:rgb(68.627451%,68.627451%,68.627451%);stroke-opacity:1;stroke-miterlimit:4;" d="M 97.045898 1029.840207 L 433.898926 1028.680539 L 435.119629 664.788937 L 347.045898 575.555539 L 97.045898 575.555539 Z M 97.045898 1029.840207 " transform="matrix(0.064,0,0,0.064,0,-35.35118)"/>
<path style="fill-rule:evenodd;fill:rgb(68.627451%,68.627451%,68.627451%);fill-opacity:1;stroke-width:5.03546;stroke-linecap:butt;stroke-linejoin:miter;stroke:rgb(68.627451%,68.627451%,68.627451%);stroke-opacity:1;stroke-miterlimit:4;" d="M 431.518555 662.896848 L 349.365234 662.347531 L 350.097656 578.546262 Z M 431.518555 662.896848 " transform="matrix(0.064,0,0,0.064,0,-35.35118)"/>
<path style=" stroke:none;fill-rule:nonzero;fill:rgb(22.352941%,25.098039%,31.372549%);fill-opacity:1;" d="M 4.039062 4.46875 L 18.960938 4.46875 L 18.960938 9.867188 L 4.039062 9.867188 Z M 4.039062 4.46875 "/>
<path style=" stroke:none;fill-rule:nonzero;fill:rgb(22.352941%,25.098039%,31.372549%);fill-opacity:1;" d="M 16.289062 30.277344 C 16.148438 30.214844 16 30.054688 15.933594 29.898438 C 15.898438 29.816406 15.863281 29.5 15.835938 28.992188 C 15.8125 28.566406 15.777344 28.183594 15.761719 28.140625 C 15.742188 28.085938 15.644531 28.035156 15.398438 27.949219 C 15.214844 27.882812 14.9375 27.769531 14.78125 27.691406 C 14.628906 27.613281 14.46875 27.546875 14.425781 27.546875 C 14.378906 27.546875 14.128906 27.753906 13.765625 28.085938 C 13.445312 28.378906 13.128906 28.648438 13.066406 28.679688 C 12.933594 28.75 12.640625 28.757812 12.488281 28.703125 C 12.367188 28.65625 11.085938 27.398438 11.003906 27.242188 C 10.925781 27.089844 10.933594 26.800781 11.023438 26.625 C 11.066406 26.546875 11.335938 26.226562 11.625 25.914062 C 11.9375 25.574219 12.152344 25.3125 12.152344 25.273438 C 12.152344 25.230469 12.085938 25.070312 12.007812 24.917969 C 11.933594 24.761719 11.816406 24.484375 11.75 24.304688 C 11.6875 24.117188 11.609375 23.957031 11.578125 23.9375 C 11.546875 23.921875 11.167969 23.890625 10.742188 23.867188 C 10.246094 23.839844 9.910156 23.804688 9.8125 23.769531 C 9.628906 23.703125 9.417969 23.476562 9.386719 23.3125 C 9.375 23.25 9.371094 22.761719 9.375 22.230469 L 9.386719 21.269531 L 9.5 21.128906 C 9.695312 20.882812 9.785156 20.859375 10.71875 20.804688 C 11.25 20.769531 11.570312 20.734375 11.597656 20.710938 C 11.621094 20.683594 11.699219 20.503906 11.773438 20.304688 C 11.847656 20.105469 11.960938 19.835938 12.03125 19.699219 C 12.097656 19.566406 12.152344 19.429688 12.152344 19.390625 C 12.152344 19.355469 11.929688 19.085938 11.660156 18.789062 C 11.390625 18.492188 11.128906 18.199219 11.085938 18.136719 C 10.957031 17.96875 10.914062 17.757812 10.964844 17.550781 C 11.003906 17.394531 11.074219 17.3125 11.660156 16.714844 C 12.019531 16.351562 12.375 16.023438 12.449219 15.984375 C 12.617188 15.894531 12.890625 15.894531 13.0625 15.980469 C 13.132812 16.015625 13.445312 16.28125 13.757812 16.566406 C 14.070312 16.855469 14.347656 17.101562 14.375 17.117188 C 14.398438 17.132812 14.566406 17.070312 14.773438 16.976562 C 14.96875 16.882812 15.257812 16.761719 15.417969 16.710938 C 15.636719 16.636719 15.722656 16.589844 15.75 16.523438 C 15.773438 16.476562 15.8125 16.089844 15.835938 15.660156 C 15.882812 14.839844 15.910156 14.710938 16.078125 14.53125 C 16.269531 14.335938 16.375 14.320312 17.429688 14.332031 L 18.390625 14.34375 L 18.539062 14.441406 C 18.796875 14.613281 18.828125 14.71875 18.890625 15.632812 C 18.917969 16.078125 18.953125 16.472656 18.960938 16.515625 C 18.976562 16.574219 19.054688 16.617188 19.3125 16.707031 C 19.496094 16.773438 19.789062 16.894531 19.960938 16.984375 C 20.136719 17.070312 20.292969 17.144531 20.3125 17.144531 C 20.328125 17.144531 20.609375 16.898438 20.933594 16.597656 C 21.261719 16.300781 21.589844 16.023438 21.664062 15.984375 C 21.835938 15.894531 22.097656 15.894531 22.285156 15.988281 C 22.378906 16.03125 22.683594 16.308594 23.070312 16.699219 C 23.734375 17.371094 23.785156 17.445312 23.785156 17.75 C 23.785156 17.964844 23.691406 18.105469 23.121094 18.730469 C 22.8125 19.070312 22.558594 19.359375 22.558594 19.378906 C 22.558594 19.398438 22.640625 19.578125 22.738281 19.785156 C 22.835938 19.992188 22.953125 20.28125 23 20.425781 C 23.054688 20.609375 23.105469 20.703125 23.152344 20.722656 C 23.195312 20.742188 23.59375 20.777344 24.042969 20.804688 C 24.933594 20.859375 25.074219 20.898438 25.226562 21.109375 C 25.367188 21.304688 25.382812 21.453125 25.371094 22.425781 L 25.359375 23.351562 L 25.25 23.507812 C 25.054688 23.78125 25.007812 23.796875 24.019531 23.859375 C 23.535156 23.894531 23.132812 23.929688 23.121094 23.9375 C 23.113281 23.949219 23.054688 24.101562 22.988281 24.28125 C 22.925781 24.460938 22.804688 24.746094 22.714844 24.921875 C 22.625 25.097656 22.558594 25.265625 22.566406 25.289062 C 22.570312 25.316406 22.8125 25.597656 23.101562 25.910156 C 23.386719 26.222656 23.660156 26.554688 23.707031 26.640625 C 23.800781 26.828125 23.808594 27.027344 23.730469 27.214844 C 23.660156 27.378906 22.488281 28.574219 22.296875 28.671875 C 22.136719 28.753906 21.847656 28.761719 21.679688 28.691406 C 21.617188 28.664062 21.296875 28.394531 20.96875 28.09375 C 20.640625 27.792969 20.347656 27.546875 20.3125 27.546875 C 20.28125 27.546875 20.097656 27.621094 19.902344 27.714844 C 19.710938 27.804688 19.421875 27.921875 19.265625 27.972656 C 19.046875 28.042969 18.976562 28.085938 18.960938 28.140625 C 18.953125 28.183594 18.917969 28.578125 18.890625 29.023438 C 18.824219 29.996094 18.789062 30.101562 18.449219 30.273438 C 18.351562 30.320312 18.1875 30.332031 17.367188 30.328125 C 16.636719 30.328125 16.371094 30.316406 16.289062 30.277344 Z M 17.714844 25.957031 C 18.589844 25.867188 19.320312 25.519531 19.941406 24.898438 C 20.414062 24.421875 20.71875 23.890625 20.902344 23.21875 C 21.019531 22.796875 21.019531 21.871094 20.902344 21.445312 C 20.550781 20.152344 19.625 19.203125 18.347656 18.816406 C 18.050781 18.726562 17.96875 18.71875 17.390625 18.71875 C 16.835938 18.714844 16.71875 18.726562 16.453125 18.796875 C 15.105469 19.164062 14.078125 20.246094 13.796875 21.585938 C 13.542969 22.792969 13.914062 24.023438 14.792969 24.90625 C 15.253906 25.367188 15.851562 25.707031 16.5 25.875 C 16.683594 25.921875 16.945312 25.960938 17.320312 25.988281 C 17.347656 25.992188 17.527344 25.976562 17.714844 25.957031 Z M 16.820312 24.441406 C 15.898438 24.191406 15.253906 23.410156 15.195312 22.46875 C 15.15625 21.8125 15.367188 21.257812 15.835938 20.792969 C 16.683594 19.945312 18.042969 19.9375 18.882812 20.773438 C 19.574219 21.460938 19.738281 22.441406 19.308594 23.304688 C 18.945312 24.035156 18.273438 24.46875 17.445312 24.5 C 17.164062 24.511719 17.023438 24.5 16.820312 24.441406 Z M 17.851562 23.53125 C 18.105469 23.4375 18.410156 23.15625 18.535156 22.894531 C 18.691406 22.5 18.679688 22.046875 18.511719 21.738281 C 18.277344 21.300781 17.925781 21.078125 17.429688 21.054688 C 17.027344 21.035156 16.789062 21.117188 16.5 21.382812 C 16.132812 21.714844 15.988281 22.179688 16.105469 22.636719 C 16.207031 23.035156 16.421875 23.304688 16.785156 23.488281 C 17.125 23.660156 17.472656 23.671875 17.851562 23.53125 Z M 17.851562 23.53125 "/>
<path style="fill:none;stroke-width:9;stroke-linecap:butt;stroke-linejoin:miter;stroke:rgb(100%,100%,100%);stroke-opacity:1;stroke-miterlimit:4;" d="M 132.080078 692.98718 L 132.324219 638.42175 L 137.390137 638.238645 L 153.259277 679.49841 L 156.616211 679.49841 L 172.546387 638.238645 L 177.856445 638.116574 L 177.856445 693.170285 " transform="matrix(0.064,0,0,0.064,0,-35.35118)"/>
<path style="fill:none;stroke-width:9;stroke-linecap:butt;stroke-linejoin:bevel;stroke:rgb(100%,100%,100%);stroke-opacity:1;stroke-miterlimit:4;" d="M 915.707198 696.267505 L 937.82811 638.025871 L 960.555074 696.267505 " transform="matrix(0.064454,0,0,0.064454,-46.856929,-35.896757)"/>
<path style="fill:none;stroke-width:9;stroke-linecap:butt;stroke-linejoin:miter;stroke:rgb(100%,100%,100%);stroke-opacity:1;stroke-miterlimit:4;" d="M 924.616168 676.752618 L 950.373394 676.752618 " transform="matrix(0.064454,0,0,0.064454,-46.856929,-35.896757)"/>
<path style="fill:none;stroke-width:9;stroke-linecap:butt;stroke-linejoin:miter;stroke:rgb(100%,100%,100%);stroke-opacity:1;stroke-miterlimit:4;" d="M 1024.636019 695.901891 L 1025.060256 635.963311 " transform="matrix(0.064454,0,0,0.064454,-50.100484,-35.795067)"/>
<path style="fill:none;stroke-width:9;stroke-linecap:butt;stroke-linejoin:round;stroke:rgb(100%,100%,100%);stroke-opacity:1;stroke-miterlimit:4;" d="M 1059.302216 636.569363 L 1031.24199 663.538694 L 1061.544609 694.689787 " transform="matrix(0.064454,0,0,0.064454,-50.100484,-35.795067)"/>
</g>
</svg>
