<?xml version="1.0" encoding="UTF-8"?>
<svg xmlns="http://www.w3.org/2000/svg" xmlns:xlink="http://www.w3.org/1999/xlink" width="22" height="22" viewBox="0 0 22 22" version="1.1">
<g id="surface1">
<path style=" stroke:none;fill-rule:nonzero;fill:rgb(74.509804%,74.509804%,74.509804%);fill-opacity:1;" d="M 8.8125 6.875 C 8.484375 6.933594 8.246094 7.226562 8.25 7.5625 L 8.25 11 L 6.1875 11 C 5.941406 10.996094 5.707031 11.125 5.582031 11.339844 C 5.460938 11.554688 5.460938 11.820312 5.582031 12.035156 C 5.707031 12.25 5.941406 12.378906 6.1875 12.375 L 8.9375 12.375 C 9.316406 12.375 9.625 12.066406 9.625 11.6875 L 9.625 7.5625 C 9.628906 7.355469 9.539062 7.15625 9.378906 7.023438 C 9.222656 6.890625 9.011719 6.835938 8.808594 6.875 Z M 8.8125 6.875 "/>
<path style=" stroke:none;fill-rule:nonzero;fill:rgb(74.509804%,74.509804%,74.509804%);fill-opacity:1;" d="M 15.125 15.125 L 17.015625 15.125 L 18.5625 16.628906 L 20.066406 15.125 L 22 15.125 L 22 17.144531 L 20.496094 18.605469 L 22 20.066406 L 22 22 L 20.023438 22 L 18.5625 20.539062 L 17.101562 22 L 15.125 22 L 15.125 20.066406 L 16.585938 18.605469 L 15.125 17.144531 Z M 15.125 15.125 "/>
<path style=" stroke:none;fill-rule:nonzero;fill:rgb(74.509804%,74.509804%,74.509804%);fill-opacity:1;" d="M 8.9375 2.75 C 4.015625 2.75 0 6.765625 0 11.6875 C 0 16.609375 4.015625 20.625 8.9375 20.625 C 10.710938 20.625 12.355469 20.109375 13.75 19.207031 L 13.75 15.554688 C 12.621094 16.96875 10.902344 17.875 8.9375 17.875 C 5.503906 17.875 2.75 15.121094 2.75 11.6875 C 2.75 8.253906 5.503906 5.5 8.9375 5.5 C 12.371094 5.5 15.125 8.253906 15.125 11.6875 C 15.125 12.421875 14.96875 13.101562 14.738281 13.75 L 17.617188 13.75 C 17.773438 13.085938 17.875 12.398438 17.875 11.6875 C 17.875 6.765625 13.859375 2.75 8.9375 2.75 Z M 8.9375 2.75 "/>
<path style=" stroke:none;fill-rule:nonzero;fill:rgb(100%,0%,0%);fill-opacity:1;" d="M 15.175781 20.972656 L 15.175781 20.019531 L 15.898438 19.292969 L 16.617188 18.570312 L 15.898438 17.84375 L 15.175781 17.121094 L 15.175781 15.121094 L 16.988281 15.121094 L 17.757812 15.886719 L 18.527344 16.648438 L 19.3125 15.886719 L 20.09375 15.121094 L 21.980469 15.121094 L 21.980469 17.128906 L 20.488281 18.613281 L 21.980469 20.113281 L 21.980469 21.925781 L 19.980469 21.925781 L 19.257812 21.203125 L 18.53125 20.484375 L 17.808594 21.203125 L 17.082031 21.925781 L 15.175781 21.925781 Z M 15.175781 20.972656 "/>
<path style=" stroke:none;fill-rule:nonzero;fill:rgb(100%,100%,100%);fill-opacity:1;" d="M 7.835938 20.527344 C 4.402344 20.046875 1.609375 17.742188 0.496094 14.476562 C -0.0234375 12.941406 -0.0664062 10.761719 0.394531 9.199219 C 1.277344 6.230469 3.601562 3.957031 6.65625 3.074219 C 7.296875 2.890625 7.597656 2.863281 8.976562 2.867188 C 10.429688 2.871094 10.628906 2.894531 11.382812 3.125 C 12.257812 3.394531 13.285156 3.875 13.964844 4.335938 C 14.582031 4.757812 15.699219 5.855469 16.167969 6.511719 C 16.65625 7.191406 17.328125 8.605469 17.539062 9.386719 C 17.859375 10.570312 17.90625 12.429688 17.644531 13.464844 L 17.578125 13.722656 L 16.179688 13.722656 C 14.976562 13.722656 14.789062 13.703125 14.835938 13.582031 C 14.867188 13.503906 14.960938 13.097656 15.046875 12.679688 C 15.304688 11.40625 15.132812 10.296875 14.464844 8.898438 C 13.585938 7.054688 11.746094 5.761719 9.671875 5.527344 C 7.710938 5.308594 5.929688 5.925781 4.558594 7.296875 C 1.375 10.480469 2.5 15.824219 6.699219 17.480469 C 8.871094 18.339844 11.339844 17.859375 13.152344 16.238281 L 13.6875 15.753906 L 13.636719 19.269531 L 12.84375 19.664062 C 11.417969 20.378906 9.332031 20.738281 7.835938 20.527344 Z M 7.835938 20.527344 "/>
<path style=" stroke:none;fill-rule:nonzero;fill:rgb(100%,100%,100%);fill-opacity:1;" d="M 5.757812 12.152344 C 5.476562 11.925781 5.480469 11.414062 5.765625 11.183594 C 5.933594 11.046875 6.160156 11.019531 7.125 11.019531 L 8.277344 11.019531 L 8.277344 9.171875 C 8.277344 7.441406 8.289062 7.3125 8.46875 7.121094 C 8.707031 6.863281 9.148438 6.855469 9.398438 7.101562 C 9.574219 7.28125 9.582031 7.414062 9.582031 9.621094 C 9.582031 11.828125 9.574219 11.960938 9.398438 12.136719 C 9.222656 12.308594 9.085938 12.324219 7.589844 12.324219 C 6.15625 12.324219 5.945312 12.304688 5.757812 12.152344 Z M 5.757812 12.152344 "/>
</g>
</svg>
