<?xml version="1.0" encoding="UTF-8"?>
<svg xmlns="http://www.w3.org/2000/svg" xmlns:xlink="http://www.w3.org/1999/xlink" width="22" height="22" viewBox="0 0 22 22" version="1.1">
<g id="surface1">
<path style=" stroke:none;fill-rule:nonzero;fill:rgb(0%,0%,0%);fill-opacity:1;" d="M 6.875 6.875 L 6.875 9.625 L 15.125 9.625 L 15.125 6.875 Z M 6.875 6.875 "/>
<path style=" stroke:none;fill-rule:nonzero;fill:rgb(0%,0%,0%);fill-opacity:1;" d="M 7.519531 0 C 6.84375 0 6.425781 0.3125 6.101562 0.644531 C 5.777344 0.976562 5.5 1.371094 5.5 2.019531 L 5.5 2.746094 L 2.75 2.746094 L 2.75 21.996094 L 19.25 21.996094 L 19.25 2.746094 L 16.5 2.746094 L 16.5 2.148438 C 16.46875 1.554688 16.265625 1.15625 15.941406 0.773438 C 15.632812 0.40625 15.078125 0.0429688 14.351562 0.0429688 L 14.351562 0 Z M 8.25 2.75 L 13.75 2.75 L 13.75 5.5 L 16.5 5.5 L 16.5 19.25 L 5.5 19.25 L 5.5 5.5 L 8.25 5.5 Z M 8.25 2.75 "/>
<path style=" stroke:none;fill-rule:nonzero;fill:rgb(0%,0%,0%);fill-opacity:1;" d="M 6.875 11 L 6.875 13.75 L 15.125 13.75 L 15.125 11 Z M 6.875 11 "/>
<path style=" stroke:none;fill-rule:nonzero;fill:rgb(0%,0%,0%);fill-opacity:1;" d="M 6.875 15.125 L 6.875 17.875 L 15.125 17.875 L 15.125 15.125 Z M 6.875 15.125 "/>
<path style=" stroke:none;fill-rule:nonzero;fill:rgb(100%,0%,0%);fill-opacity:1;" d="M 6.878906 8.253906 L 6.878906 6.890625 L 15.109375 6.890625 L 15.109375 9.613281 L 6.878906 9.613281 Z M 6.878906 8.253906 "/>
<path style=" stroke:none;fill-rule:nonzero;fill:rgb(100%,0%,0%);fill-opacity:1;" d="M 6.878906 12.367188 L 6.878906 11.003906 L 15.109375 11.003906 L 15.109375 13.730469 L 6.878906 13.730469 Z M 6.878906 12.367188 "/>
<path style=" stroke:none;fill-rule:nonzero;fill:rgb(100%,0%,0%);fill-opacity:1;" d="M 6.878906 16.511719 L 6.878906 15.148438 L 15.109375 15.148438 L 15.109375 17.871094 L 6.878906 17.871094 Z M 6.878906 16.511719 "/>
<path style=" stroke:none;fill-rule:nonzero;fill:rgb(100%,100%,100%);fill-opacity:1;" d="M 2.777344 12.371094 L 2.777344 2.816406 L 5.574219 2.816406 L 5.574219 2.207031 C 5.574219 1.871094 5.632812 1.460938 5.699219 1.296875 C 5.875 0.882812 6.601562 0.238281 7.03125 0.121094 C 7.5 -0.0078125 13.941406 -0.015625 14.628906 0.113281 C 15.660156 0.304688 16.371094 1.117188 16.457031 2.203125 L 16.507812 2.816406 L 19.183594 2.816406 L 19.183594 21.925781 L 2.777344 21.925781 Z M 16.574219 12.371094 L 16.574219 5.425781 L 13.777344 5.425781 L 13.777344 2.722656 L 8.183594 2.722656 L 8.183594 5.425781 L 5.480469 5.425781 L 5.480469 19.316406 L 16.574219 19.316406 Z M 16.574219 12.371094 "/>
</g>
</svg>
