<?xml version="1.0" encoding="UTF-8"?>
<svg xmlns="http://www.w3.org/2000/svg" xmlns:xlink="http://www.w3.org/1999/xlink" width="22" height="22" viewBox="0 0 22 22" version="1.1">
<g id="surface1">
<path style=" stroke:none;fill-rule:nonzero;fill:rgb(74.509804%,74.509804%,74.509804%);fill-opacity:1;" d="M 6.875 15.207031 L 6.875 17.871094 L 11 17.871094 L 11 15.121094 Z M 6.875 15.207031 "/>
<path style=" stroke:none;fill-rule:nonzero;fill:rgb(74.509804%,74.509804%,74.509804%);fill-opacity:1;" d="M 7.523438 0 C 6.847656 0 6.425781 0.3125 6.105469 0.644531 C 5.773438 0.976562 5.5 1.414062 5.5 2.058594 L 5.5 2.746094 L 2.75 2.746094 L 2.75 21.996094 L 13.75 21.996094 L 13.75 19.246094 L 5.5 19.246094 L 5.5 5.496094 L 8.25 5.496094 L 8.25 2.746094 L 13.75 2.746094 L 13.75 5.496094 L 16.5 5.496094 L 16.5 9.621094 L 19.25 9.621094 L 19.25 2.746094 L 16.5 2.746094 L 16.5 2.148438 C 16.464844 1.554688 16.265625 1.15625 15.941406 0.773438 C 15.632812 0.40625 15.078125 0.0429688 14.351562 0.0429688 L 14.351562 0 L 7.519531 0 Z M 7.523438 0 "/>
<path style=" stroke:none;fill-rule:nonzero;fill:rgb(74.509804%,74.509804%,74.509804%);fill-opacity:1;" d="M 17.710938 11 C 17.402344 11.035156 17.113281 11.167969 16.894531 11.386719 L 12.769531 15.511719 C 12.363281 15.902344 12.238281 16.503906 12.453125 17.027344 C 12.667969 17.546875 13.179688 17.886719 13.746094 17.878906 L 17.269531 17.878906 L 15.507812 19.636719 C 15.148438 19.992188 15.007812 20.507812 15.136719 20.992188 C 15.265625 21.476562 15.644531 21.855469 16.128906 21.984375 C 16.613281 22.113281 17.132812 21.972656 17.484375 21.613281 L 21.609375 17.488281 C 22.015625 17.097656 22.140625 16.492188 21.921875 15.96875 C 21.703125 15.445312 21.1875 15.109375 20.617188 15.125 L 17.09375 15.125 L 18.855469 13.363281 C 19.300781 12.949219 19.421875 12.296875 19.15625 11.753906 C 18.890625 11.207031 18.300781 10.902344 17.699219 10.996094 Z M 17.710938 11 "/>
<path style=" stroke:none;fill-rule:nonzero;fill:rgb(74.509804%,74.509804%,74.509804%);fill-opacity:1;" d="M 20.625 15.125 L 22 15.125 L 22 16.5 L 20.625 16.5 Z M 20.625 15.125 "/>
<path style=" stroke:none;fill-rule:nonzero;fill:rgb(74.509804%,74.509804%,74.509804%);fill-opacity:1;" d="M 12.375 16.5 L 13.75 16.5 L 13.75 17.875 L 12.375 17.875 Z M 12.375 16.5 "/>
<path style=" stroke:none;fill-rule:nonzero;fill:rgb(74.509804%,74.509804%,74.509804%);fill-opacity:1;" d="M 17.875 11 L 19.25 11 L 19.25 12.375 L 17.875 12.375 Z M 17.875 11 "/>
<path style=" stroke:none;fill-rule:nonzero;fill:rgb(74.509804%,74.509804%,74.509804%);fill-opacity:1;" d="M 15.125 20.625 L 16.5 20.625 L 16.5 22 L 15.125 22 Z M 15.125 20.625 "/>
<path style=" stroke:none;fill-rule:nonzero;fill:rgb(74.509804%,74.509804%,74.509804%);fill-opacity:1;" d="M 16.71875 11.605469 L 13.96875 15.730469 L 16.289062 17.277344 L 19.039062 13.152344 Z M 16.71875 11.605469 "/>
<path style=" stroke:none;fill-rule:nonzero;fill:rgb(74.509804%,74.509804%,74.509804%);fill-opacity:1;" d="M 18.09375 15.730469 L 15.34375 19.855469 L 17.664062 21.402344 L 20.414062 17.277344 Z M 18.09375 15.730469 "/>
<path style=" stroke:none;fill-rule:nonzero;fill:rgb(100%,0%,0%);fill-opacity:1;" d="M 6.878906 16.542969 L 6.878906 15.214844 L 8.789062 15.179688 C 9.835938 15.164062 10.765625 15.140625 10.84375 15.132812 L 10.996094 15.117188 L 10.996094 17.871094 L 6.878906 17.871094 Z M 6.878906 16.542969 "/>
<path style=" stroke:none;fill-rule:nonzero;fill:rgb(0%,0%,0%);fill-opacity:1;" d="M 2.765625 12.367188 L 2.765625 2.746094 L 5.511719 2.746094 L 5.523438 2.1875 C 5.535156 1.707031 5.546875 1.601562 5.597656 1.457031 C 5.832031 0.8125 6.425781 0.246094 7.0625 0.0625 C 7.222656 0.015625 7.515625 0.0117188 10.789062 0.00390625 C 13.234375 -0.00390625 14.34375 0.00390625 14.34375 0.0234375 C 14.34375 0.0390625 14.386719 0.0507812 14.445312 0.0507812 C 14.59375 0.0507812 14.960938 0.132812 15.140625 0.207031 C 15.605469 0.398438 16.027344 0.800781 16.273438 1.296875 C 16.414062 1.578125 16.472656 1.859375 16.492188 2.328125 L 16.507812 2.746094 L 19.253906 2.746094 L 19.253906 9.613281 L 16.5 9.613281 L 16.5 5.5 L 13.746094 5.5 L 13.746094 2.746094 L 8.242188 2.746094 L 8.242188 5.5 L 5.488281 5.5 L 5.488281 19.261719 L 13.746094 19.261719 L 13.746094 21.988281 L 2.765625 21.988281 Z M 2.765625 12.367188 "/>
<path style=" stroke:none;fill-rule:nonzero;fill:rgb(100%,100%,0%);fill-opacity:1;" d="M 15.6875 21.996094 L 15.148438 21.984375 L 15.128906 21.195312 C 15.109375 20.289062 15.125 20.183594 15.328125 19.882812 C 15.386719 19.792969 15.714844 19.308594 16.050781 18.804688 L 16.667969 17.886719 L 12.394531 17.871094 L 12.378906 17.101562 C 12.367188 16.484375 12.371094 16.296875 12.402344 16.171875 C 12.5 15.785156 12.4375 15.859375 14.824219 13.46875 C 16.898438 11.390625 17.066406 11.234375 17.238281 11.15625 C 17.546875 11.011719 17.640625 11 18.46875 11.003906 C 18.890625 11.007812 19.238281 11.011719 19.242188 11.011719 C 19.242188 11.015625 19.25 11.390625 19.253906 11.84375 C 19.265625 12.652344 19.265625 12.667969 19.199219 12.835938 C 19.160156 12.925781 18.8125 13.480469 18.425781 14.0625 C 18.035156 14.644531 17.71875 15.128906 17.71875 15.136719 C 17.71875 15.144531 18.429688 15.152344 19.300781 15.148438 C 20.171875 15.144531 21.128906 15.144531 21.425781 15.148438 L 21.96875 15.148438 L 21.988281 15.9375 C 22.003906 16.675781 22.003906 16.738281 21.949219 16.910156 C 21.917969 17.011719 21.851562 17.15625 21.804688 17.234375 C 21.695312 17.40625 17.453125 21.65625 17.257812 21.789062 C 16.9375 22 16.816406 22.015625 15.6875 21.996094 Z M 15.6875 21.996094 "/>
<path style=" stroke:none;fill-rule:nonzero;fill:rgb(100%,100%,100%);fill-opacity:1;" d="M 2.777344 12.371094 L 2.777344 2.816406 L 5.574219 2.816406 L 5.574219 2.207031 C 5.574219 1.324219 5.902344 0.769531 6.734375 0.242188 C 6.988281 0.078125 7.277344 0.0625 10.507812 0.0351562 C 12.894531 0.0117188 14.183594 0.0351562 14.566406 0.109375 C 15.671875 0.320312 16.25 0.949219 16.417969 2.113281 L 16.519531 2.816406 L 19.183594 2.816406 L 19.183594 9.527344 L 16.578125 9.527344 L 16.554688 7.5 L 16.527344 5.472656 L 15.152344 5.445312 L 13.777344 5.421875 L 13.777344 2.722656 L 8.183594 2.722656 L 8.183594 5.425781 L 5.480469 5.425781 L 5.480469 19.316406 L 13.683594 19.316406 L 13.683594 21.925781 L 2.777344 21.925781 Z M 2.777344 12.371094 "/>
</g>
</svg>
