<?xml version="1.0" encoding="UTF-8"?>
<svg xmlns="http://www.w3.org/2000/svg" xmlns:xlink="http://www.w3.org/1999/xlink" width="22" height="22" viewBox="0 0 22 22" version="1.1">
<defs>
<filter id="alpha" filterUnits="objectBoundingBox" x="0%" y="0%" width="100%" height="100%">
  <feColorMatrix type="matrix" in="SourceGraphic" values="0 0 0 0 1 0 0 0 0 1 0 0 0 0 1 0 0 0 1 0"/>
</filter>
<image id="image11" width="22" height="22" xlink:href="data:image/png;base64,iVBORw0KGgoAAAANSUhEUgAAABYAAAAWCAYAAADEtGw7AAAABmJLR0QA/wD/AP+gvaeTAAAAVklEQVQ4jWNgGGqAEZvgfwZmRoZVDEwkGxb29y9+g783yzGw1CSRajBDa0sTY0PtPwYGBtJdRSwYNXjUYDoazIJV9P+nvwwMtZ9IN46dQueMglEwQgAADe4Pe2QoKzwAAAAASUVORK5CYII="/>
<mask id="mask0">
  <g filter="url(#alpha)">
<use xlink:href="#image11"/>
  </g>
</mask>
<clipPath id="clip1">
  <rect x="0" y="0" width="22" height="22"/>
</clipPath>
<g id="surface10" clip-path="url(#clip1)">
<path style=" stroke:none;fill-rule:nonzero;fill:rgb(74.509804%,74.509804%,74.509804%);fill-opacity:1;" d="M 12.375 2.75 L 12.375 3.824219 C 12.28125 4.246094 12.386719 4.6875 12.664062 5.015625 C 12.945312 5.34375 13.359375 5.523438 13.789062 5.503906 L 14.605469 5.503906 L 11.082031 9.027344 L 7.816406 5.890625 C 7.554688 5.632812 7.195312 5.496094 6.828125 5.503906 L 5.496094 5.503906 L 5.496094 6.535156 C 5.496094 6.578125 5.496094 6.621094 5.496094 6.664062 C 5.425781 7.101562 5.566406 7.550781 5.882812 7.867188 L 10.136719 11.949219 L 11.082031 12.894531 L 12.070312 11.949219 L 16.496094 7.480469 L 16.496094 8.253906 C 16.496094 9.011719 17.113281 9.628906 17.871094 9.628906 L 19.246094 9.628906 L 19.246094 8.46875 C 19.253906 8.398438 19.253906 8.324219 19.246094 8.253906 L 19.246094 2.753906 L 13.789062 2.753906 C 13.777344 2.753906 13.761719 2.753906 13.746094 2.753906 L 12.371094 2.753906 Z M 12.375 2.75 "/>
</g>
</defs>
<g id="surface2">
<path style=" stroke:none;fill-rule:nonzero;fill:rgb(74.509804%,74.509804%,74.509804%);fill-opacity:1;" d="M 4.59375 15.839844 C 2.9375 16.234375 1.851562 17.351562 1.585938 19.191406 C 1.511719 19.964844 1.199219 21.039062 1.929688 21.554688 C 2.902344 22.136719 4.09375 22.039062 5.152344 21.855469 C 5.921875 21.652344 6.253906 21.578125 6.871094 20.996094 C 6.871094 20.996094 6.796875 19.523438 7.128906 18.71875 C 9.78125 17.605469 12.367188 17.6875 14.949219 18.71875 C 15.277344 19.523438 15.207031 20.996094 15.207031 20.996094 C 15.824219 21.578125 16.152344 21.652344 16.925781 21.855469 C 17.984375 22.039062 19.171875 22.136719 20.148438 21.554688 C 20.875 21.039062 20.566406 19.964844 20.492188 19.191406 C 20.222656 17.351562 19.136719 16.234375 17.484375 15.839844 C 13.167969 15.027344 8.855469 14.84375 4.59375 15.839844 Z M 4.59375 15.839844 "/>
<use xlink:href="#surface10" mask="url(#mask0)"/>
<path style=" stroke:none;fill-rule:nonzero;fill:rgb(100%,100%,100%);fill-opacity:1;" d="M 2.5 21.773438 C 1.464844 21.414062 1.277344 20.699219 1.714844 18.765625 C 1.976562 17.597656 2.730469 16.648438 3.765625 16.175781 C 4.433594 15.871094 6.089844 15.535156 7.859375 15.34375 C 11.175781 14.988281 16.875 15.460938 18.429688 16.222656 C 19.5 16.746094 20.191406 17.769531 20.445312 19.195312 C 20.71875 20.726562 20.582031 21.304688 19.851562 21.664062 C 19.464844 21.855469 19.28125 21.878906 18.207031 21.878906 C 16.898438 21.878906 16.304688 21.746094 15.632812 21.300781 C 15.296875 21.078125 15.296875 21.078125 15.230469 20.21875 C 15.195312 19.75 15.128906 19.207031 15.078125 19.019531 C 14.992188 18.703125 14.941406 18.660156 14.40625 18.488281 C 13.199219 18.097656 12.671875 18 11.472656 17.945312 C 10.035156 17.882812 9.179688 17.992188 7.933594 18.402344 L 7.082031 18.683594 L 6.984375 19.113281 C 6.929688 19.351562 6.871094 19.882812 6.855469 20.292969 L 6.824219 21.039062 L 6.386719 21.335938 C 6.128906 21.507812 5.679688 21.691406 5.300781 21.777344 C 4.472656 21.964844 3.054688 21.964844 2.5 21.773438 Z M 2.5 21.773438 "/>
</g>
</svg>
