<?xml version="1.0" encoding="UTF-8"?>
<svg xmlns="http://www.w3.org/2000/svg" xmlns:xlink="http://www.w3.org/1999/xlink" width="22" height="22" viewBox="0 0 22 22" version="1.1">
<g id="surface1">
<path style=" stroke:none;fill-rule:nonzero;fill:rgb(100%,100%,100%);fill-opacity:1;" d="M 16.5 4.125 C 14.238281 4.125 12.375 5.988281 12.375 8.25 L 12.375 13.75 C 12.375 14.535156 11.785156 15.125 11 15.125 L 2.75 15.125 L 2.75 17.875 L 11 17.875 C 13.261719 17.875 15.125 16.011719 15.125 13.75 L 15.125 8.25 C 15.125 7.464844 15.714844 6.875 16.5 6.875 L 20.625 6.875 L 20.625 4.125 Z M 16.5 4.125 "/>
<path style=" stroke:none;fill-rule:nonzero;fill:rgb(100%,100%,100%);fill-opacity:1;" d="M 5.335938 12.375 C 5.027344 12.410156 4.738281 12.542969 4.519531 12.761719 L 1.769531 15.511719 L 0.824219 16.5 L 1.769531 17.488281 L 4.519531 20.238281 C 4.871094 20.597656 5.386719 20.738281 5.875 20.609375 C 6.359375 20.480469 6.738281 20.101562 6.867188 19.617188 C 6.996094 19.132812 6.851562 18.613281 6.496094 18.261719 L 4.722656 16.503906 L 6.484375 14.742188 C 6.925781 14.328125 7.046875 13.671875 6.78125 13.128906 C 6.515625 12.585938 5.925781 12.277344 5.328125 12.375 Z M 5.335938 12.375 "/>
<path style=" stroke:none;fill-rule:nonzero;fill:rgb(100%,100%,100%);fill-opacity:1;" d="M 5.335938 1.375 C 5.027344 1.410156 4.738281 1.542969 4.519531 1.761719 L 1.769531 4.511719 L 0.824219 5.5 L 1.769531 6.488281 L 4.519531 9.238281 C 4.871094 9.597656 5.386719 9.738281 5.875 9.609375 C 6.359375 9.480469 6.738281 9.101562 6.867188 8.617188 C 6.996094 8.132812 6.851562 7.613281 6.496094 7.261719 L 4.722656 5.503906 L 6.484375 3.742188 C 6.925781 3.328125 7.046875 2.671875 6.78125 2.128906 C 6.515625 1.585938 5.925781 1.277344 5.328125 1.375 Z M 5.335938 1.375 "/>
<path style=" stroke:none;fill-rule:nonzero;fill:rgb(100%,100%,100%);fill-opacity:1;" d="M 11 4.125 C 11.316406 4.125 11.605469 4.183594 11.902344 4.253906 C 11.242188 5.011719 10.71875 5.875 10.484375 6.875 L 2.75 6.875 L 2.75 4.125 Z M 20.625 15.125 L 20.625 17.875 L 16.5 17.875 C 16.183594 17.875 15.894531 17.816406 15.597656 17.746094 C 16.257812 16.988281 16.78125 16.125 17.015625 15.125 Z M 20.625 15.125 "/>
<path style=" stroke:none;fill-rule:nonzero;fill:rgb(100%,100%,100%);fill-opacity:1;" d="M 6.875 12.375 L 5.5 12.375 L 5.5 13.75 L 6.875 13.75 Z M 6.875 12.375 "/>
<path style=" stroke:none;fill-rule:nonzero;fill:rgb(100%,100%,100%);fill-opacity:1;" d="M 6.875 19.25 L 5.5 19.25 L 5.5 20.625 L 6.875 20.625 Z M 6.875 19.25 "/>
<path style=" stroke:none;fill-rule:nonzero;fill:rgb(100%,100%,100%);fill-opacity:1;" d="M 6.875 1.375 L 5.5 1.375 L 5.5 2.75 L 6.875 2.75 Z M 6.875 1.375 "/>
<path style=" stroke:none;fill-rule:nonzero;fill:rgb(100%,100%,100%);fill-opacity:1;" d="M 6.875 8.25 L 5.5 8.25 L 5.5 9.625 L 6.875 9.625 Z M 6.875 8.25 "/>
</g>
</svg>
