<?xml version="1.0" encoding="UTF-8"?>
<svg xmlns="http://www.w3.org/2000/svg" xmlns:xlink="http://www.w3.org/1999/xlink" width="22" height="22" viewBox="0 0 22 22" version="1.1">
<g id="surface1">
<path style=" stroke:none;fill-rule:nonzero;fill:rgb(100%,100%,100%);fill-opacity:1;" d="M 2.835938 0 C 1.253906 0 0 1.253906 0 2.835938 L 0 19.164062 C 0 20.746094 1.253906 22 2.835938 22 L 19.164062 22 C 20.746094 22 22 20.746094 22 19.164062 L 22 2.835938 C 22 1.253906 20.746094 0 19.164062 0 Z M 8.421875 4.167969 L 13.707031 4.167969 C 13.710938 4.167969 13.703125 4.210938 13.707031 4.210938 C 14.429688 4.183594 15.179688 4.316406 15.769531 4.855469 C 16.339844 5.378906 16.585938 6.242188 16.542969 7.046875 L 16.585938 7.046875 L 16.585938 8.25 L 13.835938 8.25 L 13.835938 6.917969 C 13.8125 6.914062 13.839844 6.914062 13.792969 6.917969 L 8.421875 6.917969 C 8.382812 6.917969 8.390625 6.921875 8.378906 6.917969 C 8.371094 6.921875 8.339844 6.914062 8.335938 6.917969 C 8.324219 6.949219 8.34375 6.980469 8.335938 7.003906 L 8.335938 15.039062 C 8.300781 15.007812 8.332031 15.121094 8.335938 15.125 L 13.707031 15.125 C 13.714844 15.097656 13.746094 15.101562 13.75 15.125 C 13.75 15.136719 13.75 15.046875 13.75 15.082031 L 13.75 12.417969 L 11 12.417969 L 11 9.667969 L 16.5 9.667969 L 16.5 15.082031 C 16.5 15.855469 16.1875 16.457031 15.726562 16.972656 C 15.292969 17.457031 14.554688 17.839844 13.707031 17.832031 L 13.707031 17.875 L 8.335938 17.875 C 7.476562 17.875 6.96875 17.542969 6.488281 17.101562 C 6.03125 16.683594 5.601562 16.015625 5.628906 15.125 C 5.628906 15.121094 5.585938 15.128906 5.585938 15.125 L 5.585938 6.789062 C 5.671875 6.1875 5.867188 5.566406 6.359375 5.027344 C 6.847656 4.488281 7.660156 4.167969 8.421875 4.167969 Z M 8.421875 4.167969 "/>
</g>
</svg>
