<?xml version="1.0" encoding="UTF-8"?>
<svg xmlns="http://www.w3.org/2000/svg" xmlns:xlink="http://www.w3.org/1999/xlink" width="22" height="22" viewBox="0 0 22 22" version="1.1">
<defs>
<filter id="alpha" filterUnits="objectBoundingBox" x="0%" y="0%" width="100%" height="100%">
  <feColorMatrix type="matrix" in="SourceGraphic" values="0 0 0 0 1 0 0 0 0 1 0 0 0 0 1 0 0 0 1 0"/>
</filter>
<image id="image13" width="22" height="22" xlink:href="data:image/png;base64,iVBORw0KGgoAAAANSUhEUgAAABYAAAAWCAYAAADEtGw7AAAABmJLR0QA/wD/AP+gvaeTAAAAOElEQVQ4jWNgGAWjYBSMAsKA8f8PCRUUAY4Xd6hhMAsD4zJTVCEnqhjMRA1DRg0eZgbTLB3TDAAAqU4KDZ56vjAAAAAASUVORK5CYII="/>
<mask id="mask0">
  <g filter="url(#alpha)">
<use xlink:href="#image13"/>
  </g>
</mask>
<clipPath id="clip1">
  <rect x="0" y="0" width="22" height="22"/>
</clipPath>
<g id="surface12" clip-path="url(#clip1)">
<path style=" stroke:none;fill-rule:evenodd;fill:rgb(74.509804%,74.509804%,74.509804%);fill-opacity:1;" d="M 0 12.375 L 0 20.625 L 4.125 20.625 L 4.125 12.375 Z M 0 12.375 "/>
</g>
<image id="image22" width="22" height="22" xlink:href="data:image/png;base64,iVBORw0KGgoAAAANSUhEUgAAABYAAAAWCAYAAADEtGw7AAAABmJLR0QA/wD/AP+gvaeTAAAASklEQVQ4jWNkoBD8/6whysA2zQUhEHWakePFHSZKDcYFRg0eNXjU4FGDRw0eNZg8wEipAf/vP+ZgkDSVgQt8e/2aUejvR0rNxQkAQn8PKfrdhSgAAAAASUVORK5CYII="/>
<mask id="mask1">
  <g filter="url(#alpha)">
<use xlink:href="#image22"/>
  </g>
</mask>
<clipPath id="clip2">
  <rect x="0" y="0" width="22" height="22"/>
</clipPath>
<g id="surface21" clip-path="url(#clip2)">
<path style=" stroke:none;fill-rule:evenodd;fill:rgb(74.509804%,74.509804%,74.509804%);fill-opacity:1;" d="M 16.5 0 L 16.5 20.625 L 20.625 20.625 L 20.625 0 Z M 16.5 0 "/>
</g>
<image id="image31" width="22" height="22" xlink:href="data:image/png;base64,iVBORw0KGgoAAAANSUhEUgAAABYAAAAWCAYAAADEtGw7AAAABmJLR0QA/wD/AP+gvaeTAAAAUElEQVQ4jWNgGAW0BozYBP9/1BNi4Fa1JqiZZe1mXHIsWEWZfjEz/M3mIeyutThlmAhrJg+MGjxq8KjBowYPqMHYi803uz8zSJqeppWlFAEARJkK+XFH4B0AAAAASUVORK5CYII="/>
<mask id="mask2">
  <g filter="url(#alpha)">
<use xlink:href="#image31"/>
  </g>
</mask>
<clipPath id="clip3">
  <rect x="0" y="0" width="22" height="22"/>
</clipPath>
<g id="surface30" clip-path="url(#clip3)">
<path style=" stroke:none;fill-rule:evenodd;fill:rgb(74.509804%,74.509804%,74.509804%);fill-opacity:1;" d="M 11 4.125 L 11 5.542969 C 12.621094 5.542969 14.109375 6.273438 15.125 7.433594 L 15.125 4.125 Z M 5.5 8.25 L 5.5 20.625 L 8.808594 20.625 C 8.550781 20.214844 8.378906 19.71875 8.378906 19.207031 C 8.378906 18.3125 8.894531 17.628906 9.582031 17.144531 C 8.894531 16.667969 8.367188 16.011719 8.378906 15.082031 C 8.378906 14.007812 8.851562 13.140625 9.324219 12.546875 C 9.429688 12.414062 9.515625 12.363281 9.625 12.246094 L 6.917969 12.246094 C 6.238281 12.246094 5.675781 11.722656 5.628906 11.042969 C 5.570312 10.023438 5.8125 9.066406 6.273438 8.25 Z M 15.125 14.4375 C 14.734375 14.859375 14.28125 15.238281 13.75 15.640625 C 13.625 15.734375 13.515625 15.839844 13.449219 15.898438 C 13.449219 15.902344 13.410156 15.894531 13.40625 15.898438 C 13.394531 15.914062 13.363281 15.9375 13.363281 15.941406 C 13.347656 15.957031 13.355469 15.992188 13.320312 16.027344 C 13.128906 16.496094 12.914062 16.859375 12.503906 17.144531 C 13.191406 17.628906 13.707031 18.3125 13.707031 19.207031 C 13.707031 19.71875 13.535156 20.214844 13.277344 20.625 L 15.125 20.625 Z M 15.125 14.4375 "/>
</g>
</defs>
<g id="surface4">
<use xlink:href="#surface12" mask="url(#mask0)"/>
<use xlink:href="#surface21" mask="url(#mask1)"/>
<path style=" stroke:none;fill-rule:nonzero;fill:rgb(100%,100%,100%);fill-opacity:1;" d="M 10.792969 6.835938 C 13.050781 6.707031 15.050781 8.441406 15.175781 10.703125 C 15.175781 12.628906 14.65625 13.34375 12.984375 14.613281 C 12.722656 14.808594 12.539062 14.957031 12.46875 15.042969 C 12.402344 15.125 12.425781 15.085938 12.425781 15.085938 C 12.4375 15.808594 11.777344 16.460938 11.050781 16.460938 C 10.324219 16.460938 9.667969 15.808594 9.675781 15.085938 C 9.675781 14.394531 9.984375 13.785156 10.320312 13.367188 C 10.65625 12.945312 10.996094 12.65625 11.308594 12.421875 C 11.589844 12.199219 11.941406 11.890625 12.253906 11.519531 C 12.382812 11.363281 12.433594 11.09375 12.425781 10.917969 L 12.425781 10.875 C 12.382812 10.097656 11.738281 9.539062 10.964844 9.585938 C 10.191406 9.628906 9.632812 10.183594 9.675781 10.960938 L 6.925781 10.960938 C 6.800781 8.699219 8.535156 6.960938 10.792969 6.835938 Z M 11.050781 17.835938 C 11.8125 17.835938 12.425781 18.449219 12.425781 19.210938 C 12.425781 19.96875 11.8125 20.585938 11.050781 20.585938 C 10.292969 20.585938 9.675781 19.96875 9.675781 19.210938 C 9.675781 18.449219 10.292969 17.835938 11.050781 17.835938 Z M 11.050781 17.835938 "/>
<use xlink:href="#surface30" mask="url(#mask2)"/>
</g>
</svg>
