<?xml version="1.0" encoding="UTF-8"?>
<svg xmlns="http://www.w3.org/2000/svg" xmlns:xlink="http://www.w3.org/1999/xlink" width="22" height="22" viewBox="0 0 22 22" version="1.1">
<g id="surface1">
<path style=" stroke:none;fill-rule:nonzero;fill:rgb(96.078431%,47.45098%,0%);fill-opacity:1;" d="M 4.125 1.375 C 1.375 1.375 1.375 4.125 1.375 4.125 L 1.375 17.875 C 1.375 20.625 4.125 20.625 4.125 20.625 L 17.875 20.496094 C 20.625 20.46875 20.625 17.875 20.625 17.875 L 20.625 4.125 C 20.625 1.375 17.875 1.375 17.875 1.375 Z M 11 4.167969 C 13.496094 4.167969 15.988281 5.019531 17.875 6.746094 L 17.875 8.25 L 15.382812 8.25 C 12.847656 6.3125 9.152344 6.3125 6.617188 8.25 L 4.125 8.25 L 4.125 6.746094 C 6.011719 5.019531 8.503906 4.167969 11 4.167969 Z M 11 8.378906 C 12.433594 8.378906 13.859375 8.84375 14.953125 9.753906 C 15.011719 9.78125 15.070312 9.808594 15.125 9.839844 L 15.125 11 L 6.875 11 L 6.875 9.882812 C 6.929688 9.835938 6.984375 9.792969 7.046875 9.753906 C 8.140625 8.84375 9.566406 8.378906 11 8.378906 Z M 11 12.375 C 12.519531 12.375 13.75 13.605469 13.75 15.125 C 13.75 16.644531 12.519531 17.875 11 17.875 C 9.480469 17.875 8.25 16.644531 8.25 15.125 C 8.25 13.605469 9.480469 12.375 11 12.375 Z M 11 12.375 "/>
</g>
</svg>
