<?xml version="1.0" encoding="UTF-8"?>
<svg xmlns="http://www.w3.org/2000/svg" xmlns:xlink="http://www.w3.org/1999/xlink" width="22" height="22" viewBox="0 0 22 22" version="1.1">
<defs>
<filter id="alpha" filterUnits="objectBoundingBox" x="0%" y="0%" width="100%" height="100%">
  <feColorMatrix type="matrix" in="SourceGraphic" values="0 0 0 0 1 0 0 0 0 1 0 0 0 0 1 0 0 0 1 0"/>
</filter>
<image id="image11" width="22" height="22" xlink:href="data:image/png;base64,iVBORw0KGgoAAAANSUhEUgAAABYAAAAWCAYAAADEtGw7AAAABmJLR0QA/wD/AP+gvaeTAAAAYklEQVQ4jWNgoBFgZGBgYPj/WUOUgf2QPFVM/Gn3kJH3xmuIwb9emTAwivpQxeD/r7cwsomdYaKKYVjAqMGjBo8aPGrwqMGDw2AWBgYGBoafdg8Z2A9toYqJP+0eUsUcXAAA6T8T1lubZTMAAAAASUVORK5CYII="/>
<mask id="mask0">
  <g filter="url(#alpha)">
<use xlink:href="#image11"/>
  </g>
</mask>
<clipPath id="clip1">
  <rect x="0" y="0" width="22" height="22"/>
</clipPath>
<g id="surface10" clip-path="url(#clip1)">
<path style=" stroke:none;fill-rule:nonzero;fill:rgb(74.509804%,74.509804%,74.509804%);fill-opacity:1;" d="M 4.8125 1.375 C 2.910156 1.375 1.375 2.910156 1.375 4.8125 L 1.375 5.5 L 20.625 5.5 L 20.625 4.8125 C 20.625 2.910156 19.089844 1.375 17.1875 1.375 Z M 1.460938 12.375 C 1.78125 13.945312 3.144531 15.125 4.8125 15.125 L 13.578125 15.125 L 17.875 20.625 L 17.875 15.039062 C 19.214844 14.761719 20.265625 13.71875 20.539062 12.375 Z M 1.460938 12.375 "/>
</g>
</defs>
<g id="surface2">
<use xlink:href="#surface10" mask="url(#mask0)"/>
<path style=" stroke:none;fill-rule:nonzero;fill:rgb(100%,100%,100%);fill-opacity:1;" d="M 6.875 8.9375 C 6.875 10.078125 5.953125 11 4.8125 11 C 3.671875 11 2.75 10.078125 2.75 8.9375 C 2.75 7.796875 3.671875 6.875 4.8125 6.875 C 5.953125 6.875 6.875 7.796875 6.875 8.9375 Z M 6.875 8.9375 "/>
<path style=" stroke:none;fill-rule:nonzero;fill:rgb(100%,100%,100%);fill-opacity:1;" d="M 12.375 8.9375 C 12.375 10.078125 11.453125 11 10.3125 11 C 9.171875 11 8.25 10.078125 8.25 8.9375 C 8.25 7.796875 9.171875 6.875 10.3125 6.875 C 11.453125 6.875 12.375 7.796875 12.375 8.9375 Z M 12.375 8.9375 "/>
<path style=" stroke:none;fill-rule:nonzero;fill:rgb(100%,100%,100%);fill-opacity:1;" d="M 17.875 8.9375 C 17.875 10.078125 16.953125 11 15.8125 11 C 14.671875 11 13.75 10.078125 13.75 8.9375 C 13.75 7.796875 14.671875 6.875 15.8125 6.875 C 16.953125 6.875 17.875 7.796875 17.875 8.9375 Z M 17.875 8.9375 "/>
<path style=" stroke:none;fill-rule:nonzero;fill:rgb(100%,100%,100%);fill-opacity:1;" d="M 1.441406 4.695312 C 1.476562 4.027344 1.535156 3.769531 1.75 3.324219 C 2.082031 2.644531 2.664062 2.070312 3.363281 1.726562 L 3.898438 1.464844 L 18.070312 1.464844 L 18.691406 1.769531 C 19.878906 2.355469 20.492188 3.332031 20.550781 4.734375 L 20.582031 5.472656 L 1.402344 5.519531 Z M 1.441406 4.695312 "/>
<path style=" stroke:none;fill-rule:nonzero;fill:rgb(100%,100%,100%);fill-opacity:1;" d="M 15.691406 17.804688 L 13.59375 15.121094 L 9.074219 15.117188 C 4.195312 15.117188 3.875 15.089844 3.082031 14.628906 C 2.855469 14.492188 2.511719 14.210938 2.316406 13.996094 C 1.984375 13.625 1.523438 12.78125 1.519531 12.535156 C 1.519531 12.441406 3.480469 12.417969 11.023438 12.417969 L 20.527344 12.417969 L 20.390625 12.804688 C 20.070312 13.71875 19.277344 14.523438 18.386719 14.851562 L 17.835938 15.050781 L 17.785156 20.488281 Z M 15.691406 17.804688 "/>
</g>
</svg>
