<?xml version="1.0" encoding="UTF-8"?>
<svg xmlns="http://www.w3.org/2000/svg" xmlns:xlink="http://www.w3.org/1999/xlink" width="22" height="22" viewBox="0 0 22 22" version="1.1">
<g id="surface1">
<path style=" stroke:none;fill-rule:nonzero;fill:rgb(74.509804%,74.509804%,74.509804%);fill-opacity:1;" d="M 13.023438 0 C 11.269531 0 9.847656 1.339844 9.65625 3.050781 C 9.203125 2.886719 8.746094 2.75 8.238281 2.75 C 5.980469 2.75 4.148438 4.59375 4.148438 6.875 C 4.148438 7.007812 4.179688 7.128906 4.191406 7.261719 C 3.777344 7.011719 3.296875 6.875 2.789062 6.875 C 1.28125 6.875 0.0625 8.105469 0.0625 9.625 C 0.0625 11.144531 1.28125 12.375 2.789062 12.375 L 19.832031 12.375 C 20.960938 12.375 21.878906 11.453125 21.878906 10.3125 C 21.878906 9.171875 20.960938 8.25 19.832031 8.25 C 19.550781 8.25 19.265625 8.316406 19.023438 8.421875 C 19.09375 8.144531 19.152344 7.863281 19.152344 7.5625 C 19.152344 5.871094 17.933594 4.5 16.339844 4.210938 C 16.394531 3.960938 16.421875 3.703125 16.421875 3.4375 C 16.421875 1.539062 14.898438 0 13.015625 0 Z M 13.023438 0 "/>
<path style=" stroke:none;fill-rule:nonzero;fill:rgb(0%,100%,100%);fill-opacity:1;" d="M 3.3125 13.75 C 3.023438 13.796875 2.796875 14.023438 2.75 14.3125 L 1.375 21.058594 C 1.296875 21.308594 1.371094 21.582031 1.5625 21.757812 C 1.753906 21.9375 2.027344 21.992188 2.273438 21.898438 C 2.515625 21.800781 2.683594 21.578125 2.707031 21.316406 L 4.082031 14.570312 C 4.132812 14.351562 4.070312 14.121094 3.914062 13.957031 C 3.761719 13.789062 3.535156 13.710938 3.3125 13.746094 Z M 3.3125 13.75 "/>
<path style=" stroke:none;fill-rule:nonzero;fill:rgb(0%,100%,100%);fill-opacity:1;" d="M 6.0625 13.75 C 5.773438 13.796875 5.546875 14.023438 5.5 14.3125 L 4.125 21.058594 C 4.046875 21.308594 4.121094 21.582031 4.3125 21.757812 C 4.503906 21.9375 4.777344 21.992188 5.023438 21.898438 C 5.265625 21.800781 5.433594 21.578125 5.457031 21.316406 L 6.871094 14.550781 C 6.921875 14.324219 6.851562 14.089844 6.6875 13.925781 C 6.523438 13.761719 6.289062 13.691406 6.0625 13.742188 Z M 6.0625 13.75 "/>
<path style=" stroke:none;fill-rule:nonzero;fill:rgb(0%,100%,100%);fill-opacity:1;" d="M 8.8125 13.75 C 8.523438 13.796875 8.296875 14.023438 8.25 14.3125 L 6.875 21.058594 C 6.804688 21.4375 7.054688 21.804688 7.433594 21.875 C 7.8125 21.949219 8.179688 21.695312 8.25 21.316406 L 9.625 14.570312 C 9.679688 14.34375 9.613281 14.101562 9.449219 13.933594 C 9.285156 13.765625 9.042969 13.695312 8.8125 13.746094 Z M 8.8125 13.75 "/>
<path style=" stroke:none;fill-rule:nonzero;fill:rgb(0%,100%,100%);fill-opacity:1;" d="M 11.5625 13.75 C 11.273438 13.796875 11.046875 14.023438 11 14.3125 L 9.625 21.058594 C 9.554688 21.4375 9.804688 21.804688 10.183594 21.875 C 10.5625 21.949219 10.929688 21.695312 11 21.316406 L 12.375 14.570312 C 12.429688 14.34375 12.363281 14.101562 12.199219 13.933594 C 12.035156 13.765625 11.792969 13.695312 11.5625 13.746094 Z M 11.5625 13.75 "/>
<path style=" stroke:none;fill-rule:nonzero;fill:rgb(0%,100%,100%);fill-opacity:1;" d="M 14.3125 13.75 C 14.042969 13.8125 13.839844 14.035156 13.796875 14.308594 L 12.367188 21.046875 C 12.296875 21.425781 12.546875 21.792969 12.925781 21.863281 C 13.304688 21.933594 13.671875 21.683594 13.742188 21.304688 L 15.117188 14.558594 C 15.167969 14.332031 15.097656 14.09375 14.933594 13.929688 C 14.769531 13.765625 14.535156 13.699219 14.304688 13.746094 Z M 14.3125 13.75 "/>
<path style=" stroke:none;fill-rule:nonzero;fill:rgb(0%,100%,100%);fill-opacity:1;" d="M 17.0625 13.75 C 16.792969 13.8125 16.589844 14.035156 16.546875 14.308594 L 15.171875 21.054688 C 15.074219 21.308594 15.140625 21.597656 15.335938 21.789062 C 15.53125 21.976562 15.824219 22.03125 16.074219 21.925781 C 16.328125 21.820312 16.492188 21.574219 16.492188 21.300781 L 17.867188 14.554688 C 17.917969 14.328125 17.847656 14.09375 17.683594 13.929688 C 17.519531 13.765625 17.285156 13.695312 17.054688 13.746094 Z M 17.0625 13.75 "/>
</g>
</svg>
