<?xml version="1.0" encoding="UTF-8"?>
<svg xmlns="http://www.w3.org/2000/svg" xmlns:xlink="http://www.w3.org/1999/xlink" width="22" height="22" viewBox="0 0 22 22" version="1.1">
<g id="surface1">
<path style=" stroke:none;fill-rule:nonzero;fill:rgb(50.196078%,50.196078%,50.196078%);fill-opacity:1;" d="M 13.074219 0.0546875 C 11.324219 0.0546875 9.90625 1.394531 9.710938 3.105469 C 9.265625 2.9375 8.808594 2.804688 8.304688 2.804688 C 6.046875 2.804688 4.214844 4.652344 4.214844 6.929688 C 4.214844 7.066406 4.242188 7.1875 4.257812 7.316406 C 3.847656 7.070312 3.359375 6.929688 2.851562 6.929688 C 1.34375 6.929688 0.125 8.160156 0.125 9.679688 C 0.125 11.199219 1.246094 12.371094 2.75 12.371094 L 9.625 12.371094 L 9.625 10.308594 C 9.601562 9.226562 10.640625 8.285156 11.714844 8.261719 C 12.8125 8.238281 13.773438 9.199219 13.75 10.308594 L 13.75 12.371094 L 19.9375 12.371094 C 21.066406 12.371094 21.9375 11.507812 21.9375 10.367188 C 21.9375 9.230469 21.023438 8.304688 19.894531 8.304688 C 19.609375 8.304688 19.328125 8.375 19.085938 8.476562 C 19.15625 8.199219 19.210938 7.917969 19.210938 7.617188 C 19.210938 5.925781 17.992188 4.554688 16.398438 4.265625 C 16.457031 4.015625 16.484375 3.757812 16.484375 3.492188 C 16.484375 1.59375 14.957031 0.0546875 13.078125 0.0546875 Z M 13.074219 0.0546875 "/>
<path style=" stroke:none;fill-rule:nonzero;fill:rgb(74.509804%,74.509804%,74.509804%);fill-opacity:1;" d="M 11.5625 9.625 C 11.234375 9.683594 10.992188 9.976562 11 10.3125 L 11 13.75 L 6.875 13.75 L 6.875 15.125 L 4.511719 15.125 L 4.339844 15.339844 L 0.902344 18.777344 C 0.660156 18.925781 0.539062 19.207031 0.589844 19.488281 C 0.640625 19.765625 0.859375 19.984375 1.136719 20.035156 C 1.417969 20.085938 1.699219 19.964844 1.847656 19.722656 L 5.066406 16.492188 L 6.867188 16.492188 L 6.867188 20.617188 C 6.867188 20.996094 7.175781 21.304688 7.554688 21.304688 C 7.933594 21.304688 8.242188 20.996094 8.242188 20.617188 L 8.242188 15.976562 C 8.261719 15.875 8.261719 15.773438 8.242188 15.675781 L 8.242188 15.125 L 10.992188 15.125 L 10.992188 16.113281 L 11.207031 16.285156 L 13.738281 18.828125 L 13.738281 20.628906 C 13.738281 21.007812 14.042969 21.316406 14.425781 21.316406 C 14.804688 21.316406 15.113281 21.007812 15.113281 20.628906 L 15.113281 19.253906 L 16.960938 19.253906 L 20.269531 21.230469 C 20.597656 21.421875 21.023438 21.304688 21.214844 20.972656 C 21.402344 20.640625 21.285156 20.21875 20.957031 20.027344 L 17.519531 17.964844 L 17.347656 17.878906 L 14.683594 17.878906 L 12.363281 15.558594 L 12.363281 14.613281 C 12.382812 14.515625 12.382812 14.414062 12.363281 14.3125 L 12.363281 10.324219 C 12.363281 10.117188 12.277344 9.921875 12.117188 9.789062 C 11.957031 9.65625 11.75 9.597656 11.546875 9.636719 Z M 11.5625 9.625 "/>
<path style=" stroke:none;fill-rule:nonzero;fill:rgb(100%,100%,0%);fill-opacity:1;" d="M 14.277344 21.289062 C 14.140625 21.257812 13.984375 21.164062 13.90625 21.066406 C 13.753906 20.878906 13.746094 20.832031 13.746094 19.773438 L 13.746094 18.8125 L 12.371094 17.445312 L 11 16.074219 L 11 15.125 L 8.230469 15.125 L 8.230469 17.941406 L 8.226562 20.757812 L 8.167969 20.886719 C 8.042969 21.152344 7.851562 21.277344 7.554688 21.277344 C 7.265625 21.277344 7.066406 21.15625 6.945312 20.910156 C 6.898438 20.8125 6.894531 20.71875 6.882812 18.648438 L 6.867188 16.484375 L 5.078125 16.46875 L 3.335938 18.21875 C 2.015625 19.539062 1.566406 19.972656 1.496094 20 C 1.445312 20.015625 1.332031 20.03125 1.246094 20.03125 C 1.058594 20.03125 0.859375 19.933594 0.738281 19.789062 C 0.585938 19.601562 0.546875 19.277344 0.65625 19.070312 C 0.683594 19.023438 1.570312 18.113281 2.632812 17.054688 L 4.5625 15.125 L 6.882812 15.125 L 6.882812 13.75 L 11 13.75 L 11.007812 11.945312 C 11.015625 9.945312 11.003906 10.058594 11.183594 9.851562 C 11.289062 9.730469 11.492188 9.632812 11.636719 9.632812 C 11.917969 9.632812 12.1875 9.800781 12.292969 10.042969 C 12.347656 10.171875 12.347656 10.1875 12.347656 12.859375 L 12.347656 15.550781 L 14.691406 17.894531 L 16.019531 17.894531 C 17.324219 17.894531 17.351562 17.898438 17.457031 17.949219 C 17.714844 18.078125 20.996094 20.058594 21.074219 20.132812 C 21.257812 20.304688 21.332031 20.597656 21.253906 20.855469 C 21.214844 20.984375 21.050781 21.171875 20.914062 21.242188 C 20.777344 21.3125 20.550781 21.332031 20.417969 21.285156 C 20.359375 21.265625 19.558594 20.796875 18.632812 20.246094 L 16.953125 19.242188 L 15.09375 19.242188 L 15.09375 20.011719 C 15.09375 20.769531 15.089844 20.785156 15.03125 20.914062 C 14.898438 21.199219 14.570312 21.363281 14.277344 21.289062 Z M 14.277344 21.289062 "/>
</g>
</svg>
