<?xml version="1.0" encoding="UTF-8"?>
<svg xmlns="http://www.w3.org/2000/svg" xmlns:xlink="http://www.w3.org/1999/xlink" width="28" height="28" viewBox="0 0 28 28" version="1.1">
<g id="surface1">
<path style=" stroke:none;fill-rule:nonzero;fill:rgb(100%,100%,100%);fill-opacity:1;" d="M 9.574219 0 C 8.710938 0 8.179688 0.398438 7.769531 0.820312 C 7.347656 1.242188 7 1.800781 7 2.621094 L 7 3.496094 L 3.5 3.496094 L 3.5 27.996094 L 24.5 27.996094 L 24.5 3.496094 L 21 3.496094 L 21 2.734375 C 20.957031 1.980469 20.699219 1.472656 20.289062 0.984375 C 19.894531 0.519531 19.195312 0.0546875 18.265625 0.0546875 L 18.265625 0 L 9.570312 0 Z M 10.503906 3.5 L 17.503906 3.5 L 17.503906 7 L 21.003906 7 L 21.003906 24.5 L 7.003906 24.5 L 7.003906 7 L 10.503906 7 Z M 10.503906 3.5 "/>
</g>
</svg>
