<?xml version="1.0" encoding="UTF-8"?>
<svg xmlns="http://www.w3.org/2000/svg" xmlns:xlink="http://www.w3.org/1999/xlink" width="28" height="28" viewBox="0 0 28 28" version="1.1">
<g id="surface1">
<path style=" stroke:none;fill-rule:nonzero;fill:rgb(100%,100%,100%);fill-opacity:1;" d="M 14 21.121094 C 13.222656 21.121094 12.53125 21.445312 12.023438 21.953125 C 11.921875 22.058594 11.921875 22.226562 12.023438 22.335938 L 13.808594 24.121094 C 13.914062 24.222656 14.085938 24.222656 14.191406 24.121094 L 15.976562 22.335938 C 16.078125 22.226562 16.078125 22.058594 15.976562 21.953125 C 15.46875 21.445312 14.777344 21.121094 14 21.121094 Z M 14 21.121094 "/>
</g>
</svg>
