<?xml version="1.0" encoding="UTF-8"?>
<svg xmlns="http://www.w3.org/2000/svg" xmlns:xlink="http://www.w3.org/1999/xlink" width="28" height="28" viewBox="0 0 28 28" version="1.1">
<g id="surface1">
<path style=" stroke:none;fill-rule:nonzero;fill:rgb(100%,100%,100%);fill-opacity:1;" d="M 10.113281 15.75 C 9.460938 15.867188 8.933594 16.34375 8.746094 16.984375 C 8.5625 17.621094 8.753906 18.308594 9.238281 18.757812 L 11.480469 21 L 9.238281 23.238281 C 8.78125 23.6875 8.601562 24.347656 8.765625 24.964844 C 8.929688 25.582031 9.414062 26.0625 10.03125 26.226562 C 10.648438 26.390625 11.304688 26.210938 11.753906 25.753906 L 15.253906 22.253906 L 16.457031 20.996094 L 15.253906 19.738281 L 11.753906 16.238281 C 11.328125 15.800781 10.703125 15.613281 10.109375 15.75 Z M 10.113281 15.75 "/>
<path style=" stroke:none;fill-rule:nonzero;fill:rgb(100%,100%,100%);fill-opacity:1;" d="M 26.25 15.765625 L 26.25 17.507812 C 26.25 20.386719 23.878906 22.757812 21 22.757812 L 19.25 22.757812 L 19.25 19.257812 L 21 19.257812 C 22 19.257812 22.75 18.507812 22.75 17.507812 L 22.75 15.785156 Z M 12.234375 8.75 L 6.996094 8.75 C 5.996094 8.75 5.246094 9.5 5.246094 10.5 L 5.246094 17.5 C 5.246094 18.5 5.996094 19.25 6.996094 19.25 L 13.996094 19.25 L 13.996094 22.75 L 6.996094 22.75 C 4.117188 22.75 1.746094 20.378906 1.746094 17.5 L 1.746094 10.5 C 1.746094 7.621094 4.117188 5.25 6.996094 5.25 L 12.214844 5.25 Z M 12.234375 8.75 "/>
<path style=" stroke:none;fill-rule:nonzero;fill:rgb(100%,100%,100%);fill-opacity:1;" d="M 10.5 15.75 L 8.75 15.75 L 8.75 17.5 L 10.5 17.5 Z M 10.5 15.75 "/>
<path style=" stroke:none;fill-rule:nonzero;fill:rgb(100%,100%,100%);fill-opacity:1;" d="M 10.5 24.5 L 8.75 24.5 L 8.75 26.25 L 10.5 26.25 Z M 10.5 24.5 "/>
<path style=" stroke:none;fill-rule:nonzero;fill:rgb(100%,100%,100%);fill-opacity:1;" d="M 21 0 C 17.132812 0 14 3.132812 14 7 C 14 10.867188 17.132812 14 21 14 C 24.867188 14 28 10.867188 28 7 C 28 3.132812 24.867188 0 21 0 Z M 19.25 3.5 L 22.75 3.5 L 22.75 10.5 L 19.25 10.5 L 19.242188 7.019531 L 17.5 7 L 17.5 5.25 Z M 19.25 3.5 "/>
</g>
</svg>
