<?xml version="1.0" encoding="UTF-8"?>
<svg xmlns="http://www.w3.org/2000/svg" xmlns:xlink="http://www.w3.org/1999/xlink" width="28" height="28" viewBox="0 0 28 28" version="1.1">
<defs>
<filter id="alpha" filterUnits="objectBoundingBox" x="0%" y="0%" width="100%" height="100%">
  <feColorMatrix type="matrix" in="SourceGraphic" values="0 0 0 0 1 0 0 0 0 1 0 0 0 0 1 0 0 0 1 0"/>
</filter>
<image id="image11" width="28" height="28" xlink:href="data:image/png;base64,iVBORw0KGgoAAAANSUhEUgAAABwAAAAcCAYAAAByDd+UAAAABmJLR0QA/wD/AP+gvaeTAAAAY0lEQVRIiWNgoDNgpKZh/1cxMzNoNzBjtUi79hcDAwMDCzUtZAiqc2P4X2OO1TFXGdoYtWt/MVHVQiLAqIVD30LqptK/ux4wYM0UDAwMV5v+UtWuUTAKRsEoGAWjYBSMAgQAAPfTD8cAcMDqAAAAAElFTkSuQmCC"/>
<mask id="mask0">
  <g filter="url(#alpha)">
<use xlink:href="#image11"/>
  </g>
</mask>
<clipPath id="clip1">
  <rect x="0" y="0" width="28" height="28"/>
</clipPath>
<g id="surface10" clip-path="url(#clip1)">
<path style=" stroke:none;fill-rule:nonzero;fill:rgb(74.509804%,74.509804%,74.509804%);fill-opacity:1;" d="M 22.75 1.75 C 20.816406 1.75 19.25 3.316406 19.25 5.25 C 19.25 7.183594 20.816406 8.75 22.75 8.75 C 24.683594 8.75 26.25 7.183594 26.25 5.25 C 26.25 3.316406 24.683594 1.75 22.75 1.75 Z M 22.75 3.5 C 23.714844 3.5 24.5 4.285156 24.5 5.25 C 24.5 6.214844 23.714844 7 22.75 7 C 21.785156 7 21 6.214844 21 5.25 C 21 4.285156 21.785156 3.5 22.75 3.5 Z M 22.75 3.5 "/>
</g>
<clipPath id="clip2">
  <path d="M 1.75 9.648438 L 17.554688 9.648438 L 17.554688 22.804688 L 1.75 22.804688 Z M 1.75 9.648438 "/>
</clipPath>
</defs>
<g id="surface2">
<use xlink:href="#surface10" mask="url(#mask0)"/>
<path style=" stroke:none;fill-rule:nonzero;fill:rgb(100%,100%,100%);fill-opacity:1;" d="M 9.625 1.734375 C 12.042969 1.734375 14 3.691406 14 6.109375 L 14 14.878906 C 14 17.296875 12.042969 19.253906 9.625 19.253906 C 7.207031 19.253906 5.25 17.296875 5.25 14.878906 L 5.25 6.109375 C 5.25 3.691406 7.207031 1.734375 9.625 1.734375 Z M 9.625 1.734375 "/>
<g clip-path="url(#clip2)" clip-rule="nonzero">
<path style=" stroke:none;fill-rule:nonzero;fill:rgb(100%,100%,100%);fill-opacity:1;" d="M 9.644531 -3.265625 C 5.289062 -3.265625 1.761719 0.285156 1.761719 4.664062 L 1.761719 14.835938 C 1.761719 19.214844 5.289062 22.765625 9.644531 22.765625 C 13.996094 22.765625 17.523438 19.214844 17.523438 14.835938 L 17.523438 4.664062 C 17.523438 0.285156 13.996094 -3.265625 9.644531 -3.265625 Z M 9.644531 -1.515625 C 13.058594 -1.515625 15.785156 1.226562 15.785156 4.664062 L 15.785156 14.835938 C 15.785156 18.273438 13.058594 21.015625 9.644531 21.015625 C 6.226562 21.015625 3.5 18.273438 3.5 14.835938 L 3.5 4.664062 C 3.5 1.226562 6.226562 -1.515625 9.644531 -1.515625 Z M 9.644531 -1.515625 "/>
</g>
<path style=" stroke:none;fill-rule:nonzero;fill:rgb(100%,100%,100%);fill-opacity:1;" d="M 3.5 9.625 C 3.5 10.109375 3.109375 10.5 2.625 10.5 C 2.140625 10.5 1.75 10.109375 1.75 9.625 C 1.75 9.140625 2.140625 8.75 2.625 8.75 C 3.109375 8.75 3.5 9.140625 3.5 9.625 Z M 3.5 9.625 "/>
<path style=" stroke:none;fill-rule:nonzero;fill:rgb(100%,100%,100%);fill-opacity:1;" d="M 17.5 9.625 C 17.5 10.109375 17.109375 10.5 16.625 10.5 C 16.140625 10.5 15.75 10.109375 15.75 9.625 C 15.75 9.140625 16.140625 8.75 16.625 8.75 C 17.109375 8.75 17.5 9.140625 17.5 9.625 Z M 17.5 9.625 "/>
<path style=" stroke:none;fill-rule:nonzero;fill:rgb(100%,100%,100%);fill-opacity:1;" d="M 3.34375 24.5 C 2.710938 24.519531 2.140625 24.878906 1.847656 25.4375 C 1.554688 25.996094 1.582031 26.671875 1.925781 27.199219 C 2.269531 27.730469 2.871094 28.035156 3.5 28 L 15.75 28 C 16.382812 28.007812 16.96875 27.675781 17.285156 27.132812 C 17.605469 26.585938 17.605469 25.914062 17.285156 25.367188 C 16.96875 24.824219 16.382812 24.492188 15.75 24.5 L 3.5 24.5 C 3.445312 24.496094 3.390625 24.496094 3.335938 24.5 Z M 3.34375 24.5 "/>
<path style=" stroke:none;fill-rule:nonzero;fill:rgb(100%,100%,100%);fill-opacity:1;" d="M 1.75 26.25 L 17.5 26.25 L 17.5 28 L 1.75 28 Z M 1.75 26.25 "/>
<path style=" stroke:none;fill-rule:nonzero;fill:rgb(100%,100%,100%);fill-opacity:1;" d="M 7 21 L 12.25 21 L 12.25 28 L 7 28 Z M 7 21 "/>
<path style=" stroke:none;fill-rule:nonzero;fill:rgb(100%,100%,100%);fill-opacity:1;" d="M 26.234375 22.761719 C 26.234375 24.695312 24.664062 26.261719 22.734375 26.261719 C 20.800781 26.261719 19.234375 24.695312 19.234375 22.761719 C 19.234375 20.828125 20.800781 19.261719 22.734375 19.261719 C 24.664062 19.261719 26.234375 20.828125 26.234375 22.761719 Z M 26.234375 22.761719 "/>
<path style=" stroke:none;fill-rule:nonzero;fill:rgb(100%,100%,100%);fill-opacity:1;" d="M 26.234375 14.011719 C 26.234375 15.945312 24.664062 17.511719 22.734375 17.511719 C 20.800781 17.511719 19.234375 15.945312 19.234375 14.011719 C 19.234375 12.078125 20.800781 10.511719 22.734375 10.511719 C 24.664062 10.511719 26.234375 12.078125 26.234375 14.011719 Z M 26.234375 14.011719 "/>
</g>
</svg>
