<?xml version="1.0" encoding="UTF-8"?>
<svg xmlns="http://www.w3.org/2000/svg" xmlns:xlink="http://www.w3.org/1999/xlink" width="28" height="28" viewBox="0 0 28 28" version="1.1">
<defs>
<filter id="alpha" filterUnits="objectBoundingBox" x="0%" y="0%" width="100%" height="100%">
  <feColorMatrix type="matrix" in="SourceGraphic" values="0 0 0 0 1 0 0 0 0 1 0 0 0 0 1 0 0 0 1 0"/>
</filter>
<image id="image11" width="28" height="28" xlink:href="data:image/png;base64,iVBORw0KGgoAAAANSUhEUgAAABwAAAAcCAYAAAByDd+UAAAABmJLR0QA/wD/AP+gvaeTAAAAUElEQVRIiWNgoDNghDH+7z/MQlOLHG3/wC38v/8wC4PV71BaWshwjHU1o6PtHyaaWoIFjFo4auGohaMWjlo4auGohaMWjlo4FCyke0OY7gAAAQ0PMrb3NxkAAAAASUVORK5CYII="/>
<mask id="mask0">
  <g filter="url(#alpha)">
<use xlink:href="#image11"/>
  </g>
</mask>
<clipPath id="clip1">
  <rect x="0" y="0" width="28" height="28"/>
</clipPath>
<g id="surface10" clip-path="url(#clip1)">
<path style=" stroke:none;fill-rule:nonzero;fill:rgb(74.509804%,74.509804%,74.509804%);fill-opacity:1;" d="M 5.25 1.75 C 3.3125 1.75 1.75 3.3125 1.75 5.25 L 1.75 22.75 C 1.75 24.6875 3.3125 26.25 5.25 26.25 L 11.265625 26.25 C 10.921875 25.726562 10.71875 25.117188 10.71875 24.445312 C 10.71875 23.296875 11.410156 22.484375 12.304688 21.875 C 11.921875 21.628906 11.585938 21.34375 11.320312 21 L 8.75 21 L 8.75 22.75 L 7 22.75 C 6.03125 22.75 5.25 21.96875 5.25 21 L 5.25 10.5 C 5.25 9.53125 6.03125 8.75 7 8.75 L 8.75 8.75 L 8.75 7 C 8.75 6.03125 9.53125 5.25 10.5 5.25 L 17.5 5.25 C 18.46875 5.25 19.191406 6.03125 19.25 7 L 19.25 8.75 L 21 8.75 C 21.96875 8.75 22.75 9.53125 22.75 10.5 L 22.75 21 C 22.75 21.96875 21.96875 22.75 21 22.75 L 19.25 22.75 L 19.25 21 L 16.625 21 C 16.425781 21.347656 16.171875 21.640625 15.804688 21.875 C 16.699219 22.484375 17.390625 23.296875 17.390625 24.445312 C 17.390625 25.117188 17.1875 25.726562 16.84375 26.25 L 22.75 26.25 C 24.6875 26.25 26.25 24.6875 26.25 22.75 L 26.25 5.25 C 26.25 3.3125 24.6875 1.75 22.75 1.75 Z M 5.25 1.75 "/>
</g>
</defs>
<g id="surface2">
<use xlink:href="#surface10" mask="url(#mask0)"/>
<path style=" stroke:none;fill-rule:nonzero;fill:rgb(100%,100%,100%);fill-opacity:1;" d="M 13.738281 8.699219 C 16.609375 8.535156 19.15625 10.746094 19.316406 13.621094 C 19.316406 16.070312 18.65625 16.980469 16.527344 18.597656 C 16.191406 18.847656 15.957031 19.035156 15.871094 19.144531 C 15.785156 19.25 15.816406 19.203125 15.816406 19.199219 C 15.828125 20.121094 14.992188 20.949219 14.066406 20.949219 C 13.140625 20.949219 12.304688 20.121094 12.316406 19.199219 C 12.316406 18.320312 12.707031 17.546875 13.136719 17.011719 C 13.5625 16.472656 13.996094 16.105469 14.394531 15.808594 C 14.75 15.527344 15.199219 15.132812 15.597656 14.660156 C 15.761719 14.460938 15.824219 14.121094 15.816406 13.894531 L 15.816406 13.839844 C 15.761719 12.851562 14.941406 12.140625 13.957031 12.199219 C 12.96875 12.253906 12.261719 12.960938 12.316406 13.949219 L 8.816406 13.949219 C 8.65625 11.074219 10.863281 8.859375 13.738281 8.699219 Z M 14.066406 22.699219 C 15.03125 22.699219 15.816406 23.480469 15.816406 24.449219 C 15.816406 25.414062 15.03125 26.199219 14.066406 26.199219 C 13.097656 26.199219 12.316406 25.414062 12.316406 24.449219 C 12.316406 23.480469 13.097656 22.699219 14.066406 22.699219 Z M 14.066406 22.699219 "/>
<path style=" stroke:none;fill-rule:nonzero;fill:rgb(100%,100%,100%);fill-opacity:1;" d="M 4.328125 26.113281 C 3.316406 25.875 2.25 24.851562 1.945312 23.832031 C 1.675781 22.929688 1.679688 5.109375 1.949219 4.203125 C 2.214844 3.304688 2.777344 2.644531 3.65625 2.1875 L 4.40625 1.800781 L 14.089844 1.832031 L 23.777344 1.863281 L 24.351562 2.15625 C 24.992188 2.484375 25.484375 2.988281 25.882812 3.734375 L 26.148438 4.234375 L 26.148438 23.8125 L 25.894531 24.285156 C 25.539062 24.945312 24.824219 25.636719 24.191406 25.933594 C 23.695312 26.167969 23.425781 26.1875 20.289062 26.222656 C 17.070312 26.257812 16.925781 26.25 17.011719 26.046875 C 17.0625 25.925781 17.179688 25.589844 17.273438 25.292969 C 17.609375 24.25 17.203125 22.984375 16.296875 22.238281 L 15.878906 21.890625 L 16.675781 21.023438 L 19.199219 21.023438 L 19.269531 22.742188 L 20.417969 22.742188 C 21.664062 22.742188 21.933594 22.632812 22.464844 21.925781 C 22.703125 21.609375 22.710938 21.441406 22.742188 16.0625 C 22.761719 13.015625 22.746094 10.347656 22.707031 10.136719 C 22.667969 9.921875 22.480469 9.566406 22.289062 9.347656 C 21.867188 8.871094 21.238281 8.683594 20.046875 8.683594 L 19.207031 8.683594 L 19.207031 7.574219 C 19.207031 6.617188 19.171875 6.410156 18.9375 6.0625 C 18.40625 5.261719 18.292969 5.246094 13.988281 5.246094 C 9.683594 5.246094 9.570312 5.261719 9.039062 6.0625 C 8.804688 6.410156 8.769531 6.621094 8.769531 7.558594 L 8.769531 8.652344 L 7.667969 8.710938 C 6.425781 8.773438 5.960938 8.957031 5.542969 9.542969 L 5.269531 9.929688 L 5.234375 15.515625 C 5.195312 21.742188 5.199219 21.761719 5.957031 22.371094 C 6.378906 22.714844 6.480469 22.738281 7.585938 22.785156 L 8.769531 22.832031 L 8.769531 21.023438 L 10.042969 21.027344 L 11.320312 21.03125 L 12.21875 21.867188 L 11.707031 22.363281 C 11.425781 22.636719 11.09375 23.078125 10.96875 23.335938 C 10.65625 23.996094 10.675781 25.085938 11.007812 25.746094 L 11.265625 26.242188 L 8.027344 26.230469 C 6.25 26.226562 4.585938 26.171875 4.328125 26.113281 Z M 4.328125 26.113281 "/>
</g>
</svg>
