<?xml version="1.0" encoding="UTF-8"?>
<svg xmlns="http://www.w3.org/2000/svg" xmlns:xlink="http://www.w3.org/1999/xlink" width="28" height="28" viewBox="0 0 28 28" version="1.1">
<defs>
<filter id="alpha" filterUnits="objectBoundingBox" x="0%" y="0%" width="100%" height="100%">
  <feColorMatrix type="matrix" in="SourceGraphic" values="0 0 0 0 1 0 0 0 0 1 0 0 0 0 1 0 0 0 1 0"/>
</filter>
<image id="image12" width="28" height="28" xlink:href="data:image/png;base64,iVBORw0KGgoAAAANSUhEUgAAABwAAAAcCAYAAAByDd+UAAAABmJLR0QA/wD/AP+gvaeTAAAAa0lEQVRIiWNgGAWjYBSMglFAKWBkYGBg+P/7ojMD4wY2sk351HSMUejvR2KUskCoahOG/5s5ybaQ48slBoZuoixkItsSMsGohaMWjlo4auEwtBBSW5xhZmXgbGAk2xTtht+MDH//U81V1AQAqYUT0znSMhwAAAAASUVORK5CYII="/>
<mask id="mask0">
  <g filter="url(#alpha)">
<use xlink:href="#image12"/>
  </g>
</mask>
<clipPath id="clip1">
  <rect x="0" y="0" width="28" height="28"/>
</clipPath>
<g id="surface11" clip-path="url(#clip1)">
<path style=" stroke:none;fill-rule:nonzero;fill:rgb(74.509804%,74.509804%,74.509804%);fill-opacity:1;" d="M 8.75 12.25 C 8.207031 12.25 7.675781 12.40625 7.328125 12.742188 L 1.027344 19.253906 L 7.425781 25.761719 C 7.773438 26.09375 8.195312 26.253906 8.738281 26.253906 L 10.488281 26.253906 L 10.488281 24.503906 C 10.488281 24.054688 10.261719 23.578125 9.941406 23.246094 L 7.703125 21.003906 L 17.492188 21.003906 L 17.492188 17.503906 L 7.648438 17.503906 L 9.78125 15.261719 C 10.101562 14.929688 10.492188 14.453125 10.492188 14.003906 L 10.492188 12.253906 Z M 8.75 12.25 "/>
</g>
<image id="image21" width="28" height="28" xlink:href="data:image/png;base64,iVBORw0KGgoAAAANSUhEUgAAABwAAAAcCAYAAAByDd+UAAAABmJLR0QA/wD/AP+gvaeTAAAAZklEQVRIiWNgoDNgJFbhfwZmRoarDaxk2/S94T+jyd/fxFv4TU6GgfVhCtkWMvh+Z2Td0slEvgHkgVELRy0ctXDUwmFoIfGF9/vPAgy8fZZk2/Q/4Bcjq/5esvWPglEwCkbBKIADAGdfFByWhcNtAAAAAElFTkSuQmCC"/>
<mask id="mask1">
  <g filter="url(#alpha)">
<use xlink:href="#image21"/>
  </g>
</mask>
<clipPath id="clip2">
  <rect x="0" y="0" width="28" height="28"/>
</clipPath>
<g id="surface20" clip-path="url(#clip2)">
<path style=" stroke:none;fill-rule:nonzero;fill:rgb(74.509804%,74.509804%,74.509804%);fill-opacity:1;" d="M 19.25 15.75 C 19.792969 15.75 20.324219 15.59375 20.671875 15.257812 L 26.972656 8.746094 L 20.566406 2.238281 C 20.21875 1.902344 19.796875 1.746094 19.253906 1.746094 L 17.503906 1.746094 L 17.503906 3.496094 C 17.503906 3.945312 17.730469 4.421875 18.050781 4.753906 L 20.292969 6.996094 L 12.253906 6.996094 C 11.328125 6.984375 10.503906 7.820312 10.503906 8.746094 C 10.503906 9.671875 11.328125 10.507812 12.253906 10.496094 L 20.347656 10.496094 L 18.214844 12.738281 C 17.894531 13.070312 17.503906 13.546875 17.503906 13.996094 L 17.503906 15.746094 Z M 19.25 15.75 "/>
</g>
</defs>
<g id="surface3">
<use xlink:href="#surface11" mask="url(#mask0)"/>
<path style=" stroke:none;fill-rule:nonzero;fill:rgb(100%,0%,0%);fill-opacity:1;" d="M 19.25 19.25 L 21.65625 19.25 L 23.625 21.164062 L 25.539062 19.25 L 28 19.25 L 28 21.820312 L 26.085938 23.679688 L 28 25.539062 L 28 28 L 25.484375 28 L 23.625 26.140625 L 21.765625 28 L 19.25 28 L 19.25 25.539062 L 21.109375 23.679688 L 19.25 21.820312 Z M 19.25 19.25 "/>
<use xlink:href="#surface20" mask="url(#mask1)"/>
</g>
</svg>
