<?xml version="1.0" encoding="UTF-8"?>
<svg xmlns="http://www.w3.org/2000/svg" xmlns:xlink="http://www.w3.org/1999/xlink" width="28" height="28" viewBox="0 0 28 28" version="1.1">
<g id="surface1">
<path style=" stroke:none;fill-rule:nonzero;fill:rgb(100%,100%,100%);fill-opacity:1;" d="M 21.503906 24.578125 C 20.085938 25.601562 15.6875 21.132812 13.9375 21.125 C 12.1875 21.121094 7.753906 25.550781 6.339844 24.515625 C 4.929688 23.480469 7.820312 17.921875 7.285156 16.253906 C 6.75 14.585938 1.167969 11.738281 1.714844 10.074219 C 2.261719 8.414062 8.445312 9.445312 9.863281 8.421875 C 11.285156 7.398438 12.269531 1.207031 14.019531 1.214844 C 15.769531 1.21875 16.699219 7.417969 18.109375 8.453125 C 19.523438 9.488281 25.714844 8.511719 26.25 10.175781 C 26.785156 11.84375 21.175781 14.644531 20.628906 16.304688 C 20.082031 17.96875 22.925781 23.554688 21.503906 24.578125 Z M 21.503906 24.578125 "/>
</g>
</svg>
