<?xml version="1.0" encoding="UTF-8"?>
<svg xmlns="http://www.w3.org/2000/svg" xmlns:xlink="http://www.w3.org/1999/xlink" width="28" height="28" viewBox="0 0 28 28" version="1.1">
<g id="surface1">
<path style=" stroke:none;fill-rule:nonzero;fill:rgb(74.509804%,74.509804%,74.509804%);fill-opacity:1;" d="M 13.992188 5.234375 C 9.179688 5.234375 5.230469 9.179688 5.230469 13.992188 C 5.230469 18.804688 9.179688 22.753906 13.992188 22.753906 C 18.804688 22.753906 22.753906 18.804688 22.753906 13.992188 C 22.753906 9.179688 18.804688 5.234375 13.992188 5.234375 Z M 13.992188 5.234375 "/>
<path style=" stroke:none;fill-rule:nonzero;fill:rgb(74.509804%,74.509804%,74.509804%);fill-opacity:1;" d="M 0.984375 12.25 L 2.515625 12.25 C 3.058594 12.25 3.5 12.691406 3.5 13.234375 L 3.5 14.765625 C 3.5 15.308594 3.058594 15.75 2.515625 15.75 L 0.984375 15.75 C 0.441406 15.75 0 15.308594 0 14.765625 L 0 13.234375 C 0 12.691406 0.441406 12.25 0.984375 12.25 Z M 0.984375 12.25 "/>
<path style=" stroke:none;fill-rule:nonzero;fill:rgb(74.509804%,74.509804%,74.509804%);fill-opacity:1;" d="M 25.484375 12.25 L 27.015625 12.25 C 27.558594 12.25 28 12.691406 28 13.234375 L 28 14.765625 C 28 15.308594 27.558594 15.75 27.015625 15.75 L 25.484375 15.75 C 24.941406 15.75 24.5 15.308594 24.5 14.765625 L 24.5 13.234375 C 24.5 12.691406 24.941406 12.25 25.484375 12.25 Z M 25.484375 12.25 "/>
<path style=" stroke:none;fill-rule:nonzero;fill:rgb(74.509804%,74.509804%,74.509804%);fill-opacity:1;" d="M 15.75 0.984375 L 15.75 2.515625 C 15.75 3.058594 15.308594 3.5 14.765625 3.5 L 13.234375 3.5 C 12.691406 3.5 12.25 3.058594 12.25 2.515625 L 12.25 0.984375 C 12.25 0.441406 12.691406 0 13.234375 0 L 14.765625 0 C 15.308594 0 15.75 0.441406 15.75 0.984375 Z M 15.75 0.984375 "/>
<path style=" stroke:none;fill-rule:nonzero;fill:rgb(74.509804%,74.509804%,74.509804%);fill-opacity:1;" d="M 15.75 25.484375 L 15.75 27.015625 C 15.75 27.558594 15.308594 28 14.765625 28 L 13.234375 28 C 12.691406 28 12.25 27.558594 12.25 27.015625 L 12.25 25.484375 C 12.25 24.941406 12.691406 24.5 13.234375 24.5 L 14.765625 24.5 C 15.308594 24.5 15.75 24.941406 15.75 25.484375 Z M 15.75 25.484375 "/>
<path style=" stroke:none;fill-rule:nonzero;fill:rgb(74.509804%,74.509804%,74.509804%);fill-opacity:1;" d="M 24.441406 6.027344 L 23.359375 7.109375 C 22.976562 7.496094 22.351562 7.496094 21.96875 7.109375 L 20.882812 6.027344 C 20.5 5.644531 20.5 5.019531 20.882812 4.636719 L 21.96875 3.554688 C 22.351562 3.167969 22.976562 3.167969 23.359375 3.554688 L 24.441406 4.636719 C 24.828125 5.019531 24.828125 5.644531 24.441406 6.027344 Z M 24.441406 6.027344 "/>
<path style=" stroke:none;fill-rule:nonzero;fill:rgb(74.509804%,74.509804%,74.509804%);fill-opacity:1;" d="M 7.117188 23.351562 L 6.035156 24.433594 C 5.652344 24.820312 5.027344 24.820312 4.644531 24.433594 L 3.5625 23.351562 C 3.175781 22.96875 3.175781 22.34375 3.5625 21.960938 L 4.644531 20.875 C 5.027344 20.492188 5.652344 20.492188 6.035156 20.875 L 7.117188 21.960938 C 7.503906 22.34375 7.503906 22.96875 7.117188 23.351562 Z M 7.117188 23.351562 "/>
<path style=" stroke:none;fill-rule:nonzero;fill:rgb(74.509804%,74.509804%,74.509804%);fill-opacity:1;" d="M 6.027344 3.5625 L 7.109375 4.644531 C 7.496094 5.027344 7.496094 5.652344 7.109375 6.035156 L 6.027344 7.117188 C 5.644531 7.503906 5.019531 7.503906 4.636719 7.117188 L 3.554688 6.035156 C 3.167969 5.652344 3.167969 5.027344 3.554688 4.644531 L 4.636719 3.5625 C 5.019531 3.175781 5.644531 3.175781 6.027344 3.5625 Z M 6.027344 3.5625 "/>
<path style=" stroke:none;fill-rule:nonzero;fill:rgb(74.509804%,74.509804%,74.509804%);fill-opacity:1;" d="M 23.351562 20.886719 L 24.433594 21.96875 C 24.820312 22.351562 24.820312 22.976562 24.433594 23.359375 L 23.351562 24.441406 C 22.96875 24.828125 22.34375 24.828125 21.960938 24.441406 L 20.875 23.359375 C 20.492188 22.976562 20.492188 22.351562 20.875 21.96875 L 21.960938 20.886719 C 22.34375 20.5 22.96875 20.5 23.351562 20.886719 Z M 23.351562 20.886719 "/>
<path style=" stroke:none;fill-rule:nonzero;fill:rgb(100%,40%,0%);fill-opacity:1;" d="M 12.980469 3.449219 C 12.667969 3.363281 12.40625 3.109375 12.316406 2.804688 C 12.234375 2.539062 12.234375 0.957031 12.3125 0.695312 C 12.382812 0.460938 12.589844 0.222656 12.816406 0.117188 C 12.996094 0.0351562 13.023438 0.03125 14.007812 0.03125 C 14.964844 0.03125 15.023438 0.0351562 15.175781 0.109375 C 15.363281 0.199219 15.550781 0.382812 15.640625 0.566406 C 15.699219 0.683594 15.710938 0.816406 15.71875 1.6875 C 15.730469 2.78125 15.71875 2.875 15.511719 3.136719 C 15.445312 3.21875 15.308594 3.320312 15.191406 3.378906 L 14.984375 3.480469 L 14.066406 3.488281 C 13.414062 3.492188 13.097656 3.480469 12.980469 3.449219 Z M 12.980469 3.449219 "/>
<path style=" stroke:none;fill-rule:nonzero;fill:rgb(100%,40%,0%);fill-opacity:1;" d="M 22.460938 7.367188 C 22.210938 7.300781 22.058594 7.179688 21.40625 6.519531 C 20.753906 5.863281 20.714844 5.816406 20.65625 5.613281 C 20.617188 5.476562 20.601562 5.34375 20.617188 5.242188 C 20.660156 4.910156 20.757812 4.773438 21.40625 4.121094 C 22.105469 3.414062 22.304688 3.28125 22.640625 3.28125 C 23.03125 3.28125 23.121094 3.339844 23.855469 4.0625 C 24.640625 4.839844 24.699219 4.933594 24.699219 5.339844 C 24.699219 5.546875 24.679688 5.644531 24.621094 5.753906 C 24.515625 5.953125 23.21875 7.234375 23.054688 7.304688 C 22.890625 7.371094 22.601562 7.402344 22.460938 7.367188 Z M 22.460938 7.367188 "/>
<path style=" stroke:none;fill-rule:nonzero;fill:rgb(100%,40%,0%);fill-opacity:1;" d="M 25.160156 15.671875 C 24.933594 15.59375 24.714844 15.394531 24.601562 15.164062 C 24.523438 15.007812 24.519531 14.960938 24.519531 14.007812 L 24.519531 13.015625 L 24.621094 12.808594 C 24.679688 12.695312 24.78125 12.550781 24.855469 12.492188 C 25.105469 12.285156 25.21875 12.269531 26.3125 12.28125 C 27.414062 12.292969 27.4375 12.296875 27.699219 12.554688 C 27.960938 12.804688 27.96875 12.851562 27.96875 13.988281 C 27.96875 14.976562 27.964844 15.003906 27.882812 15.183594 C 27.835938 15.285156 27.726562 15.425781 27.640625 15.5 C 27.386719 15.714844 27.25 15.742188 26.238281 15.738281 C 25.472656 15.738281 25.324219 15.730469 25.160156 15.671875 Z M 25.160156 15.671875 "/>
<path style=" stroke:none;fill-rule:nonzero;fill:rgb(100%,40%,0%);fill-opacity:1;" d="M 22.453125 24.695312 C 22.371094 24.679688 22.265625 24.644531 22.21875 24.625 C 22.074219 24.546875 20.78125 23.242188 20.703125 23.09375 C 20.597656 22.890625 20.578125 22.585938 20.65625 22.347656 C 20.710938 22.171875 20.789062 22.078125 21.429688 21.441406 C 22.0625 20.804688 22.15625 20.726562 22.328125 20.671875 C 22.5625 20.59375 22.867188 20.609375 23.074219 20.707031 C 23.160156 20.746094 23.484375 21.035156 23.863281 21.40625 C 24.609375 22.144531 24.703125 22.285156 24.695312 22.675781 C 24.695312 22.808594 24.664062 22.972656 24.628906 23.054688 C 24.535156 23.273438 23.277344 24.527344 23.0625 24.621094 C 22.847656 24.710938 22.644531 24.734375 22.453125 24.695312 Z M 22.453125 24.695312 "/>
<path style=" stroke:none;fill-rule:nonzero;fill:rgb(100%,40%,0%);fill-opacity:1;" d="M 12.921875 27.9375 C 12.707031 27.855469 12.496094 27.675781 12.386719 27.476562 L 12.277344 27.28125 L 12.277344 25.222656 L 12.386719 25.027344 C 12.507812 24.804688 12.738281 24.617188 12.964844 24.554688 C 13.058594 24.527344 13.4375 24.515625 14.082031 24.523438 C 14.933594 24.535156 15.074219 24.542969 15.175781 24.597656 C 15.378906 24.710938 15.554688 24.890625 15.640625 25.074219 C 15.722656 25.25 15.726562 25.285156 15.726562 26.25 C 15.726562 27.21875 15.722656 27.25 15.640625 27.425781 C 15.59375 27.527344 15.488281 27.667969 15.402344 27.742188 C 15.136719 27.96875 15.039062 27.984375 13.976562 27.980469 C 13.351562 27.980469 12.996094 27.964844 12.921875 27.9375 Z M 12.921875 27.9375 "/>
<path style=" stroke:none;fill-rule:nonzero;fill:rgb(100%,40%,0%);fill-opacity:1;" d="M 5.019531 24.652344 C 4.816406 24.582031 4.621094 24.417969 4.035156 23.820312 C 3.367188 23.144531 3.304688 23.042969 3.304688 22.65625 C 3.304688 22.257812 3.363281 22.167969 4.109375 21.421875 C 4.835938 20.695312 4.949219 20.617188 5.304688 20.617188 C 5.710938 20.617188 5.746094 20.636719 6.511719 21.390625 C 7.300781 22.164062 7.382812 22.285156 7.382812 22.65625 C 7.382812 23.015625 7.308594 23.125 6.578125 23.863281 C 5.832031 24.613281 5.707031 24.699219 5.34375 24.695312 C 5.222656 24.691406 5.078125 24.675781 5.019531 24.652344 Z M 5.019531 24.652344 "/>
<path style=" stroke:none;fill-rule:nonzero;fill:rgb(100%,40%,0%);fill-opacity:1;" d="M 0.714844 15.703125 C 0.472656 15.628906 0.257812 15.445312 0.132812 15.203125 L 0.0117188 14.96875 L 0.0234375 13.953125 C 0.03125 13.066406 0.0429688 12.925781 0.0976562 12.824219 C 0.210938 12.621094 0.390625 12.445312 0.574219 12.359375 C 0.75 12.277344 0.785156 12.273438 1.75 12.273438 C 2.714844 12.273438 2.75 12.277344 2.925781 12.359375 C 3.109375 12.445312 3.289062 12.621094 3.402344 12.824219 C 3.457031 12.925781 3.464844 13.066406 3.476562 13.917969 C 3.484375 14.5625 3.472656 14.941406 3.445312 15.035156 C 3.382812 15.261719 3.195312 15.492188 2.972656 15.613281 L 2.777344 15.722656 L 1.804688 15.730469 C 1.265625 15.734375 0.777344 15.722656 0.714844 15.703125 Z M 0.714844 15.703125 "/>
<path style=" stroke:none;fill-rule:nonzero;fill:rgb(100%,40%,0%);fill-opacity:1;" d="M 5.003906 7.332031 C 4.835938 7.269531 4.722656 7.175781 4.128906 6.582031 C 3.355469 5.8125 3.289062 5.707031 3.289062 5.339844 C 3.289062 4.96875 3.355469 4.867188 4.140625 4.085938 C 4.804688 3.429688 4.847656 3.390625 5.050781 3.335938 C 5.308594 3.261719 5.542969 3.28125 5.765625 3.390625 C 5.980469 3.5 7.128906 4.644531 7.261719 4.882812 C 7.351562 5.039062 7.367188 5.109375 7.367188 5.339844 C 7.367188 5.570312 7.351562 5.636719 7.261719 5.796875 C 7.128906 6.035156 5.980469 7.179688 5.761719 7.289062 C 5.539062 7.402344 5.246094 7.417969 5.003906 7.332031 Z M 5.003906 7.332031 "/>
<path style=" stroke:none;fill-rule:nonzero;fill:rgb(100%,100%,0%);fill-opacity:1;" d="M 13.234375 22.707031 C 12.152344 22.605469 11.210938 22.339844 10.214844 21.863281 C 7.617188 20.617188 5.789062 18.148438 5.339844 15.289062 C 5.261719 14.785156 5.234375 13.6875 5.285156 13.15625 C 5.695312 9.066406 8.902344 5.800781 13 5.300781 C 13.464844 5.242188 14.523438 5.242188 14.984375 5.300781 C 18.917969 5.78125 22.03125 8.792969 22.648438 12.710938 C 22.742188 13.292969 22.742188 14.6875 22.648438 15.269531 C 22.203125 18.109375 20.441406 20.523438 17.886719 21.8125 C 16.449219 22.535156 14.785156 22.855469 13.234375 22.707031 Z M 13.234375 22.707031 "/>
</g>
</svg>
