<?xml version="1.0" encoding="UTF-8"?>
<svg xmlns="http://www.w3.org/2000/svg" xmlns:xlink="http://www.w3.org/1999/xlink" width="256" height="256" viewBox="0 0 256 256" version="1.1">
<g id="surface1">
<path style=" stroke:none;fill-rule:nonzero;fill:rgb(100%,100%,100%);fill-opacity:1;" d="M 164.835938 10.664062 C 157.390625 10.695312 151.59375 10.703125 149.335938 10.835938 C 140.296875 11.367188 135.789062 17.007812 134 25.335938 C 133.773438 29.523438 134 98.664062 134 98.664062 C 134 107.1875 140.8125 114.164062 149.335938 114.164062 L 229.835938 114.164062 C 238.359375 114.164062 245.164062 107.1875 245.164062 98.664062 C 245.164062 90.140625 246.203125 26.453125 244 20.664062 C 241.796875 14.882812 236.429688 10.835938 229.835938 10.835938 C 224.890625 10.835938 187.164062 10.59375 164.835938 10.664062 Z M 117.164062 18.5 C 113.257812 18.710938 109.492188 20.359375 106.664062 23.5 C 101.015625 29.78125 101.554688 39.515625 107.835938 45.164062 C 114.117188 50.8125 123.6875 50.28125 129.335938 44 C 134.984375 37.71875 134.445312 27.984375 128.164062 22.335938 C 125.023438 19.507812 121.078125 18.289062 117.164062 18.5 Z M 154.835938 22.835938 L 224.164062 22.835938 C 229.117188 22.835938 233.164062 26.71875 233.164062 31.664062 L 233.164062 93.335938 C 233.164062 98.28125 229.117188 102.164062 224.164062 102.164062 L 154.835938 102.164062 C 149.882812 102.164062 145.835938 98.28125 145.835938 93.335938 L 145.835938 31.664062 C 145.835938 26.71875 149.882812 22.835938 154.835938 22.835938 Z M 68.164062 44.5 C 65.390625 44.648438 62.671875 45.773438 60.664062 48 C 56.664062 52.453125 57.046875 59.328125 61.5 63.335938 C 65.953125 67.335938 72.828125 66.953125 76.835938 62.5 C 80.835938 58.046875 80.453125 51.171875 76 47.164062 C 73.773438 45.164062 70.9375 44.351562 68.164062 44.5 Z M 37.835938 91.664062 C 36.359375 91.859375 34.859375 92.4375 33.664062 93.5 C 30.484375 96.328125 30.171875 101.15625 33 104.335938 C 35.828125 107.515625 40.65625 107.828125 43.835938 105 C 47.015625 102.171875 47.328125 97.34375 44.5 94.164062 C 42.734375 92.179688 40.28125 91.34375 37.835938 91.664062 Z M 41.5 141.835938 C 34.054688 141.859375 28.421875 141.867188 26.164062 142 C 17.132812 142.53125 12.453125 148.171875 10.664062 156.5 C 10.554688 158.546875 10.640625 176.398438 10.664062 193.835938 C 10.664062 194.21875 10.664062 194.28125 10.664062 194.664062 C 10.695312 212.476562 10.664062 229.835938 10.664062 229.835938 C 10.664062 238.359375 17.640625 245.335938 26.164062 245.335938 L 106.5 245.335938 C 115.023438 245.335938 121.835938 238.359375 121.835938 229.835938 C 121.835938 221.3125 123.039062 157.617188 120.835938 151.835938 C 118.632812 146.046875 113.09375 142 106.5 142 C 101.554688 142 63.828125 141.757812 41.5 141.835938 Z M 31.5 154 L 100.835938 154 C 105.78125 154 109.835938 157.882812 109.835938 162.835938 L 109.835938 224.5 C 109.835938 229.453125 105.78125 233.335938 100.835938 233.335938 L 31.5 233.335938 C 26.546875 233.335938 22.5 229.453125 22.5 224.5 L 22.5 162.835938 C 22.5 157.882812 26.546875 154 31.5 154 Z M 31.5 154 "/>
</g>
</svg>
