<?xml version="1.0" encoding="UTF-8"?>
<svg xmlns="http://www.w3.org/2000/svg" xmlns:xlink="http://www.w3.org/1999/xlink" width="256" height="256" viewBox="0 0 256 256" version="1.1">
<g id="surface1">
<path style=" stroke:none;fill-rule:nonzero;fill:rgb(100%,100%,100%);fill-opacity:1;" d="M 164.835938 10.664062 C 157.390625 10.695312 151.59375 10.703125 149.335938 10.835938 C 140.296875 11.367188 135.789062 17.007812 134 25.335938 C 133.773438 29.523438 134 98.664062 134 98.664062 C 134 107.1875 140.8125 114.164062 149.335938 114.164062 L 229.835938 114.164062 C 238.359375 114.164062 245.164062 107.1875 245.164062 98.664062 C 245.164062 90.140625 246.203125 26.453125 244 20.664062 C 241.796875 14.882812 236.429688 10.835938 229.835938 10.835938 C 224.890625 10.835938 187.164062 10.59375 164.835938 10.664062 Z M 154.835938 22.835938 L 224.164062 22.835938 C 229.117188 22.835938 233.164062 26.71875 233.164062 31.664062 L 233.164062 93.335938 C 233.164062 98.28125 229.117188 102.164062 224.164062 102.164062 L 154.835938 102.164062 C 149.882812 102.164062 145.835938 98.28125 145.835938 93.335938 L 145.835938 31.664062 C 145.835938 26.71875 149.882812 22.835938 154.835938 22.835938 Z M 35.5 131.5 C 31.125 131.382812 26.804688 132.632812 22.835938 135.164062 C 17.1875 138.773438 13.710938 144.390625 12.664062 150.5 C 11.757812 152.289062 11.140625 154.289062 10.664062 156.5 C 10.554688 158.546875 10.640625 176.398438 10.664062 193.835938 C 10.664062 194.21875 10.664062 194.28125 10.664062 194.664062 C 10.695312 212.476562 10.664062 229.835938 10.664062 229.835938 C 10.664062 238.359375 17.640625 245.335938 26.164062 245.335938 L 106.5 245.335938 C 113.578125 245.335938 119.367188 240.515625 121.164062 234 C 127.875 229.34375 129.765625 220.28125 125.335938 213.335938 C 124.40625 211.882812 123.265625 210.695312 122 209.664062 C 122.234375 187.859375 122.484375 156.15625 120.835938 151.835938 C 118.632812 146.046875 113.09375 142 106.5 142 C 102.507812 142 75.382812 141.851562 54 141.835938 C 49.765625 135.34375 42.71875 131.6875 35.5 131.5 Z M 31.5 154 L 100.835938 154 C 105.78125 154 109.835938 157.882812 109.835938 162.835938 L 109.835938 224.5 C 109.835938 229.453125 105.78125 233.335938 100.835938 233.335938 L 31.5 233.335938 C 26.546875 233.335938 22.5 229.453125 22.5 224.5 L 22.5 162.835938 C 22.5 157.882812 26.546875 154 31.5 154 Z M 34.5 165.835938 L 34.5 221.5 L 98 221.5 L 98 165.835938 Z M 205.835938 171.835938 C 204.835938 171.890625 203.953125 172.03125 203 172.5 C 199.179688 174.375 197.460938 179.015625 199.335938 182.835938 C 201.203125 186.65625 205.84375 188.203125 209.664062 186.335938 C 213.484375 184.460938 215.039062 179.984375 213.164062 176.164062 C 211.765625 173.304688 208.828125 171.664062 205.835938 171.835938 Z M 166 203 C 163.914062 202.945312 161.726562 203.625 159.835938 204.835938 C 154.78125 208.054688 153.273438 214.78125 156.5 219.835938 C 159.726562 224.882812 166.453125 226.226562 171.5 223 C 176.546875 219.773438 178.054688 213.046875 174.835938 208 C 172.820312 204.84375 169.484375 203.09375 166 203 Z M 166 203 "/>
</g>
</svg>
