<?xml version="1.0" encoding="UTF-8"?>
<svg xmlns="http://www.w3.org/2000/svg" xmlns:xlink="http://www.w3.org/1999/xlink" width="128" height="128" viewBox="0 0 128 128" version="1.1">
<g id="surface1">
<path style=" stroke:none;fill-rule:evenodd;fill:rgb(10.196078%,10.196078%,10.196078%);fill-opacity:1;" d="M 16.175781 39.535156 L 29.800781 52.871094 L 29.375 34.171875 L 16.167969 34.109375 Z M 16.175781 39.535156 "/>
<path style="fill-rule:evenodd;fill:rgb(94.901961%,94.901961%,94.901961%);fill-opacity:1;stroke-width:5.03546;stroke-linecap:butt;stroke-linejoin:miter;stroke:rgb(68.627451%,68.627451%,68.627451%);stroke-opacity:1;stroke-miterlimit:4;" d="M 96.908569 1029.840207 L 433.792114 1028.66528 L 434.967041 664.773679 L 346.923828 575.570798 L 96.908569 575.570798 Z M 96.908569 1029.840207 " transform="matrix(0.256,0,0,0.256,0,-141.404718)"/>
<path style="fill-rule:evenodd;fill:rgb(68.627451%,68.627451%,68.627451%);fill-opacity:1;stroke-width:5.03546;stroke-linecap:butt;stroke-linejoin:miter;stroke:rgb(68.627451%,68.627451%,68.627451%);stroke-opacity:1;stroke-miterlimit:4;" d="M 431.381226 662.927365 L 349.212646 662.347531 L 349.975586 578.546262 Z M 431.381226 662.927365 " transform="matrix(0.256,0,0,0.256,0,-141.404718)"/>
<path style=" stroke:none;fill-rule:nonzero;fill:rgb(22.352941%,25.098039%,31.372549%);fill-opacity:1;" d="M 16.128906 17.875 L 85.714844 17.875 L 85.714844 39.46875 L 16.128906 39.46875 Z M 16.128906 17.875 "/>
<path style="fill-rule:nonzero;fill:rgb(98.039216%,92.54902%,42.745098%);fill-opacity:1;stroke-width:13.157895;stroke-linecap:butt;stroke-linejoin:miter;stroke:rgb(22.352941%,25.098039%,31.372549%);stroke-opacity:1;stroke-miterlimit:4;" d="M 380.233765 902.368283 C 380.233765 967.752194 327.224731 1020.776486 261.825562 1020.776486 C 196.426392 1020.791745 143.4021 967.782712 143.386841 902.383542 C 143.386841 836.984372 196.380615 783.96008 261.779785 783.944821 C 327.178955 783.929562 380.203247 836.923337 380.233765 902.322507 " transform="matrix(0.256,0,0,0.256,0,-141.404718)"/>
<path style=" stroke:none;fill-rule:nonzero;fill:rgb(22.352941%,25.098039%,31.372549%);fill-opacity:1;" d="M 58.210938 85.171875 L 72.359375 85.132812 L 72.460938 104.019531 C 72.460938 104.019531 72.421875 104.507812 72.789062 104.90625 C 73.152344 105.304688 73.515625 105.316406 73.515625 105.316406 L 76.671875 105.332031 L 76.699219 107.625 L 58.722656 107.582031 L 58.695312 105.257812 L 62.371094 105.273438 C 62.371094 105.273438 62.882812 105.210938 63.175781 104.792969 C 63.464844 104.375 63.394531 103.917969 63.394531 103.917969 L 63.378906 88.652344 C 63.378906 88.652344 63.429688 88.269531 62.90625 87.824219 C 62.386719 87.378906 61.894531 87.425781 61.894531 87.425781 L 58.234375 87.382812 Z M 58.210938 85.171875 "/>
<path style=" stroke:none;fill-rule:nonzero;fill:rgb(22.352941%,25.098039%,31.372549%);fill-opacity:1;" d="M 72.492188 77.308594 C 72.492188 80.199219 70.195312 82.546875 67.359375 82.550781 C 64.523438 82.554688 62.21875 80.214844 62.210938 77.320312 C 62.207031 74.429688 64.5 72.078125 67.335938 72.066406 C 70.171875 72.058594 72.480469 74.390625 72.492188 77.285156 "/>
<path style="fill:none;stroke-width:9.063828;stroke-linecap:butt;stroke-linejoin:miter;stroke:rgb(100%,100%,100%);stroke-opacity:1;stroke-miterlimit:4;" d="M 384.450782 735.917324 L 384.450782 679.475183 C 384.450782 679.475183 415.265238 673.532009 415.15718 693.792829 C 415.049122 714.053648 385.081119 708.524696 385.081119 708.524696 " transform="matrix(0.216898,0,0,0.216898,-64.093637,-124.763527)"/>
<path style="fill:none;stroke-width:9;stroke-linecap:butt;stroke-linejoin:miter;stroke:rgb(100%,100%,100%);stroke-opacity:1;stroke-miterlimit:4;" d="M 392.465062 710.451725 L 418.398911 734.926795 " transform="matrix(0.216898,0,0,0.216898,-64.093637,-124.763527)"/>
<path style="fill:none;stroke-width:9;stroke-linecap:butt;stroke-linejoin:miter;stroke:rgb(100%,100%,100%);stroke-opacity:1;stroke-miterlimit:4;" d="M 380.197472 670.721785 L 346.213324 670.307564 L 346.627545 618.583943 L 381.061933 618.72802 " transform="matrix(0.216898,0,0,0.216898,-45.553915,-111.778995)"/>
<path style="fill:none;stroke-width:9;stroke-linecap:butt;stroke-linejoin:miter;stroke:rgb(100%,100%,100%);stroke-opacity:1;stroke-miterlimit:4;" d="M 348.950786 642.374647 L 378.090347 642.518724 " transform="matrix(0.216898,0,0,0.216898,-45.553915,-111.778995)"/>
<path style="fill:none;stroke-width:9;stroke-linecap:butt;stroke-linejoin:bevel;stroke:rgb(100%,100%,100%);stroke-opacity:1;stroke-miterlimit:4;" d="M 915.700017 696.277921 L 937.838939 637.997836 L 960.567994 696.277921 " transform="matrix(0.218436,0,0,0.218436,-161.365599,-117.685914)"/>
<path style="fill:none;stroke-width:9;stroke-linecap:butt;stroke-linejoin:miter;stroke:rgb(100%,100%,100%);stroke-opacity:1;stroke-miterlimit:4;" d="M 924.587775 676.767773 L 950.374791 676.767773 " transform="matrix(0.218436,0,0,0.218436,-161.365599,-117.685914)"/>
<path style="fill:none;stroke-width:7.625316;stroke-linecap:butt;stroke-linejoin:miter;stroke:rgb(100%,100%,100%);stroke-opacity:1;stroke-miterlimit:4;" d="M 200.317383 683.892941 L 200.72937 639.749265 C 200.72937 639.749265 234.512329 634.835935 234.939575 662.225461 C 235.38208 689.630246 200.317383 683.892941 200.317383 683.892941 Z M 200.317383 683.892941 " transform="matrix(0.256,0,0,0.256,0,-141.404718)"/>
<path style="fill:none;stroke-width:7.625316;stroke-linecap:butt;stroke-linejoin:miter;stroke:rgb(100%,100%,100%);stroke-opacity:1;stroke-miterlimit:4;" d="M 245.727539 687.707639 L 245.97168 641.488767 L 250.228882 641.290402 L 263.687134 676.294064 L 266.525269 676.294064 L 280.044556 641.290402 L 284.484863 641.229367 L 284.484863 687.829709 " transform="matrix(0.256,0,0,0.256,0,-141.404718)"/>
<path style="fill:none;stroke-width:9;stroke-linecap:butt;stroke-linejoin:miter;stroke:rgb(100%,100%,100%);stroke-opacity:1;stroke-miterlimit:4;" d="M 380.212572 670.721785 L 346.210415 670.307564 L 346.624636 618.583943 L 381.077034 618.72802 " transform="matrix(0.216898,0,0,0.216898,1.102966,-111.778995)"/>
<path style="fill:none;stroke-width:9;stroke-linecap:butt;stroke-linejoin:miter;stroke:rgb(100%,100%,100%);stroke-opacity:1;stroke-miterlimit:4;" d="M 348.947876 642.374647 L 378.087437 642.518724 " transform="matrix(0.216898,0,0,0.216898,1.102966,-111.778995)"/>
</g>
</svg>
