<?xml version="1.0" encoding="UTF-8"?>
<svg xmlns="http://www.w3.org/2000/svg" xmlns:xlink="http://www.w3.org/1999/xlink" width="128" height="128" viewBox="0 0 128 128" version="1.1">
<g id="surface1">
<path style=" stroke:none;fill-rule:evenodd;fill:rgb(81.568627%,7.058824%,0%);fill-opacity:1;" d="M 16.136719 39.386719 L 29.761719 52.722656 L 29.335938 34.023438 L 16.128906 33.960938 Z M 16.136719 39.386719 "/>
<path style="fill-rule:evenodd;fill:rgb(94.901961%,94.901961%,94.901961%);fill-opacity:1;stroke-width:5.03546;stroke-linecap:butt;stroke-linejoin:miter;stroke:rgb(68.627451%,68.627451%,68.627451%);stroke-opacity:1;stroke-miterlimit:4;" d="M 97.045898 1029.840207 L 433.929443 1028.66528 L 435.10437 664.773679 L 347.061157 575.570798 L 97.045898 575.570798 Z M 97.045898 1029.840207 " transform="matrix(0.256,0,0,0.256,0,-141.404718)"/>
<path style="fill-rule:evenodd;fill:rgb(68.627451%,68.627451%,68.627451%);fill-opacity:1;stroke-width:5.03546;stroke-linecap:butt;stroke-linejoin:miter;stroke:rgb(68.627451%,68.627451%,68.627451%);stroke-opacity:1;stroke-miterlimit:4;" d="M 431.518555 662.927365 L 349.349976 662.347531 L 350.112915 578.546262 Z M 431.518555 662.927365 " transform="matrix(0.256,0,0,0.256,0,-141.404718)"/>
<path style=" stroke:none;fill-rule:nonzero;fill:rgb(94.117647%,22.352941%,8.627451%);fill-opacity:1;" d="M 16.164062 17.875 L 73.746094 17.875 L 73.746094 39.46875 L 16.164062 39.46875 Z M 16.164062 17.875 "/>
<path style=" stroke:none;fill-rule:nonzero;fill:rgb(80%,80%,80%);fill-opacity:1;" d="M 37.730469 69.871094 L 37.730469 108.402344 C 37.730469 115.445312 43.382812 121.113281 50.40625 121.113281 L 84.484375 121.113281 L 101.511719 103.949219 L 101.511719 69.871094 Z M 37.730469 69.871094 "/>
<path style=" stroke:none;fill-rule:nonzero;fill:rgb(90.196078%,90.196078%,90.196078%);fill-opacity:1;" d="M 50.40625 57.15625 C 50.253906 57.15625 50.105469 57.160156 49.953125 57.164062 C 50.105469 57.160156 50.253906 57.15625 50.40625 57.15625 Z M 88.835938 57.15625 C 88.988281 57.15625 89.136719 57.160156 89.289062 57.164062 C 89.140625 57.160156 88.988281 57.15625 88.835938 57.15625 Z M 37.730469 93.238281 L 37.730469 114.035156 C 37.730469 118.160156 41.460938 121.113281 44.898438 121.113281 L 84.484375 121.113281 L 101.511719 103.949219 L 101.511719 93.238281 Z M 37.730469 93.238281 "/>
<path style=" stroke:none;fill-rule:nonzero;fill:rgb(22.352941%,25.098039%,31.372549%);fill-opacity:1;" d="M 68.121094 109.457031 L 71.496094 109.457031 L 71.558594 81.351562 L 65.398438 85.152344 L 65.398438 89.148438 L 68.054688 87.554688 Z M 68.121094 109.457031 "/>
<path style=" stroke:none;fill-rule:nonzero;fill:rgb(50.196078%,50.196078%,50.196078%);fill-opacity:1;" d="M 88.554688 103.726562 C 86.828125 103.726562 84.394531 106.160156 84.394531 107.867188 L 84.394531 121.15625 L 84.441406 121.15625 L 101.730469 103.726562 Z M 88.554688 103.726562 "/>
<path style=" stroke:none;fill-rule:nonzero;fill:rgb(94.117647%,22.352941%,8.627451%);fill-opacity:1;" d="M 44.972656 57.15625 C 37.949219 57.15625 37.730469 57.125 37.730469 69.871094 L 101.511719 69.863281 C 101.503906 57.304688 101.625 57.15625 94.605469 57.15625 Z M 48.503906 61.492188 C 49.613281 61.492188 50.511719 62.394531 50.511719 63.507812 C 50.511719 64.621094 49.613281 65.523438 48.503906 65.523438 C 47.394531 65.523438 46.496094 64.621094 46.496094 63.507812 C 46.496094 62.394531 47.394531 61.492188 48.503906 61.492188 Z M 91.050781 61.511719 C 92.109375 61.511719 92.964844 62.371094 92.964844 63.433594 C 92.96875 64.496094 92.109375 65.355469 91.050781 65.355469 C 89.992188 65.355469 89.132812 64.496094 89.132812 63.433594 C 89.132812 62.371094 89.992188 61.511719 91.050781 61.511719 Z M 91.050781 61.511719 "/>
</g>
</svg>
