<?xml version="1.0" encoding="UTF-8"?>
<svg xmlns="http://www.w3.org/2000/svg" xmlns:xlink="http://www.w3.org/1999/xlink" width="16" height="16" viewBox="0 0 16 16" version="1.1">
<g id="surface1">
<path style=" stroke:none;fill-rule:nonzero;fill:rgb(74.509804%,74.509804%,74.509804%);fill-opacity:1;" d="M 4.679688 4 C 3.75 3.996094 2.996094 4.765625 2.992188 5.726562 C 3.007812 6.46875 3.011719 7.234375 3.003906 7.996094 L 5.925781 8.011719 L 5.945312 4.007812 Z M 7.085938 4.011719 L 7.070312 8.015625 L 9.988281 8.03125 C 10.003906 7.265625 10.019531 6.5 10.027344 5.761719 C 10.027344 4.800781 9.285156 4.023438 8.351562 4.019531 Z M 3 9.09375 C 2.988281 9.925781 2.964844 10.59375 2.964844 11.359375 C 2.953125 13.371094 4.515625 14.996094 6.464844 15.007812 C 8.414062 15.015625 9.992188 13.40625 10 11.394531 C 9.964844 10.558594 9.953125 9.886719 9.960938 9.09375 Z M 3 9.09375 "/>
<path style=" stroke:none;fill-rule:nonzero;fill:rgb(74.509804%,74.509804%,74.509804%);fill-opacity:1;" d="M 8.058594 0.0117188 C 7.605469 0.0585938 7.175781 0.230469 6.808594 0.507812 C 6.320312 0.882812 5.996094 1.464844 5.996094 2.195312 C 5.992188 2.460938 6.234375 2.703125 6.496094 2.703125 C 6.761719 2.703125 7 2.460938 6.996094 2.195312 C 6.996094 1.75 7.167969 1.492188 7.433594 1.289062 C 7.699219 1.089844 8.097656 0.992188 8.496094 1.007812 C 8.894531 1.027344 9.28125 1.164062 9.558594 1.414062 C 9.839844 1.667969 10.027344 2 10.027344 2.539062 C 10.027344 4.707031 11.492188 6.050781 13.027344 6.011719 C 13.886719 5.988281 14.714844 5.53125 15.277344 4.699219 L 14.714844 3.699219 C 14.339844 4.613281 13.648438 4.992188 12.996094 5.011719 C 12.039062 5.035156 11.027344 4.28125 11.027344 2.539062 C 11.027344 1.75 10.691406 1.097656 10.214844 0.664062 C 9.742188 0.234375 9.136719 0.0390625 8.527344 0.0117188 C 8.375 0.00390625 8.210938 -0.0078125 8.058594 0.0117188 Z M 14.996094 1.976562 C 14.996094 1.988281 14.996094 2 14.996094 2.007812 C 14.996094 2.054688 15 2.089844 14.996094 2.132812 L 15.777344 3.507812 C 15.789062 3.46875 15.800781 3.425781 15.808594 3.382812 Z M 14.996094 2.351562 C 14.992188 2.460938 14.976562 2.566406 14.964844 2.664062 L 15.683594 3.882812 C 15.707031 3.820312 15.726562 3.761719 15.746094 3.695312 Z M 14.933594 2.851562 C 14.921875 2.945312 14.890625 3.019531 14.871094 3.101562 L 15.527344 4.226562 C 15.558594 4.167969 15.59375 4.105469 15.621094 4.039062 Z M 14.839844 3.289062 C 14.816406 3.378906 14.777344 3.460938 14.746094 3.539062 L 15.339844 4.570312 C 15.382812 4.507812 15.429688 4.453125 15.464844 4.382812 Z M 14.839844 3.289062 "/>
<path style=" stroke:none;fill-rule:nonzero;fill:rgb(100%,100%,100%);fill-opacity:1;" d="M 12.632812 5.984375 C 11.5625 5.84375 10.632812 5.027344 10.25 3.882812 C 10.117188 3.496094 10.0625 3.167969 10.039062 2.640625 C 10.011719 2.054688 9.929688 1.804688 9.664062 1.515625 C 9.363281 1.1875 8.925781 1.007812 8.410156 1.007812 C 7.9375 1.007812 7.59375 1.128906 7.320312 1.386719 C 7.109375 1.585938 7.015625 1.792969 6.992188 2.128906 C 6.976562 2.34375 6.949219 2.421875 6.855469 2.527344 C 6.660156 2.75 6.335938 2.75 6.136719 2.523438 C 6.035156 2.40625 6.015625 2.335938 6.015625 2.117188 C 6.015625 1.78125 6.125 1.390625 6.296875 1.09375 C 6.605469 0.566406 7.253906 0.144531 7.921875 0.0390625 C 8.257812 -0.015625 8.863281 0.0273438 9.230469 0.132812 C 9.460938 0.199219 9.867188 0.398438 10.039062 0.53125 C 10.355469 0.769531 10.652344 1.148438 10.808594 1.511719 C 10.941406 1.820312 10.988281 2.042969 11.011719 2.476562 C 11.050781 3.152344 11.109375 3.476562 11.269531 3.84375 C 11.464844 4.304688 11.765625 4.628906 12.175781 4.828125 C 12.480469 4.976562 12.597656 5.003906 12.941406 5.003906 C 13.273438 5.003906 13.421875 4.972656 13.691406 4.847656 C 14.09375 4.660156 14.40625 4.34375 14.632812 3.886719 L 14.71875 3.714844 L 14.976562 4.171875 C 15.117188 4.421875 15.242188 4.644531 15.25 4.664062 C 15.265625 4.695312 15.246094 4.738281 15.148438 4.863281 C 14.523438 5.683594 13.574219 6.101562 12.632812 5.984375 Z M 12.632812 5.984375 "/>
<path style=" stroke:none;fill-rule:nonzero;fill:rgb(100%,100%,100%);fill-opacity:1;" d="M 3.945312 7.992188 L 3.027344 7.988281 L 3.011719 6.785156 C 3 5.492188 3 5.433594 3.101562 5.144531 C 3.28125 4.613281 3.742188 4.191406 4.28125 4.050781 C 4.429688 4.015625 5.449219 3.988281 5.757812 4.011719 L 5.929688 4.027344 L 5.929688 5.816406 C 5.929688 6.800781 5.925781 7.695312 5.917969 7.808594 L 5.90625 8.007812 L 5.386719 8.003906 C 5.101562 8 4.453125 7.996094 3.945312 7.992188 Z M 3.945312 7.992188 "/>
<path style=" stroke:none;fill-rule:nonzero;fill:rgb(100%,100%,100%);fill-opacity:1;" d="M 6.21875 14.988281 C 5.578125 14.9375 4.957031 14.707031 4.421875 14.3125 C 4.347656 14.261719 4.199219 14.128906 4.085938 14.019531 C 3.542969 13.492188 3.207031 12.878906 3.046875 12.128906 C 2.980469 11.804688 2.96875 11.425781 2.988281 10.109375 L 3.003906 9.101562 L 9.957031 9.101562 L 9.957031 9.820312 C 9.960938 10.214844 9.96875 10.742188 9.976562 10.992188 C 9.988281 11.265625 9.988281 11.539062 9.976562 11.679688 C 9.847656 13.269531 8.734375 14.578125 7.230469 14.914062 C 7.015625 14.960938 6.898438 14.976562 6.550781 14.996094 C 6.488281 15 6.339844 14.996094 6.21875 14.988281 Z M 6.21875 14.988281 "/>
<path style=" stroke:none;fill-rule:nonzero;fill:rgb(100%,100%,100%);fill-opacity:1;" d="M 8.058594 8.011719 L 7.0625 8.007812 L 7.074219 7.789062 C 7.082031 7.667969 7.085938 6.769531 7.085938 5.792969 L 7.085938 4.019531 L 7.855469 4.027344 C 8.578125 4.035156 8.636719 4.039062 8.78125 4.082031 C 9.292969 4.238281 9.703125 4.613281 9.902344 5.121094 C 10.011719 5.398438 10.023438 5.535156 10.011719 6.523438 C 10.003906 7.015625 9.992188 7.558594 9.984375 7.726562 L 9.972656 8.027344 L 9.515625 8.023438 C 9.265625 8.023438 8.609375 8.015625 8.058594 8.011719 Z M 8.058594 8.011719 "/>
<path style=" stroke:none;fill-rule:nonzero;fill:rgb(100%,100%,100%);fill-opacity:1;" d="M 15.046875 4.046875 L 14.753906 3.539062 L 14.796875 3.429688 C 14.835938 3.335938 14.84375 3.328125 14.867188 3.351562 C 14.878906 3.371094 15.015625 3.609375 15.171875 3.878906 C 15.355469 4.203125 15.449219 4.386719 15.441406 4.410156 C 15.433594 4.429688 15.40625 4.472656 15.382812 4.5 L 15.335938 4.554688 Z M 15.046875 4.046875 "/>
<path style=" stroke:none;fill-rule:nonzero;fill:rgb(100%,100%,100%);fill-opacity:1;" d="M 15.199219 3.652344 L 14.878906 3.101562 L 14.910156 2.992188 L 14.945312 2.882812 L 15.28125 3.464844 L 15.617188 4.042969 L 15.574219 4.125 C 15.550781 4.171875 15.53125 4.210938 15.527344 4.207031 C 15.523438 4.207031 15.378906 3.960938 15.199219 3.652344 Z M 15.199219 3.652344 "/>
<path style=" stroke:none;fill-rule:nonzero;fill:rgb(100%,100%,100%);fill-opacity:1;" d="M 15.386719 2.808594 C 15.179688 2.4375 15.003906 2.109375 15 2.074219 C 14.996094 2.03125 15 2.015625 15.011719 2.03125 C 15.023438 2.042969 15.207031 2.351562 15.417969 2.71875 C 15.738281 3.273438 15.800781 3.394531 15.789062 3.433594 C 15.773438 3.476562 15.71875 3.390625 15.386719 2.808594 Z M 15.386719 2.808594 "/>
<path style=" stroke:none;fill-rule:nonzero;fill:rgb(100%,100%,100%);fill-opacity:1;" d="M 15.441406 3.453125 C 15.304688 3.226562 15.144531 2.957031 15.085938 2.851562 L 14.972656 2.664062 L 14.988281 2.523438 L 15.007812 2.382812 L 15.742188 3.699219 L 15.710938 3.78125 L 15.683594 3.867188 Z M 15.441406 3.453125 "/>
</g>
</svg>
