<?xml version="1.0" encoding="UTF-8"?>
<svg xmlns="http://www.w3.org/2000/svg" xmlns:xlink="http://www.w3.org/1999/xlink" width="28" height="28" viewBox="0 0 28 28" version="1.1">
<g id="surface1">
<path style=" stroke:none;fill-rule:evenodd;fill:rgb(20%,20%,20%);fill-opacity:1;" d="M 3.53125 8.617188 L 6.511719 11.53125 L 6.417969 7.441406 L 3.527344 7.429688 Z M 3.53125 8.617188 "/>
<path style="fill-rule:evenodd;fill:rgb(94.901961%,94.901961%,94.901961%);fill-opacity:1;stroke-width:5.03546;stroke-linecap:butt;stroke-linejoin:miter;stroke:rgb(68.627451%,68.627451%,68.627451%);stroke-opacity:1;stroke-miterlimit:4;" d="M 97.02846 1029.831488 L 433.942522 1028.645662 L 435.128348 664.806376 L 347.02846 575.590416 L 97.02846 575.590416 Z M 97.02846 1029.831488 " transform="matrix(0.056,0,0,0.056,0,-30.932282)"/>
<path style="fill-rule:evenodd;fill:rgb(68.627451%,68.627451%,68.627451%);fill-opacity:1;stroke-width:5.03546;stroke-linecap:butt;stroke-linejoin:miter;stroke:rgb(68.627451%,68.627451%,68.627451%);stroke-opacity:1;stroke-miterlimit:4;" d="M 431.501116 662.923006 L 349.330357 662.36497 L 350.097656 578.520104 Z M 431.501116 662.923006 " transform="matrix(0.056,0,0,0.056,0,-30.932282)"/>
<path style=" stroke:none;fill-rule:nonzero;fill:rgb(22.352941%,25.098039%,31.372549%);fill-opacity:1;" d="M 3.535156 3.910156 L 16.132812 3.910156 L 16.132812 8.632812 L 3.535156 8.632812 Z M 3.535156 3.910156 "/>
<path style=" stroke:none;fill-rule:evenodd;fill:rgb(60%,60%,60%);fill-opacity:1;" d="M 16.683594 26.371094 C 12.949219 27.359375 9.117188 25.132812 8.128906 21.398438 C 7.136719 17.660156 9.367188 13.832031 13.101562 12.839844 L 14.773438 19.148438 C 14.519531 19.214844 14.367188 19.476562 14.433594 19.726562 C 14.5 19.980469 14.761719 20.132812 15.015625 20.0625 Z M 13.101562 12.839844 C 16.835938 11.851562 20.667969 14.078125 21.65625 17.8125 C 22.648438 21.550781 20.421875 25.382812 16.683594 26.371094 L 15.015625 20.0625 C 15.265625 19.996094 15.417969 19.738281 15.351562 19.484375 C 15.285156 19.230469 15.023438 19.082031 14.773438 19.148438 Z M 13.101562 12.839844 "/>
<path style=" stroke:none;fill-rule:evenodd;fill:rgb(80%,80%,80%);fill-opacity:1;" d="M 16.683594 26.371094 C 12.949219 27.359375 9.117188 25.132812 8.128906 21.398438 C 7.136719 17.660156 9.367188 13.832031 13.101562 12.839844 L 14.773438 19.148438 C 14.519531 19.214844 14.367188 19.476562 14.433594 19.726562 C 14.5 19.980469 14.761719 20.132812 15.015625 20.0625 Z M 13.101562 12.839844 C 16.835938 11.851562 20.667969 14.078125 21.65625 17.8125 C 22.648438 21.550781 20.421875 25.382812 16.683594 26.371094 L 15.015625 20.0625 C 15.265625 19.996094 15.417969 19.738281 15.351562 19.484375 C 15.285156 19.230469 15.023438 19.082031 14.773438 19.148438 Z M 13.101562 12.839844 "/>
<path style=" stroke:none;fill-rule:evenodd;fill:rgb(36.470588%,41.568627%,48.235294%);fill-opacity:1;" d="M 15.53125 22.023438 C 14.199219 22.375 12.828125 21.582031 12.476562 20.246094 C 12.121094 18.910156 12.917969 17.542969 14.253906 17.1875 L 14.773438 19.148438 C 14.519531 19.214844 14.367188 19.476562 14.433594 19.726562 C 14.5 19.980469 14.761719 20.132812 15.015625 20.0625 Z M 14.253906 17.1875 C 15.585938 16.835938 16.957031 17.628906 17.308594 18.964844 C 17.664062 20.300781 16.867188 21.671875 15.53125 22.023438 L 15.015625 20.0625 C 15.265625 19.996094 15.417969 19.738281 15.351562 19.484375 C 15.285156 19.230469 15.023438 19.082031 14.773438 19.148438 Z M 14.253906 17.1875 "/>
<path style=" stroke:none;fill-rule:evenodd;fill:rgb(60%,60%,60%);fill-opacity:1;" d="M 15.429688 21.632812 C 14.308594 21.929688 13.160156 21.261719 12.863281 20.144531 C 12.566406 19.023438 13.234375 17.875 14.355469 17.578125 L 14.773438 19.148438 C 14.519531 19.214844 14.367188 19.476562 14.433594 19.726562 C 14.5 19.980469 14.761719 20.132812 15.015625 20.0625 Z M 14.355469 17.578125 C 15.476562 17.28125 16.625 17.949219 16.921875 19.070312 C 17.21875 20.1875 16.550781 21.335938 15.429688 21.632812 L 15.015625 20.0625 C 15.265625 19.996094 15.417969 19.738281 15.351562 19.484375 C 15.285156 19.230469 15.023438 19.082031 14.773438 19.148438 Z M 14.355469 17.578125 "/>
<path style=" stroke:none;fill-rule:evenodd;fill:rgb(36.470588%,41.568627%,48.235294%);fill-opacity:1;" d="M 15.117188 20.460938 C 14.648438 20.582031 14.164062 20.304688 14.039062 19.832031 C 13.914062 19.359375 14.195312 18.878906 14.667969 18.753906 L 14.773438 19.148438 C 14.519531 19.214844 14.367188 19.476562 14.433594 19.726562 C 14.5 19.980469 14.761719 20.132812 15.015625 20.0625 Z M 14.667969 18.753906 C 15.136719 18.628906 15.621094 18.910156 15.746094 19.378906 C 15.871094 19.851562 15.589844 20.335938 15.117188 20.460938 L 15.015625 20.0625 C 15.265625 19.996094 15.417969 19.738281 15.351562 19.484375 C 15.285156 19.230469 15.023438 19.082031 14.773438 19.148438 Z M 14.667969 18.753906 "/>
<path style="fill:none;stroke-width:9;stroke-linecap:butt;stroke-linejoin:miter;stroke:rgb(100%,100%,100%);stroke-opacity:1;stroke-miterlimit:4;" d="M 133.30165 354.132895 L 133.30165 304.676979 " transform="matrix(0.056,0,0,0.056,0.777295,-11.874411)"/>
<path style=" stroke:none;fill-rule:nonzero;fill:rgb(100%,100%,100%);fill-opacity:1;" d="M 8.003906 4.472656 L 8.5 4.472656 L 8.5 4.957031 L 8.003906 4.957031 Z M 8.003906 4.472656 "/>
<path style="fill:none;stroke-width:10;stroke-linecap:butt;stroke-linejoin:miter;stroke:rgb(100%,100%,100%);stroke-opacity:1;stroke-miterlimit:4;" d="M 200.892857 641.368876 C 200.892857 641.368876 191.615513 637.113854 182.826451 636.974345 C 173.967634 636.90459 168.526786 642.20593 168.247768 649.809166 C 167.898996 657.412403 172.154018 663.481041 187.290737 665.294657 C 202.49721 667.038519 201.590402 680.291867 199.707031 684.895662 C 197.823661 689.569211 189.034598 694.033497 180.036272 692.777916 C 171.037946 691.59209 163.574219 687.546331 163.574219 687.546331 " transform="matrix(0.056,0,0,0.056,0,-30.932282)"/>
<path style="fill:none;stroke-width:9;stroke-linecap:butt;stroke-linejoin:miter;stroke:rgb(100%,100%,100%);stroke-opacity:1;stroke-miterlimit:4;" d="M 239.397321 690.406265 C 227.399554 690.33651 216.029576 678.268988 215.959821 662.923006 C 215.890067 647.646778 227.957589 635.369992 240.094866 635.718765 C 252.232143 636.067537 262.834821 647.646778 263.044085 663.899568 C 263.253348 680.152358 251.464844 690.545773 239.397321 690.406265 Z M 239.397321 690.406265 " transform="matrix(0.056,0,0,0.056,0,-30.932282)"/>
</g>
</svg>
