<?xml version="1.0" encoding="UTF-8"?>
<svg xmlns="http://www.w3.org/2000/svg" xmlns:xlink="http://www.w3.org/1999/xlink" width="28" height="28" viewBox="0 0 28 28" version="1.1">
<g id="surface1">
<path style=" stroke:none;fill-rule:evenodd;fill:rgb(15.686275%,9.019608%,4.313725%);fill-opacity:1;" d="M 3.539062 8.648438 L 6.519531 11.566406 L 6.425781 7.476562 L 3.535156 7.460938 Z M 3.539062 8.648438 "/>
<path style="fill-rule:evenodd;fill:rgb(94.901961%,94.901961%,94.901961%);fill-opacity:1;stroke-width:5.03546;stroke-linecap:butt;stroke-linejoin:miter;stroke:rgb(68.627451%,68.627451%,68.627451%);stroke-opacity:1;stroke-miterlimit:4;" d="M 96.888951 1029.831488 L 433.803013 1028.645662 L 434.988839 664.806376 L 346.888951 575.590416 L 96.888951 575.590416 Z M 96.888951 1029.831488 " transform="matrix(0.056,0,0,0.056,0,-30.932282)"/>
<path style="fill-rule:evenodd;fill:rgb(68.627451%,68.627451%,68.627451%);fill-opacity:1;stroke-width:5.03546;stroke-linecap:butt;stroke-linejoin:miter;stroke:rgb(68.627451%,68.627451%,68.627451%);stroke-opacity:1;stroke-miterlimit:4;" d="M 431.361607 662.923006 L 349.190848 662.36497 L 349.958147 578.520104 Z M 431.361607 662.923006 " transform="matrix(0.056,0,0,0.056,0,-30.932282)"/>
<path style=" stroke:none;fill-rule:nonzero;fill:rgb(31.372549%,17.647059%,8.627451%);fill-opacity:1;" d="M 3.527344 3.910156 L 16.125 3.910156 L 16.125 8.632812 L 3.527344 8.632812 Z M 3.527344 3.910156 "/>
<path style="fill:none;stroke-width:9.063828;stroke-linecap:butt;stroke-linejoin:miter;stroke:rgb(100%,100%,100%);stroke-opacity:1;stroke-miterlimit:4;" d="M 139.229911 693.893988 L 139.229911 637.462626 C 139.229911 637.462626 170.061384 631.533497 169.921875 651.762291 C 169.852121 672.06084 139.857701 666.480483 139.857701 666.480483 " transform="matrix(0.056,0,0,0.056,0,-30.932282)"/>
<path style="fill-rule:nonzero;fill:rgb(31.372549%,17.647059%,8.627451%);fill-opacity:1;stroke-width:0.759318;stroke-linecap:butt;stroke-linejoin:miter;stroke:rgb(0%,0%,0%);stroke-opacity:1;stroke-miterlimit:4;" d="M 233.886719 776.134501 C 230.189732 776.692537 226.981027 778.645662 223.493304 779.831488 C 216.09933 784.574791 210.170201 791.89901 208.635603 800.618318 C 204.031808 815.476019 190.429688 825.241644 185.686384 839.959836 C 181.780134 849.446443 174.804688 856.840416 168.247768 864.443653 C 163.783482 870.02401 164.271763 877.627247 162.248884 884.184166 C 160.295759 885.997782 158.90067 890.043541 162.597656 890.531823 C 162.458147 893.880037 160.15625 897.577023 162.597656 900.785729 C 164.481027 907.761175 167.829241 914.457604 171.107701 920.875015 C 171.735491 923.246666 175.78125 925.96709 176.40904 922.200349 C 176.897321 916.759501 179.199219 910.34209 175.432478 905.598787 C 172.991071 899.460394 174.944196 892.973229 176.130022 886.90459 C 175.571987 883.137849 176.897321 878.813073 178.920201 875.813631 C 181.012835 876.929702 180.31529 880.696443 181.152344 882.789077 C 183.175223 897.437515 183.733259 912.643988 180.036272 927.083162 C 178.710938 932.733273 180.94308 938.732157 179.617746 944.312515 C 174.874442 949.474345 178.571429 956.868318 178.920201 962.867202 C 181.291853 974.027916 180.036272 985.676912 176.688058 996.349345 C 176.618304 1000.116086 175.223214 1003.673564 174.455915 1007.300796 C 175.78125 1011.90459 182.128906 1013.508943 186.314174 1012.462626 C 188.964844 1010.64901 193.987165 1014.066979 195.242746 1009.811956 C 195.591518 1005.277916 191.127232 1001.859948 191.545759 997.186398 C 188.685826 984.421331 186.662946 971.167983 189.313616 958.123898 C 190.708705 950.590416 190.220424 942.498898 192.313058 935.244434 C 196.986607 929.315305 200.195312 922.339858 202.218192 915.01564 C 205.008371 908.947001 206.752232 901.622782 208.426339 895.833162 C 215.750558 907.551912 220.075335 921.572559 218.191964 935.523452 C 218.470982 941.034055 215.053013 947.381711 219.587054 951.706488 C 225.167411 960.425796 232.212612 968.587068 235.00279 978.631711 C 235.212054 982.816979 229.561942 982.886733 228.097098 986.304702 C 224.748884 991.11776 225.097656 997.256153 224.748884 1002.83651 C 227.887835 1004.022336 232.491629 1007.300796 235.142299 1003.394546 C 237.723214 1000.674122 238.839286 995.861064 241.489955 993.76843 C 243.164062 996.907381 241.629464 1001.999456 245.884487 1003.534055 C 252.022879 1005.766198 259.06808 1006.324233 265.485491 1004.85939 C 268.694196 1001.999456 264.299665 998.023452 261.509487 996.907381 C 256.905692 995.582046 254.185268 991.954814 252.65067 987.630037 C 251.185826 985.258385 250.139509 982.468206 252.929688 980.584836 C 259.626116 972.563073 268.694196 967.191979 275.739397 959.728251 C 279.99442 953.799122 278.878348 945.568095 277.273996 938.941421 C 275.251116 935.035171 273.856027 930.989412 274.902344 926.594881 C 275.669643 922.82814 273.088728 918.852135 273.228237 915.503921 C 276.925223 915.294657 281.25 915.364412 284.598214 916.619992 C 285.505022 922.618876 284.179688 929.036287 285.923549 934.825907 C 288.713728 937.546331 290.039062 941.801354 290.248326 945.637849 C 292.829241 948.916309 291.155134 953.659613 291.922433 957.565863 C 290.248326 964.053028 292.619978 970.400684 294.573103 976.469323 C 298.200335 988.118318 296.665737 1000.604367 299.734933 1012.253363 C 302.106585 1015.601577 298.13058 1021.11218 302.734375 1023.274568 C 309.84933 1025.925238 319.335938 1026.692537 325.404576 1021.321443 C 327.218192 1017.694211 321.777344 1015.531823 319.196429 1014.415751 C 315.499442 1013.578698 312.709263 1010.997782 311.941964 1007.231041 C 306.291853 995.6518 303.571429 982.747224 305.524554 969.842648 C 305.803571 963.634501 306.710379 957.496108 308.244978 951.636733 C 309.012277 945.568095 309.151786 939.359948 310.895647 933.640081 C 311.941964 925.618318 310.198103 917.108273 312.430246 909.226019 C 316.057478 911.597671 319.963728 913.899568 324.288504 914.24834 C 327.148438 916.410729 330.147879 914.24834 331.682478 911.667425 C 333.914621 908.598229 336.635045 916.89901 338.727679 912.643988 C 341.238839 909.784055 344.587054 907.691421 347.446987 905.389523 C 349.121094 902.738854 352.469308 902.808608 354.84096 901.622782 C 356.515067 899.460394 353.794643 896.042425 356.794085 894.368318 C 357.840402 891.647894 360.491071 895.275126 361.676897 892.694211 C 363.002232 889.834278 362.792969 885.928028 366.210938 884.742202 C 372.34933 879.789635 370.535714 870.861064 371.651786 863.885617 C 371.582031 856.910171 372.907366 849.585952 371.233259 842.889523 C 369.280134 837.657939 366.001674 832.286845 364.676339 826.985506 C 370.675223 822.172448 381.347656 826.148452 385.46317 818.266198 C 387.276786 812.476577 381.626674 807.52401 377.999442 803.827023 C 374.37221 800.478809 368.722098 802.083162 364.327567 800.409055 C 360.909598 799.223229 355.608259 800.548564 354.771205 795.875015 C 353.306362 792.247782 348.842076 792.247782 346.470424 789.457604 C 342.633929 787.504479 339.146205 792.038519 335.379464 792.387291 C 331.194196 795.316979 326.381138 798.176912 323.730469 802.571443 C 322.614397 805.501131 323.59096 809.337626 320.452009 811.151242 C 315.220424 817.150126 317.382812 826.008943 316.894531 833.333162 C 316.964286 836.681376 316.894531 840.099345 318.777902 842.819769 C 319.05692 846.935282 322.823661 849.585952 322.126116 853.840974 C 321.637835 856.631153 324.079241 862.560282 319.475446 861.234948 C 318.080357 858.93305 318.289621 854.957046 316.964286 852.236622 C 313.12779 840.448117 307.33817 827.613296 295.689174 821.684166 C 287.527902 815.685282 281.668527 806.965974 278.250558 797.549122 C 275.041853 792.736064 269.112723 789.736622 266.601562 784.574791 C 263.253348 783.109948 259.277344 783.598229 255.929129 781.784613 C 251.813616 779.970997 248.116629 776.622782 243.164062 777.250573 C 239.955357 777.459836 236.955915 776.343765 233.886719 776.134501 Z M 239.885603 908.45872 C 242.745536 909.365528 241.838728 913.829814 242.885045 916.131711 C 244.210379 919.340416 243.094308 925.060282 246.861049 926.73439 C 248.953683 930.222113 247.628348 934.965416 249.790737 938.243876 C 249.302455 940.545773 248.535156 944.87055 252.162388 944.940305 C 255.371094 944.661287 256.208147 948.218765 258.510045 949.823117 C 260.602679 952.752805 262.904576 956.938073 259.695871 960.007269 C 256.55692 963.843765 254.394531 969.772894 248.604911 969.982157 C 246.233259 970.191421 242.954799 973.888407 241.838728 970.051912 C 237.792969 963.14622 234.235491 955.752247 235.072545 947.451465 C 235.142299 934.477135 238.071987 921.712068 239.53683 908.947001 C 239.467076 908.598229 239.606585 908.45872 239.885603 908.45872 Z M 239.885603 908.45872 " transform="matrix(0.056,0,0,0.056,0,-30.932282)"/>
<path style="fill:none;stroke-width:9;stroke-linecap:butt;stroke-linejoin:miter;stroke:rgb(100%,100%,100%);stroke-opacity:1;stroke-miterlimit:4;" d="M 192.243304 633.695885 L 192.522321 688.243876 L 224.330357 688.522894 " transform="matrix(0.056,0,0,0.056,0,-30.932282)"/>
</g>
</svg>
