<?xml version="1.0" encoding="UTF-8"?>
<svg xmlns="http://www.w3.org/2000/svg" xmlns:xlink="http://www.w3.org/1999/xlink" width="28" height="28" viewBox="0 0 28 28" version="1.1">
<g id="surface1">
<path style=" stroke:none;fill-rule:evenodd;fill:rgb(10.196078%,10.196078%,10.196078%);fill-opacity:1;" d="M 3.546875 8.648438 L 6.527344 11.566406 L 6.433594 7.476562 L 3.542969 7.460938 Z M 3.546875 8.648438 "/>
<path style="fill-rule:evenodd;fill:rgb(94.901961%,94.901961%,94.901961%);fill-opacity:1;stroke-width:5.03546;stroke-linecap:butt;stroke-linejoin:miter;stroke:rgb(68.627451%,68.627451%,68.627451%);stroke-opacity:1;stroke-miterlimit:4;" d="M 97.02846 1029.831488 L 433.942522 1028.645662 L 435.128348 664.806376 L 347.02846 575.590416 L 97.02846 575.590416 Z M 97.02846 1029.831488 " transform="matrix(0.056,0,0,0.056,0,-30.932282)"/>
<path style="fill-rule:evenodd;fill:rgb(68.627451%,68.627451%,68.627451%);fill-opacity:1;stroke-width:5.03546;stroke-linecap:butt;stroke-linejoin:miter;stroke:rgb(68.627451%,68.627451%,68.627451%);stroke-opacity:1;stroke-miterlimit:4;" d="M 431.501116 662.923006 L 349.330357 662.36497 L 350.097656 578.520104 Z M 431.501116 662.923006 " transform="matrix(0.056,0,0,0.056,0,-30.932282)"/>
<path style=" stroke:none;fill-rule:nonzero;fill:rgb(22.352941%,25.098039%,31.372549%);fill-opacity:1;" d="M 3.535156 3.910156 L 16.132812 3.910156 L 16.132812 8.632812 L 3.535156 8.632812 Z M 3.535156 3.910156 "/>
<path style=" stroke:none;fill-rule:nonzero;fill:rgb(22.352941%,25.098039%,31.372549%);fill-opacity:1;" d="M 14.253906 26.496094 C 14.128906 26.441406 14 26.300781 13.941406 26.160156 C 13.910156 26.089844 13.882812 25.8125 13.855469 25.371094 C 13.835938 24.996094 13.804688 24.660156 13.792969 24.625 C 13.773438 24.574219 13.6875 24.53125 13.476562 24.457031 C 13.3125 24.398438 13.070312 24.296875 12.933594 24.230469 C 12.800781 24.160156 12.660156 24.105469 12.625 24.105469 C 12.582031 24.105469 12.363281 24.285156 12.046875 24.574219 C 11.765625 24.832031 11.488281 25.066406 11.433594 25.097656 C 11.316406 25.15625 11.0625 25.164062 10.925781 25.117188 C 10.820312 25.074219 9.703125 23.972656 9.628906 23.835938 C 9.558594 23.703125 9.566406 23.453125 9.644531 23.296875 C 9.683594 23.230469 9.917969 22.949219 10.171875 22.675781 C 10.445312 22.378906 10.632812 22.148438 10.632812 22.113281 C 10.632812 22.078125 10.578125 21.9375 10.507812 21.800781 C 10.441406 21.667969 10.339844 21.425781 10.28125 21.265625 C 10.226562 21.105469 10.15625 20.960938 10.128906 20.945312 C 10.101562 20.933594 9.773438 20.902344 9.398438 20.882812 C 8.964844 20.859375 8.671875 20.828125 8.585938 20.796875 C 8.425781 20.742188 8.242188 20.542969 8.214844 20.398438 C 8.203125 20.34375 8.199219 19.917969 8.203125 19.453125 L 8.214844 18.609375 L 8.3125 18.488281 C 8.484375 18.273438 8.5625 18.253906 9.378906 18.203125 C 9.84375 18.175781 10.125 18.144531 10.148438 18.121094 C 10.167969 18.101562 10.238281 17.941406 10.300781 17.765625 C 10.367188 17.59375 10.46875 17.355469 10.527344 17.238281 C 10.585938 17.121094 10.632812 17 10.632812 16.96875 C 10.632812 16.9375 10.4375 16.699219 10.203125 16.441406 C 9.964844 16.179688 9.738281 15.925781 9.699219 15.871094 C 9.585938 15.722656 9.550781 15.539062 9.59375 15.359375 C 9.628906 15.222656 9.6875 15.148438 10.203125 14.625 C 10.519531 14.308594 10.828125 14.019531 10.890625 13.984375 C 11.042969 13.910156 11.28125 13.90625 11.429688 13.984375 C 11.492188 14.015625 11.765625 14.246094 12.039062 14.496094 C 12.3125 14.746094 12.554688 14.964844 12.578125 14.976562 C 12.601562 14.992188 12.746094 14.9375 12.925781 14.855469 C 13.097656 14.773438 13.351562 14.667969 13.492188 14.621094 C 13.683594 14.558594 13.757812 14.515625 13.78125 14.460938 C 13.800781 14.417969 13.835938 14.078125 13.855469 13.703125 C 13.898438 12.984375 13.921875 12.871094 14.070312 12.714844 C 14.234375 12.542969 14.328125 12.53125 15.25 12.542969 L 16.09375 12.550781 L 16.222656 12.636719 C 16.449219 12.785156 16.476562 12.878906 16.53125 13.679688 C 16.554688 14.066406 16.582031 14.414062 16.589844 14.453125 C 16.605469 14.503906 16.671875 14.539062 16.898438 14.621094 C 17.058594 14.675781 17.316406 14.785156 17.46875 14.859375 C 17.621094 14.9375 17.757812 15 17.773438 15 C 17.789062 15 18.03125 14.785156 18.320312 14.523438 C 18.605469 14.261719 18.890625 14.019531 18.957031 13.988281 C 19.105469 13.90625 19.335938 13.90625 19.5 13.988281 C 19.582031 14.027344 19.847656 14.273438 20.1875 14.613281 C 20.765625 15.199219 20.8125 15.265625 20.8125 15.53125 C 20.8125 15.71875 20.730469 15.839844 20.230469 16.386719 C 19.960938 16.6875 19.738281 16.941406 19.738281 16.957031 C 19.738281 16.972656 19.808594 17.132812 19.894531 17.3125 C 19.980469 17.492188 20.085938 17.746094 20.125 17.875 C 20.175781 18.03125 20.21875 18.117188 20.261719 18.132812 C 20.296875 18.148438 20.644531 18.179688 21.035156 18.203125 C 21.816406 18.253906 21.941406 18.285156 22.074219 18.46875 C 22.195312 18.644531 22.210938 18.773438 22.199219 19.621094 L 22.1875 20.433594 L 22.09375 20.570312 C 21.921875 20.808594 21.882812 20.820312 21.015625 20.878906 C 20.59375 20.90625 20.242188 20.9375 20.234375 20.945312 C 20.222656 20.953125 20.171875 21.089844 20.117188 21.246094 C 20.0625 21.402344 19.953125 21.65625 19.875 21.808594 C 19.796875 21.960938 19.738281 22.105469 19.746094 22.128906 C 19.75 22.152344 19.960938 22.398438 20.214844 22.671875 C 20.464844 22.945312 20.703125 23.234375 20.742188 23.3125 C 20.824219 23.476562 20.832031 23.648438 20.765625 23.8125 C 20.703125 23.957031 19.675781 25 19.511719 25.085938 C 19.371094 25.160156 19.117188 25.167969 18.96875 25.105469 C 18.914062 25.082031 18.632812 24.84375 18.347656 24.582031 C 18.0625 24.320312 17.804688 24.105469 17.773438 24.105469 C 17.746094 24.105469 17.585938 24.171875 17.417969 24.25 C 17.246094 24.328125 16.996094 24.429688 16.859375 24.476562 C 16.667969 24.539062 16.605469 24.574219 16.589844 24.625 C 16.582031 24.660156 16.554688 25.007812 16.53125 25.394531 C 16.472656 26.246094 16.441406 26.339844 16.144531 26.488281 C 16.058594 26.53125 15.914062 26.539062 15.195312 26.539062 C 14.558594 26.539062 14.324219 26.527344 14.253906 26.496094 Z M 15.503906 22.714844 C 16.265625 22.632812 16.90625 22.328125 17.449219 21.785156 C 17.863281 21.367188 18.128906 20.90625 18.292969 20.316406 C 18.390625 19.949219 18.390625 19.136719 18.289062 18.765625 C 17.980469 17.636719 17.171875 16.804688 16.054688 16.464844 C 15.792969 16.386719 15.722656 16.378906 15.21875 16.378906 C 14.730469 16.375 14.628906 16.386719 14.394531 16.449219 C 13.21875 16.769531 12.320312 17.714844 12.070312 18.890625 C 11.851562 19.941406 12.175781 21.019531 12.945312 21.792969 C 13.347656 22.195312 13.871094 22.496094 14.4375 22.640625 C 14.597656 22.683594 14.828125 22.714844 15.15625 22.742188 C 15.179688 22.742188 15.335938 22.730469 15.503906 22.714844 Z M 14.71875 21.386719 C 13.910156 21.167969 13.347656 20.484375 13.296875 19.660156 C 13.261719 19.085938 13.449219 18.601562 13.855469 18.191406 C 14.601562 17.453125 15.789062 17.445312 16.523438 18.175781 C 17.125 18.78125 17.273438 19.636719 16.894531 20.390625 C 16.578125 21.03125 15.988281 21.410156 15.265625 21.4375 C 15.019531 21.449219 14.898438 21.4375 14.71875 21.386719 Z M 15.621094 20.589844 C 15.84375 20.507812 16.109375 20.261719 16.21875 20.03125 C 16.355469 19.6875 16.347656 19.292969 16.199219 19.019531 C 15.992188 18.636719 15.683594 18.445312 15.25 18.421875 C 14.898438 18.40625 14.691406 18.476562 14.4375 18.710938 C 14.117188 19 13.992188 19.40625 14.09375 19.808594 C 14.183594 20.15625 14.371094 20.390625 14.6875 20.554688 C 14.984375 20.703125 15.289062 20.714844 15.621094 20.589844 Z M 15.621094 20.589844 "/>
<path style="fill:none;stroke-width:9;stroke-linecap:butt;stroke-linejoin:miter;stroke:rgb(100%,100%,100%);stroke-opacity:1;stroke-miterlimit:4;" d="M 380.233677 670.746465 L 346.193499 670.327939 L 346.612026 618.570126 L 381.070731 618.709635 " transform="matrix(0.056,0,0,0.056,-12.668086,-29.792271)"/>
<path style="fill:none;stroke-width:9;stroke-linecap:butt;stroke-linejoin:miter;stroke:rgb(100%,100%,100%);stroke-opacity:1;stroke-miterlimit:4;" d="M 348.983677 642.356398 L 378.071289 642.495907 " transform="matrix(0.056,0,0,0.056,-12.668086,-29.792271)"/>
<path style="fill:none;stroke-width:9;stroke-linecap:butt;stroke-linejoin:miter;stroke:rgb(100%,100%,100%);stroke-opacity:1;stroke-miterlimit:4;" d="M 380.195169 670.736495 L 346.224744 670.317968 L 346.643271 618.560156 L 381.101977 618.769419 " transform="matrix(0.056,0,0,0.056,-6.548742,-29.7214)"/>
<path style="fill:none;stroke-width:9;stroke-linecap:butt;stroke-linejoin:miter;stroke:rgb(100%,100%,100%);stroke-opacity:1;stroke-miterlimit:4;" d="M 348.945169 642.346428 L 378.102535 642.485937 " transform="matrix(0.056,0,0,0.056,-6.548742,-29.7214)"/>
<path style="fill:none;stroke-width:9;stroke-linecap:butt;stroke-linejoin:miter;stroke:rgb(100%,100%,100%);stroke-opacity:1;stroke-miterlimit:4;" d="M 42.480021 990.886073 L 81.751784 1049.200805 " transform="matrix(0.056,0,0,0.056,7.089869,-50.743526)"/>
<path style="fill:none;stroke-width:9;stroke-linecap:butt;stroke-linejoin:miter;stroke:rgb(100%,100%,100%);stroke-opacity:1;stroke-miterlimit:4;" d="M 80.217186 990.886073 L 40.805914 1049.200805 " transform="matrix(0.056,0,0,0.056,7.089869,-50.743526)"/>
</g>
</svg>
