<?xml version="1.0" encoding="UTF-8"?>
<svg xmlns="http://www.w3.org/2000/svg" xmlns:xlink="http://www.w3.org/1999/xlink" width="28" height="28" viewBox="0 0 28 28" version="1.1">
<g id="surface1">
<path style=" stroke:none;fill-rule:evenodd;fill:rgb(20%,20%,20%);fill-opacity:1;" d="M 3.53125 8.335938 L 6.511719 11.253906 L 6.417969 7.164062 L 3.527344 7.148438 Z M 3.53125 8.335938 "/>
<path style="fill-rule:evenodd;fill:rgb(94.901961%,94.901961%,94.901961%);fill-opacity:1;stroke-width:5.03546;stroke-linecap:butt;stroke-linejoin:miter;stroke:rgb(68.627451%,68.627451%,68.627451%);stroke-opacity:1;stroke-miterlimit:4;" d="M 97.02846 1024.809166 L 433.942522 1023.693095 L 435.128348 659.784055 L 347.02846 570.568095 L 97.02846 570.568095 Z M 97.02846 1024.809166 " transform="matrix(0.056,0,0,0.056,0,-30.932282)"/>
<path style="fill-rule:evenodd;fill:rgb(68.627451%,68.627451%,68.627451%);fill-opacity:1;stroke-width:5.03546;stroke-linecap:butt;stroke-linejoin:miter;stroke:rgb(68.627451%,68.627451%,68.627451%);stroke-opacity:1;stroke-miterlimit:4;" d="M 431.501116 657.970439 L 349.330357 657.342648 L 350.097656 573.567537 Z M 431.501116 657.970439 " transform="matrix(0.056,0,0,0.056,0,-30.932282)"/>
<path style=" stroke:none;fill-rule:nonzero;fill:rgb(22.352941%,25.098039%,31.372549%);fill-opacity:1;" d="M 3.535156 3.628906 L 16.132812 3.628906 L 16.132812 8.351562 L 3.535156 8.351562 Z M 3.535156 3.628906 "/>
<path style=" stroke:none;fill-rule:evenodd;fill:rgb(60%,60%,60%);fill-opacity:1;" d="M 16.683594 26.089844 C 12.949219 27.082031 9.117188 24.855469 8.128906 21.117188 C 7.136719 17.382812 9.367188 13.550781 13.101562 12.5625 L 14.773438 18.867188 C 14.519531 18.933594 14.367188 19.195312 14.433594 19.449219 C 14.5 19.703125 14.761719 19.851562 15.015625 19.785156 Z M 13.101562 12.5625 C 16.835938 11.570312 20.667969 13.796875 21.65625 17.535156 C 22.648438 21.269531 20.421875 25.101562 16.683594 26.089844 L 15.015625 19.785156 C 15.265625 19.71875 15.417969 19.457031 15.351562 19.203125 C 15.285156 18.953125 15.023438 18.800781 14.773438 18.867188 Z M 13.101562 12.5625 "/>
<path style=" stroke:none;fill-rule:evenodd;fill:rgb(80%,80%,80%);fill-opacity:1;" d="M 16.683594 26.089844 C 12.949219 27.082031 9.117188 24.855469 8.128906 21.117188 C 7.136719 17.382812 9.367188 13.550781 13.101562 12.5625 L 14.773438 18.867188 C 14.519531 18.933594 14.367188 19.195312 14.433594 19.449219 C 14.5 19.703125 14.761719 19.851562 15.015625 19.785156 Z M 13.101562 12.5625 C 16.835938 11.570312 20.667969 13.796875 21.65625 17.535156 C 22.648438 21.269531 20.421875 25.101562 16.683594 26.089844 L 15.015625 19.785156 C 15.265625 19.71875 15.417969 19.457031 15.351562 19.203125 C 15.285156 18.953125 15.023438 18.800781 14.773438 18.867188 Z M 13.101562 12.5625 "/>
<path style=" stroke:none;fill-rule:evenodd;fill:rgb(36.470588%,41.568627%,48.235294%);fill-opacity:1;" d="M 15.53125 21.742188 C 14.199219 22.097656 12.828125 21.300781 12.476562 19.964844 C 12.121094 18.632812 12.917969 17.261719 14.253906 16.910156 L 14.773438 18.867188 C 14.519531 18.933594 14.367188 19.195312 14.433594 19.449219 C 14.5 19.703125 14.761719 19.851562 15.015625 19.785156 Z M 14.253906 16.910156 C 15.585938 16.554688 16.957031 17.351562 17.308594 18.6875 C 17.664062 20.019531 16.867188 21.390625 15.53125 21.742188 L 15.015625 19.785156 C 15.265625 19.71875 15.417969 19.457031 15.351562 19.203125 C 15.285156 18.953125 15.023438 18.800781 14.773438 18.867188 Z M 14.253906 16.910156 "/>
<path style=" stroke:none;fill-rule:evenodd;fill:rgb(60%,60%,60%);fill-opacity:1;" d="M 15.429688 21.355469 C 14.308594 21.652344 13.160156 20.984375 12.863281 19.863281 C 12.566406 18.742188 13.234375 17.59375 14.355469 17.296875 L 14.773438 18.867188 C 14.519531 18.933594 14.367188 19.195312 14.433594 19.449219 C 14.5 19.703125 14.761719 19.851562 15.015625 19.785156 Z M 14.355469 17.296875 C 15.476562 17 16.625 17.667969 16.921875 18.789062 C 17.21875 19.910156 16.550781 21.058594 15.429688 21.355469 L 15.015625 19.785156 C 15.265625 19.71875 15.417969 19.457031 15.351562 19.203125 C 15.285156 18.953125 15.023438 18.800781 14.773438 18.867188 Z M 14.355469 17.296875 "/>
<path style=" stroke:none;fill-rule:evenodd;fill:rgb(36.470588%,41.568627%,48.235294%);fill-opacity:1;" d="M 15.117188 20.179688 C 14.648438 20.304688 14.164062 20.023438 14.039062 19.550781 C 13.914062 19.082031 14.195312 18.597656 14.667969 18.472656 L 14.773438 18.867188 C 14.519531 18.933594 14.367188 19.195312 14.433594 19.449219 C 14.5 19.703125 14.761719 19.851562 15.015625 19.785156 Z M 14.667969 18.472656 C 15.136719 18.347656 15.621094 18.628906 15.746094 19.101562 C 15.871094 19.570312 15.589844 20.054688 15.117188 20.179688 L 15.015625 19.785156 C 15.265625 19.71875 15.417969 19.457031 15.351562 19.203125 C 15.285156 18.953125 15.023438 18.800781 14.773438 18.867188 Z M 14.667969 18.472656 "/>
<path style=" stroke:none;fill-rule:nonzero;fill:rgb(22.352941%,25.098039%,31.372549%);fill-opacity:1;" d="M 17.382812 24.746094 C 16.484375 25.226562 15.113281 25.058594 14.75 24.28125 C 14.382812 23.507812 14.976562 22.660156 15.949219 22.117188 C 16.921875 21.574219 17.871094 21.96875 17.871094 21.96875 L 17.941406 15.058594 L 18.640625 15.285156 L 19.097656 16.378906 C 19.097656 16.378906 20.792969 17.28125 21.183594 19.355469 C 21.574219 21.425781 19.121094 23.050781 19.121094 23.050781 C 19.121094 23.050781 21.1875 20.878906 20.679688 19.285156 C 20.167969 17.691406 18.597656 17.523438 18.597656 17.523438 L 18.644531 23.207031 C 18.644531 23.207031 18.285156 24.261719 17.382812 24.746094 Z M 17.382812 24.746094 "/>
<path style="fill:none;stroke-width:9;stroke-linecap:butt;stroke-linejoin:miter;stroke:rgb(100%,100%,100%);stroke-opacity:1;stroke-miterlimit:4;" d="M 153.529576 639.485506 C 153.529576 639.485506 145.926339 632.649568 132.045201 633.76564 C 118.164062 634.811956 110.281808 650.64622 110.979353 662.643988 C 111.746652 674.641756 122.279576 688.941421 135.881696 687.755595 C 149.414062 686.569769 153.529576 681.756711 153.529576 681.756711 " transform="matrix(0.056,0,0,0.056,0,-30.932282)"/>
<path style="fill:none;stroke-width:9;stroke-linecap:butt;stroke-linejoin:miter;stroke:rgb(100%,100%,100%);stroke-opacity:1;stroke-miterlimit:4;" d="M 168.387277 686.709278 L 168.875558 634.602693 C 168.875558 634.602693 208.775112 628.743318 209.263393 661.10939 C 209.751674 693.475461 168.387277 686.709278 168.387277 686.709278 Z M 168.387277 686.709278 " transform="matrix(0.056,0,0,0.056,0,-30.932282)"/>
<path style="fill:none;stroke-width:9;stroke-linecap:butt;stroke-linejoin:bevel;stroke:rgb(100%,100%,100%);stroke-opacity:1;stroke-miterlimit:4;" d="M 915.710519 696.280554 L 937.874721 638.030263 L 960.593027 696.280554 " transform="matrix(0.0563972,0,0,0.0563972,-39.331055,-31.490965)"/>
<path style="fill:none;stroke-width:9;stroke-linecap:butt;stroke-linejoin:miter;stroke:rgb(100%,100%,100%);stroke-opacity:1;stroke-miterlimit:4;" d="M 924.5762 676.748352 L 950.342084 676.748352 " transform="matrix(0.0563972,0,0,0.0563972,-39.331055,-31.490965)"/>
</g>
</svg>
