<?xml version="1.0" encoding="UTF-8"?>
<svg xmlns="http://www.w3.org/2000/svg" xmlns:xlink="http://www.w3.org/1999/xlink" width="28" height="28" viewBox="0 0 28 28" version="1.1">
<g id="surface1">
<path style=" stroke:none;fill-rule:evenodd;fill:rgb(0%,40%,50.196078%);fill-opacity:1;" d="M 3.53125 8.617188 L 6.511719 11.53125 L 6.417969 7.441406 L 3.527344 7.429688 Z M 3.53125 8.617188 "/>
<path style="fill-rule:evenodd;fill:rgb(94.901961%,94.901961%,94.901961%);fill-opacity:1;stroke-width:5.03546;stroke-linecap:butt;stroke-linejoin:miter;stroke:rgb(68.627451%,68.627451%,68.627451%);stroke-opacity:1;stroke-miterlimit:4;" d="M 97.02846 1029.831488 L 433.942522 1028.645662 L 435.128348 664.806376 L 347.02846 575.590416 L 97.02846 575.590416 Z M 97.02846 1029.831488 " transform="matrix(0.056,0,0,0.056,0,-30.932282)"/>
<path style="fill-rule:evenodd;fill:rgb(68.627451%,68.627451%,68.627451%);fill-opacity:1;stroke-width:5.03546;stroke-linecap:butt;stroke-linejoin:miter;stroke:rgb(68.627451%,68.627451%,68.627451%);stroke-opacity:1;stroke-miterlimit:4;" d="M 431.501116 662.923006 L 349.330357 662.36497 L 350.097656 578.520104 Z M 431.501116 662.923006 " transform="matrix(0.056,0,0,0.056,0,-30.932282)"/>
<path style=" stroke:none;fill-rule:nonzero;fill:rgb(0%,73.333333%,94.901961%);fill-opacity:1;" d="M 3.535156 3.910156 L 16.132812 3.910156 L 16.132812 8.632812 L 3.535156 8.632812 Z M 3.535156 3.910156 "/>
<path style=" stroke:none;fill-rule:nonzero;fill:rgb(0%,73.333333%,94.901961%);fill-opacity:1;" d="M 6.554688 19.644531 L 23.207031 19.644531 L 23.207031 20.324219 L 6.554688 20.324219 Z M 6.554688 19.644531 "/>
<path style=" stroke:none;fill-rule:nonzero;fill:rgb(0%,73.333333%,94.901961%);fill-opacity:1;" d="M 6.554688 21.351562 L 23.230469 21.351562 L 23.230469 22.03125 L 6.554688 22.03125 Z M 6.554688 21.351562 "/>
<path style=" stroke:none;fill-rule:nonzero;fill:rgb(0%,73.333333%,94.901961%);fill-opacity:1;" d="M 6.554688 22.902344 L 23.355469 22.902344 L 23.355469 23.585938 L 6.554688 23.585938 Z M 6.554688 22.902344 "/>
<path style=" stroke:none;fill-rule:nonzero;fill:rgb(0%,73.333333%,94.901961%);fill-opacity:1;" d="M 6.554688 24.386719 L 17.972656 24.386719 L 17.972656 25.066406 L 6.554688 25.066406 Z M 6.554688 24.386719 "/>
<path style="fill-rule:nonzero;fill:rgb(37.254902%,73.72549%,82.745098%);fill-opacity:1;stroke-width:4.506265;stroke-linecap:round;stroke-linejoin:round;stroke:rgb(0%,73.333333%,94.901961%);stroke-opacity:1;stroke-miterlimit:4;" d="M 265.78934 775.227314 L 413.529337 775.289065 L 413.531976 884.664064 L 265.792026 884.672067 Z M 265.78934 775.227314 " transform="matrix(0.056,0.0000294735,-0.0000370657,0.056,0,-30.932282)"/>
<path style=" stroke:none;fill-rule:nonzero;fill:rgb(98.039216%,92.54902%,42.745098%);fill-opacity:1;" d="M 22.390625 14.285156 C 22.390625 14.757812 22.007812 15.140625 21.53125 15.140625 C 21.058594 15.144531 20.675781 14.757812 20.675781 14.285156 C 20.671875 13.8125 21.054688 13.425781 21.53125 13.425781 C 22.003906 13.425781 22.390625 13.808594 22.390625 14.28125 "/>
<path style="fill-rule:nonzero;fill:rgb(0%,40%,50.196078%);fill-opacity:1;stroke-width:0.187761;stroke-linecap:butt;stroke-linejoin:miter;stroke:rgb(0%,0%,0%);stroke-opacity:1;stroke-miterlimit:4;" d="M 267.647879 842.261733 L 267.438616 882.789077 L 410.78404 882.649568 L 410.435268 849.167425 C 410.435268 849.167425 390.206473 855.584836 372.698103 853.631711 C 355.189732 851.608831 328.473772 831.5893 309.779576 830.822001 C 291.155134 830.054702 267.647879 842.261733 267.647879 842.261733 Z M 267.647879 842.261733 " transform="matrix(0.056,0,0,0.056,0,-30.932282)"/>
<path style=" stroke:none;fill-rule:nonzero;fill:rgb(0%,73.333333%,94.901961%);fill-opacity:1;" d="M 6.554688 18.042969 L 13.878906 18.042969 L 13.878906 18.722656 L 6.554688 18.722656 Z M 6.554688 18.042969 "/>
<path style=" stroke:none;fill-rule:nonzero;fill:rgb(0%,73.333333%,94.901961%);fill-opacity:1;" d="M 6.554688 16.492188 L 13.878906 16.492188 L 13.878906 17.171875 L 6.554688 17.171875 Z M 6.554688 16.492188 "/>
<path style=" stroke:none;fill-rule:nonzero;fill:rgb(0%,73.333333%,94.901961%);fill-opacity:1;" d="M 6.554688 15.007812 L 13.878906 15.007812 L 13.878906 15.6875 L 6.554688 15.6875 Z M 6.554688 15.007812 "/>
<path style=" stroke:none;fill-rule:nonzero;fill:rgb(0%,73.333333%,94.901961%);fill-opacity:1;" d="M 6.554688 13.558594 L 13.878906 13.558594 L 13.878906 14.238281 L 6.554688 14.238281 Z M 6.554688 13.558594 "/>
<path style=" stroke:none;fill-rule:nonzero;fill:rgb(0%,73.333333%,94.901961%);fill-opacity:1;" d="M 8.191406 12.183594 L 13.960938 12.183594 L 13.960938 12.863281 L 8.191406 12.863281 Z M 8.191406 12.183594 "/>
</g>
</svg>
