<?xml version="1.0" encoding="UTF-8"?>
<svg xmlns="http://www.w3.org/2000/svg" xmlns:xlink="http://www.w3.org/1999/xlink" width="256" height="256" viewBox="0 0 256 256" version="1.1">
<g id="surface1">
<path style=" stroke:none;fill-rule:nonzero;fill:rgb(100%,100%,100%);fill-opacity:1;" d="M 92.476562 144 C 86.507812 145.085938 81.664062 149.445312 79.96875 155.273438 C 78.273438 161.101562 80.023438 167.382812 84.476562 171.5 L 104.960938 191.984375 L 84.460938 212.476562 C 80.296875 216.578125 78.648438 222.59375 80.148438 228.242188 C 81.640625 233.890625 86.054688 238.296875 91.703125 239.796875 C 97.34375 241.289062 103.367188 239.648438 107.460938 235.476562 L 139.460938 203.476562 L 150.460938 191.976562 L 139.460938 180.476562 L 107.460938 148.476562 C 103.570312 144.460938 97.875 142.765625 92.421875 144 Z M 92.476562 144 "/>
<path style=" stroke:none;fill-rule:nonzero;fill:rgb(100%,100%,100%);fill-opacity:1;" d="M 64 48 C 37.6875 48 16 69.6875 16 96 L 16 160 C 16 186.3125 37.6875 208 64 208 L 128 208 L 128 176 L 64 176 C 54.859375 176 48 169.140625 48 160 L 48 96 C 48 86.859375 54.859375 80 64 80 L 192 80 C 201.140625 80 208 86.859375 208 96 L 208 160 C 208 169.140625 201.140625 176 192 176 L 176 176 L 176 208 L 192 208 C 218.3125 208 240 186.3125 240 160 L 240 96 C 240 69.6875 218.3125 48 192 48 Z M 64 48 "/>
<path style=" stroke:none;fill-rule:nonzero;fill:rgb(100%,100%,100%);fill-opacity:1;" d="M 96 144 L 80 144 L 80 160 L 96 160 Z M 96 144 "/>
<path style=" stroke:none;fill-rule:nonzero;fill:rgb(100%,100%,100%);fill-opacity:1;" d="M 96 224 L 80 224 L 80 240 L 96 240 Z M 96 224 "/>
</g>
</svg>
