<?xml version="1.0" encoding="UTF-8"?>
<svg xmlns="http://www.w3.org/2000/svg" xmlns:xlink="http://www.w3.org/1999/xlink" width="256" height="256" viewBox="0 0 256 256" version="1.1">
<g id="surface1">
<path style=" stroke:none;fill-rule:evenodd;fill:rgb(100%,100%,100%);fill-opacity:1;" d="M 128 0.960938 L 92 55.460938 L 37 36.960938 L 55.5 91.960938 L 1 127.960938 L 55.5 163.960938 L 37 218.960938 L 92 200.460938 L 128 254.960938 L 164 200.460938 L 219 218.960938 L 200.5 163.960938 L 255 127.960938 L 200.5 91.960938 L 219 36.960938 L 164 55.460938 Z M 128 73.460938 L 139.5 84.460938 L 171.5 116.460938 C 175.078125 120.078125 176.804688 125.4375 176 130.460938 L 176 143.960938 L 162 143.960938 C 157.132812 144.601562 152.007812 142.890625 148.5 139.460938 L 144 134.960938 L 144 175.960938 L 112 175.960938 L 112 134.960938 L 107.5 139.460938 C 104.445312 142.375 100.21875 144.03125 96 143.960938 L 80 143.960938 L 80 131.460938 C 79.984375 130.960938 79.984375 130.460938 80 129.960938 C 79.359375 125.09375 81.0625 119.96875 84.5 116.460938 L 116.5 84.460938 Z M 128 73.460938 "/>
</g>
</svg>
