<?xml version="1.0" encoding="UTF-8"?>
<svg xmlns="http://www.w3.org/2000/svg" xmlns:xlink="http://www.w3.org/1999/xlink" width="32" height="32" viewBox="0 0 32 32" version="1.1">
<g id="surface1">
<path style=" stroke:none;fill-rule:nonzero;fill:rgb(100%,100%,100%);fill-opacity:1;" d="M 15.84375 1.355469 C 15.324219 1.484375 14.9375 1.917969 14.867188 2.445312 C 14.867188 2.464844 14.867188 2.484375 14.867188 2.503906 C 14.847656 2.523438 14.828125 2.542969 14.808594 2.558594 C 14.808594 2.597656 14.808594 2.636719 14.808594 2.675781 C 14.777344 2.769531 14.757812 2.863281 14.753906 2.960938 L 14.808594 12.882812 L 11.484375 9.5 C 11.191406 9.074219 10.675781 8.863281 10.171875 8.964844 C 9.667969 9.058594 9.269531 9.449219 9.15625 9.949219 C 9.042969 10.449219 9.234375 10.972656 9.648438 11.277344 L 14.292969 15.980469 L 9.648438 20.625 C 9.144531 21.128906 9.144531 21.953125 9.648438 22.457031 C 10.15625 22.964844 10.976562 22.964844 11.484375 22.457031 L 14.867188 19.019531 L 14.925781 28.9375 C 14.933594 29.015625 14.953125 29.09375 14.980469 29.167969 C 14.980469 29.1875 14.980469 29.207031 14.980469 29.226562 C 14.921875 29.765625 15.207031 30.285156 15.691406 30.527344 C 16.179688 30.773438 16.765625 30.6875 17.160156 30.316406 L 23.582031 23.433594 C 24.039062 22.917969 24.011719 22.140625 23.527344 21.65625 L 17.90625 15.980469 L 23.527344 10.246094 C 24.011719 9.761719 24.039062 8.980469 23.582031 8.464844 L 17.046875 1.757812 C 16.742188 1.421875 16.285156 1.269531 15.84375 1.355469 Z M 16.589844 4.96875 L 20.832031 9.328125 L 16.644531 13.570312 Z M 16.703125 18.445312 L 20.832031 22.574219 L 16.761719 26.933594 Z M 16.703125 18.445312 "/>
</g>
</svg>
