<?xml version="1.0" encoding="UTF-8"?>
<svg xmlns="http://www.w3.org/2000/svg" xmlns:xlink="http://www.w3.org/1999/xlink" width="32" height="32" viewBox="0 0 32 32" version="1.1">
<g id="surface1">
<path style=" stroke:none;fill-rule:nonzero;fill:rgb(100%,100%,100%);fill-opacity:1;" d="M 11.558594 18 C 10.8125 18.136719 10.207031 18.679688 9.996094 19.410156 C 9.785156 20.136719 10.003906 20.921875 10.558594 21.4375 L 13.121094 23.996094 L 10.558594 26.558594 C 10.035156 27.070312 9.832031 27.824219 10.019531 28.53125 C 10.203125 29.234375 10.757812 29.785156 11.460938 29.972656 C 12.167969 30.160156 12.921875 29.957031 13.433594 29.433594 L 17.433594 25.433594 L 18.808594 23.996094 L 17.433594 22.558594 L 13.433594 18.558594 C 12.945312 18.058594 12.234375 17.84375 11.550781 18 Z M 11.558594 18 "/>
<path style=" stroke:none;fill-rule:nonzero;fill:rgb(100%,100%,100%);fill-opacity:1;" d="M 8 6 C 4.710938 6 2 8.710938 2 12 L 2 20 C 2 23.289062 4.710938 26 8 26 L 16 26 L 16 22 L 8 22 C 6.859375 22 6 21.140625 6 20 L 6 12 C 6 10.855469 6.859375 10 8 10 L 24 10 C 25.140625 10 26 10.855469 26 12 L 26 20 C 26 21.140625 25.140625 22 24 22 L 22 22 L 22 26 L 24 26 C 27.289062 26 30 23.289062 30 20 L 30 12 C 30 8.710938 27.289062 6 24 6 Z M 8 6 "/>
<path style=" stroke:none;fill-rule:nonzero;fill:rgb(100%,100%,100%);fill-opacity:1;" d="M 12 18 L 10 18 L 10 20 L 12 20 Z M 12 18 "/>
<path style=" stroke:none;fill-rule:nonzero;fill:rgb(100%,100%,100%);fill-opacity:1;" d="M 12 28 L 10 28 L 10 30 L 12 30 Z M 12 28 "/>
</g>
</svg>
