<?xml version="1.0" encoding="UTF-8"?>
<svg xmlns="http://www.w3.org/2000/svg" xmlns:xlink="http://www.w3.org/1999/xlink" width="32" height="32" viewBox="0 0 32 32" version="1.1">
<defs>
<filter id="alpha" filterUnits="objectBoundingBox" x="0%" y="0%" width="100%" height="100%">
  <feColorMatrix type="matrix" in="SourceGraphic" values="0 0 0 0 1 0 0 0 0 1 0 0 0 0 1 0 0 0 1 0"/>
</filter>
<image id="image13" width="32" height="32" xlink:href="data:image/png;base64,iVBORw0KGgoAAAANSUhEUgAAACAAAAAgCAYAAABzenr0AAAABmJLR0QA/wD/AP+gvaeTAAAAX0lEQVRYhe3XoRWAMBAE0QkXj6ODVESdlEIFdEAN5IEIhhhU3Ixcc99eYnD3tazUIz5jlJryuQHk0YB2fI9uA2YApuGAnwQIECBAgAABAgQIECBAwPjfMEptv2C32dsDJf0P9IJbL9gAAAAASUVORK5CYII="/>
<mask id="mask0">
  <g filter="url(#alpha)">
<use xlink:href="#image13"/>
  </g>
</mask>
<clipPath id="clip1">
  <rect x="0" y="0" width="32" height="32"/>
</clipPath>
<g id="surface12" clip-path="url(#clip1)">
<path style=" stroke:none;fill-rule:evenodd;fill:rgb(74.509804%,74.509804%,74.509804%);fill-opacity:1;" d="M 24 0 L 24 30 L 30 30 L 30 0 Z M 24 0 "/>
</g>
<image id="image22" width="32" height="32" xlink:href="data:image/png;base64,iVBORw0KGgoAAAANSUhEUgAAACAAAAAgCAYAAABzenr0AAAABmJLR0QA/wD/AP+gvaeTAAAAYklEQVRYhe3WsQ2AMAwF0R+cno4NMhFzMgoTsAEzYIUiFaksueSutOTklZaI/l7JPtCfbZdf9hla81LvI7Jfs4Dx+WnTTNIaWl/SgGQAAAAAAAAAAAAAAOSvYms+ruBpRsFeaasP6Ofbm44AAAAASUVORK5CYII="/>
<mask id="mask1">
  <g filter="url(#alpha)">
<use xlink:href="#image22"/>
  </g>
</mask>
<clipPath id="clip2">
  <rect x="0" y="0" width="32" height="32"/>
</clipPath>
<g id="surface21" clip-path="url(#clip2)">
<path style=" stroke:none;fill-rule:evenodd;fill:rgb(74.509804%,74.509804%,74.509804%);fill-opacity:1;" d="M 16 6 L 16 30 L 22 30 L 22 6 Z M 16 6 "/>
</g>
<image id="image31" width="32" height="32" xlink:href="data:image/png;base64,iVBORw0KGgoAAAANSUhEUgAAACAAAAAgCAYAAABzenr0AAAABmJLR0QA/wD/AP+gvaeTAAAAYklEQVRYhe2WoRGAQAwE78l7HB18RdRJKVTwHVADGRAo3kQQx668uUnWJRIAAPydEhWuc1nl3V6hNS/12DIEatjwbtJuQyZpztivKWUKAggggAACCCDwgfgfsObP/R8ySOIG0aEP3FYMRLMAAAAASUVORK5CYII="/>
<mask id="mask2">
  <g filter="url(#alpha)">
<use xlink:href="#image31"/>
  </g>
</mask>
<clipPath id="clip3">
  <rect x="0" y="0" width="32" height="32"/>
</clipPath>
<g id="surface30" clip-path="url(#clip3)">
<path style=" stroke:none;fill-rule:evenodd;fill:rgb(74.509804%,74.509804%,74.509804%);fill-opacity:1;" d="M 8 12 L 8 30 L 14 30 L 14 12 Z M 8 12 "/>
</g>
</defs>
<g id="surface4">
<use xlink:href="#surface12" mask="url(#mask0)"/>
<use xlink:href="#surface21" mask="url(#mask1)"/>
<use xlink:href="#surface30" mask="url(#mask2)"/>
<path style=" stroke:none;fill-rule:evenodd;fill:rgb(100%,100%,100%);fill-opacity:1;" d="M 0 18 L 0 30 L 6 30 L 6 18 Z M 0 18 "/>
</g>
</svg>
