<?xml version="1.0" encoding="UTF-8"?>
<svg xmlns="http://www.w3.org/2000/svg" xmlns:xlink="http://www.w3.org/1999/xlink" width="32" height="32" viewBox="0 0 32 32" version="1.1">
<defs>
<clipPath id="clip1">
  <path d="M 0 0 L 32 0 L 32 20 L 0 20 Z M 0 0 "/>
</clipPath>
<clipPath id="clip2">
  <path d="M 14 20 L 0 6 L 0 -3 L 33 -3 L 33 6 L 18 20 Z M 14 20 "/>
</clipPath>
<filter id="alpha" filterUnits="objectBoundingBox" x="0%" y="0%" width="100%" height="100%">
  <feColorMatrix type="matrix" in="SourceGraphic" values="0 0 0 0 1 0 0 0 0 1 0 0 0 0 1 0 0 0 1 0"/>
</filter>
<image id="image11" width="32" height="32" xlink:href="data:image/png;base64,iVBORw0KGgoAAAANSUhEUgAAACAAAAAgCAYAAABzenr0AAAABmJLR0QA/wD/AP+gvaeTAAAAZklEQVRYhe3XoRGAMBBE0Z9cPAXgMoNhaIKCqYESKCAdYNCIBARI9Bn2u1P77IH6ewHgOrcJ8ui6bEMNaV/Sc60RDnMF1AJ0RNfRjwQQQAABBBBAAAEEEEAAAd7PaG6Qq+uy9Q3gBh6ADVB1TBSOAAAAAElFTkSuQmCC"/>
<mask id="mask0">
  <g filter="url(#alpha)">
<use xlink:href="#image11"/>
  </g>
</mask>
<clipPath id="clip3">
  <rect x="0" y="0" width="32" height="32"/>
</clipPath>
<g id="surface10" clip-path="url(#clip3)">
<path style=" stroke:none;fill-rule:nonzero;fill:rgb(74.509804%,74.509804%,74.509804%);fill-opacity:1;" d="M 16 4 L 16 6 L 18 6 L 18 4.0625 C 17.351562 4.007812 16.679688 4 16 4 Z M 18 6 L 18 8 L 20 8 L 20 6 Z M 20 6 L 22 6 L 22 4.8125 C 21.347656 4.621094 20.695312 4.5 20 4.375 Z M 22 6 L 22 8 L 24 8 L 24 6 Z M 24 6 L 25 6 C 24.667969 5.832031 24.347656 5.710938 24 5.5625 Z M 24 8 L 24 10 L 26 10 L 26 8 Z M 26 8 L 28 8 L 28 10 L 30 10 C 28.882812 8.65625 27.539062 7.484375 26 6.5625 Z M 30 10 L 30 12 L 28 12 L 28 14 L 26 14 L 26 16 L 24 16 L 24 18 L 22 18 L 22 20 L 20 20 L 20 18 L 18 18 L 18 20 L 16 20 L 16 18 L 14 18 L 14 20 L 12 20 L 12 18 L 10 18 L 10 16 L 8 16 L 8 14 L 6 14 L 6 12 L 4 12 L 4 10 L 2.875 10 C -0.257812 13.703125 2 18.75 2 24 C 2 34.429688 4.78125 36 16 36 C 27.21875 36 30 34.429688 30 24 C 30 19.25 32.589844 13.117188 30 10 Z M 4 10 L 6 10 L 6 8 L 4.875 8 C 4.585938 8.246094 4.273438 8.484375 4 8.75 Z M 6 8 L 8 8 L 8 6 L 7.875 6 C 7.21875 6.347656 6.597656 6.699219 6 7.125 Z M 8 6 L 10 6 L 10 5 C 9.308594 5.25 8.636719 5.605469 8 5.9375 Z M 10 6 L 10 8 L 12 8 L 12 6 Z M 12 6 L 14 6 L 14 4.125 C 13.3125 4.195312 12.648438 4.292969 12 4.4375 Z M 14 6 L 14 8 L 16 8 L 16 6 Z M 16 8 L 16 10 L 18 10 L 18 8 Z M 18 10 L 18 12 L 20 12 L 20 10 Z M 20 10 L 22 10 L 22 8 L 20 8 Z M 22 10 L 22 12 L 24 12 L 24 10 Z M 24 12 L 24 14 L 26 14 L 26 12 Z M 26 12 L 28 12 L 28 10 L 26 10 Z M 24 14 L 22 14 L 22 16 L 24 16 Z M 22 16 L 20 16 L 20 18 L 22 18 Z M 20 16 L 20 14 L 18 14 L 18 16 Z M 18 16 L 16 16 L 16 18 L 18 18 Z M 16 16 L 16 14 L 14 14 L 14 16 Z M 14 16 L 12 16 L 12 18 L 14 18 Z M 12 16 L 12 14 L 10 14 L 10 16 Z M 10 14 L 10 12 L 8 12 L 8 14 Z M 8 12 L 8 10 L 6 10 L 6 12 Z M 8 10 L 10 10 L 10 8 L 8 8 Z M 10 10 L 10 12 L 12 12 L 12 10 Z M 12 10 L 14 10 L 14 8 L 12 8 Z M 14 10 L 14 12 L 16 12 L 16 10 Z M 16 12 L 16 14 L 18 14 L 18 12 Z M 14 12 L 12 12 L 12 14 L 14 14 Z M 20 14 L 22 14 L 22 12 L 20 12 Z M 20 14 "/>
</g>
</defs>
<g id="surface2">
<g clip-path="url(#clip1)" clip-rule="nonzero">
<g clip-path="url(#clip2)" clip-rule="nonzero">
<use xlink:href="#surface10" mask="url(#mask0)"/>
</g>
</g>
<path style=" stroke:none;fill-rule:nonzero;fill:rgb(100%,100%,100%);fill-opacity:1;" d="M 20 26 C 20 28.210938 18.210938 30 16 30 C 13.789062 30 12 28.210938 12 26 C 12 23.789062 13.789062 22 16 22 C 18.210938 22 20 23.789062 20 26 Z M 20 26 "/>
</g>
</svg>
