<?xml version="1.0" encoding="UTF-8"?>
<svg xmlns="http://www.w3.org/2000/svg" xmlns:xlink="http://www.w3.org/1999/xlink" width="32" height="32" viewBox="0 0 32 32" version="1.1">
<defs>
<filter id="alpha" filterUnits="objectBoundingBox" x="0%" y="0%" width="100%" height="100%">
  <feColorMatrix type="matrix" in="SourceGraphic" values="0 0 0 0 1 0 0 0 0 1 0 0 0 0 1 0 0 0 1 0"/>
</filter>
<image id="image12" width="32" height="32" xlink:href="data:image/png;base64,iVBORw0KGgoAAAANSUhEUgAAACAAAAAgCAYAAABzenr0AAAABmJLR0QA/wD/AP+gvaeTAAAAWklEQVRYhe3Quw2AMAxF0Rucno4NMhFzMgoTZANmwAoFGcAS7nineoXlH4iIiIiIyN+VaOG4tx3vBoA1L/U6Mhao4UrvBqfNDKwZ81lSunwQ/4A1fy+fWSTJA/d2D8CDIuVhAAAAAElFTkSuQmCC"/>
<mask id="mask0">
  <g filter="url(#alpha)">
<use xlink:href="#image12"/>
  </g>
</mask>
<clipPath id="clip1">
  <rect x="0" y="0" width="32" height="32"/>
</clipPath>
<g id="surface11" clip-path="url(#clip1)">
<path style=" stroke:none;fill-rule:nonzero;fill:rgb(74.509804%,74.509804%,74.509804%);fill-opacity:1;" d="M 10 24 L 14 24 L 14 28 L 10 28 Z M 10 24 "/>
</g>
<image id="image21" width="32" height="32" xlink:href="data:image/png;base64,iVBORw0KGgoAAAANSUhEUgAAACAAAAAgCAYAAABzenr0AAAABmJLR0QA/wD/AP+gvaeTAAAAV0lEQVRYhe3QOxWAMAyF4VvSnQ0HVYROpFQBDtBADgytgZyM/b/pLnlKAAAAAFZXsg2+9zjlt0mSrHmpzxWpr9kFxvBuM0vaQ+VbeoGk/Aes+bh8ZiDoB36HD8DoAIatAAAAAElFTkSuQmCC"/>
<mask id="mask1">
  <g filter="url(#alpha)">
<use xlink:href="#image21"/>
  </g>
</mask>
<clipPath id="clip2">
  <rect x="0" y="0" width="32" height="32"/>
</clipPath>
<g id="surface20" clip-path="url(#clip2)">
<path style=" stroke:none;fill-rule:nonzero;fill:rgb(74.509804%,74.509804%,74.509804%);fill-opacity:1;" d="M 16 24 L 20 24 L 20 28 L 16 28 Z M 16 24 "/>
</g>
</defs>
<g id="surface3">
<path style=" stroke:none;fill-rule:nonzero;fill:rgb(74.509804%,74.509804%,74.509804%);fill-opacity:1;" d="M 6 2 C 3.785156 2 2 3.785156 2 6 L 2 26 C 2 28.214844 3.785156 30 6 30 L 20 30 L 20 26 L 8 26 C 6.890625 26 6 25.109375 6 24 L 6 12 C 6 10.890625 6.890625 10 8 10 L 10 10 L 10 8 C 10 6.890625 10.890625 6 12 6 L 20 6 C 21.109375 6 21.933594 6.894531 22 8 L 22 10 L 24 10 C 25.109375 10 26 10.890625 26 12 L 26 20 L 30 20 L 30 6 C 30 3.785156 28.214844 2 26 2 Z M 6 2 "/>
<use xlink:href="#surface11" mask="url(#mask0)"/>
<path style=" stroke:none;fill-rule:nonzero;fill:rgb(74.509804%,74.509804%,74.509804%);fill-opacity:1;" d="M 22 22 L 24.75 22 L 27 24.1875 L 29.1875 22 L 32 22 L 32 24.9375 L 29.8125 27.0625 L 32 29.1875 L 32 32 L 29.125 32 L 27 29.875 L 24.875 32 L 22 32 L 22 29.1875 L 24.125 27.0625 L 22 24.9375 Z M 22 22 "/>
<use xlink:href="#surface20" mask="url(#mask1)"/>
<path style=" stroke:none;fill-rule:nonzero;fill:rgb(100%,100%,100%);fill-opacity:1;" d="M 4.945312 29.800781 C 3.578125 29.429688 2.4375 28.21875 2.148438 26.832031 C 2.046875 26.335938 2.011719 22.855469 2.035156 15.613281 L 2.074219 5.113281 L 2.398438 4.394531 C 2.820312 3.460938 3.84375 2.539062 4.757812 2.265625 C 5.347656 2.089844 6.988281 2.0625 16.058594 2.0625 C 26.457031 2.0625 26.691406 2.066406 27.421875 2.339844 C 28.410156 2.710938 29.289062 3.589844 29.660156 4.578125 C 29.929688 5.300781 29.9375 5.578125 29.9375 12.640625 L 29.9375 19.960938 L 26.007812 19.960938 L 26.007812 15.71875 C 26.007812 10.863281 25.992188 10.78125 24.917969 10.230469 C 24.441406 9.988281 24.097656 9.925781 23.199219 9.925781 L 22.074219 9.925781 L 22.074219 8.941406 C 22.074219 7.636719 21.902344 7.09375 21.324219 6.53125 L 20.839844 6.0625 L 16.136719 6.023438 C 11.628906 5.988281 11.410156 6 10.988281 6.261719 C 10.21875 6.734375 10.007812 7.25 10.007812 8.660156 L 10.007812 9.898438 L 8.660156 9.945312 C 7.207031 9.996094 6.878906 10.132812 6.285156 10.925781 C 6.011719 11.292969 6.007812 11.445312 6.007812 17.992188 C 6.007812 24.539062 6.011719 24.691406 6.285156 25.058594 C 6.441406 25.265625 6.734375 25.558594 6.941406 25.714844 C 7.304688 25.984375 7.492188 25.996094 13.609375 26.03125 L 19.90625 26.070312 L 19.90625 29.992188 L 12.753906 29.984375 C 7.339844 29.976562 5.441406 29.933594 4.945312 29.800781 Z M 4.945312 29.800781 "/>
<path style=" stroke:none;fill-rule:nonzero;fill:rgb(100%,0%,0%);fill-opacity:1;" d="M 22.074219 30.503906 L 22.074219 29.117188 L 23.121094 28.0625 L 24.167969 27.011719 L 22.074219 24.902344 L 22.074219 21.992188 L 24.710938 21.992188 L 25.832031 23.105469 L 26.949219 24.21875 L 28.089844 23.105469 L 29.226562 21.992188 L 31.972656 21.992188 L 31.972656 24.914062 L 29.804688 27.070312 L 31.972656 29.253906 L 31.972656 31.890625 L 29.0625 31.890625 L 28.007812 30.84375 L 26.957031 29.796875 L 24.847656 31.890625 L 22.074219 31.890625 Z M 22.074219 30.503906 "/>
</g>
</svg>
