<?xml version="1.0" encoding="UTF-8"?>
<svg xmlns="http://www.w3.org/2000/svg" xmlns:xlink="http://www.w3.org/1999/xlink" width="32" height="32" viewBox="0 0 32 32" version="1.1">
<g id="surface1">
<path style=" stroke:none;fill-rule:nonzero;fill:rgb(100%,100%,100%);fill-opacity:1;" d="M 12 2 C 9.980469 2.007812 10 4 10 4 L 10 26 C 10 28 12 28 12 28 L 20 28 C 22 28 22 26 22 26 L 22 10 C 22 8.890625 21.109375 8 20 8 L 14 8 L 14 4 C 14 4 13.980469 2.011719 12 2 Z M 12 10 L 20 10 L 20 16.0625 L 12 16 Z M 12 18 L 14 18 L 14 20 L 16 20 L 16 18 L 18 18 L 18 20 L 20 20 L 20 22 L 18 22 L 18 24 L 20 24 L 20 26 L 18 26 L 18 24 L 16 24 L 16 26 L 14 26 L 14 24 L 12 24 L 12 22 L 14 22 L 14 20 L 12 20 Z M 14 22 L 14 24 L 16 24 L 16 22 Z M 16 22 L 18 22 L 18 20 L 16 20 Z M 16 22 "/>
<path style=" stroke:none;fill-rule:nonzero;fill:rgb(100%,100%,100%);fill-opacity:1;" d="M 32 10 L 32 12 C 32 12.511719 31.742188 13.054688 31.375 13.4375 L 28.816406 15.996094 L 31.375 18.558594 C 31.742188 18.941406 32 19.484375 32 19.996094 L 32 21.996094 L 30 21.996094 C 29.382812 21.996094 28.898438 21.816406 28.5 21.433594 L 23.183594 15.996094 L 28.5 10.554688 C 28.902344 10.175781 29.382812 9.996094 30 9.996094 L 32 9.996094 Z M 32 10 "/>
<path style=" stroke:none;fill-rule:nonzero;fill:rgb(100%,100%,100%);fill-opacity:1;" d="M 0 10 L 0 12 C 0 12.511719 0.257812 13.054688 0.625 13.4375 L 3.1875 16 L 0.625 18.5625 C 0.257812 18.941406 0 19.484375 0 20 L 0 22 L 2 22 C 2.617188 22 3.105469 21.820312 3.5 21.4375 L 8.820312 15.996094 L 3.5 10.558594 C 3.101562 10.175781 2.621094 9.996094 2 9.996094 L 0 9.996094 Z M 0 10 "/>
</g>
</svg>
