<?xml version="1.0" encoding="UTF-8"?>
<svg xmlns="http://www.w3.org/2000/svg" xmlns:xlink="http://www.w3.org/1999/xlink" width="32" height="32" viewBox="0 0 32 32" version="1.1">
<g id="surface1">
<path style=" stroke:none;fill-rule:nonzero;fill:rgb(100%,100%,100%);fill-opacity:1;" d="M 16.003906 2.019531 C 15.472656 2.015625 15.007812 2.222656 14.675781 2.5 C 14.34375 2.777344 14.121094 3.140625 13.898438 3.5 C 13.449219 4.214844 13.113281 5.035156 12.765625 5.90625 C 12.421875 6.777344 12.070312 7.683594 11.757812 8.371094 C 11.441406 9.0625 11.066406 9.527344 11.039062 9.546875 C 11.011719 9.5625 10.425781 9.78125 9.648438 9.851562 C 8.871094 9.917969 7.886719 9.949219 6.921875 9.988281 C 5.957031 10.03125 4.980469 10.0625 4.136719 10.246094 C 3.710938 10.335938 3.304688 10.449219 2.929688 10.664062 C 2.550781 10.878906 2.195312 11.238281 2.027344 11.722656 C 1.859375 12.210938 1.929688 12.738281 2.101562 13.128906 C 2.269531 13.519531 2.554688 13.855469 2.835938 14.175781 C 3.402344 14.808594 4.101562 15.386719 4.851562 15.972656 C 5.601562 16.558594 6.40625 17.089844 6.988281 17.589844 C 7.570312 18.09375 7.898438 18.605469 7.90625 18.636719 C 7.914062 18.667969 7.96875 19.308594 7.796875 20.042969 C 7.625 20.777344 7.351562 21.664062 7.089844 22.5625 C 6.832031 23.460938 6.589844 24.367188 6.507812 25.199219 C 6.46875 25.617188 6.421875 26.011719 6.519531 26.429688 C 6.613281 26.839844 6.886719 27.289062 7.316406 27.589844 C 7.746094 27.894531 8.214844 27.964844 8.652344 27.929688 C 9.089844 27.894531 9.523438 27.789062 9.921875 27.628906 C 10.722656 27.304688 11.527344 26.773438 12.335938 26.261719 C 13.144531 25.753906 13.953125 25.21875 14.625 24.839844 C 15.300781 24.460938 15.921875 24.304688 15.957031 24.304688 C 15.988281 24.304688 16.5625 24.496094 17.234375 24.878906 C 17.90625 25.261719 18.683594 25.808594 19.488281 26.324219 C 20.292969 26.835938 21.128906 27.316406 21.925781 27.648438 C 22.324219 27.8125 22.703125 27.949219 23.140625 27.992188 C 23.578125 28.027344 24.097656 27.929688 24.53125 27.628906 C 24.960938 27.328125 25.210938 26.921875 25.308594 26.511719 C 25.410156 26.097656 25.394531 25.640625 25.359375 25.222656 C 25.285156 24.390625 25.039062 23.496094 24.789062 22.59375 C 24.539062 21.695312 24.265625 20.824219 24.101562 20.085938 C 23.9375 19.351562 23.960938 18.710938 23.96875 18.683594 C 23.980469 18.652344 24.34375 18.179688 24.929688 17.679688 C 25.515625 17.183594 26.28125 16.605469 27.039062 16.027344 C 27.792969 15.445312 28.570312 14.882812 29.144531 14.253906 C 29.429688 13.941406 29.628906 13.585938 29.800781 13.195312 C 29.976562 12.808594 30.074219 12.339844 29.910156 11.851562 C 29.75 11.363281 29.367188 11.023438 28.992188 10.804688 C 28.617188 10.585938 28.257812 10.441406 27.835938 10.347656 C 26.992188 10.15625 26.007812 10.066406 25.046875 10.019531 C 24.082031 9.96875 23.152344 9.941406 22.378906 9.863281 C 21.601562 9.789062 20.945312 9.601562 20.921875 9.582031 C 20.894531 9.566406 20.554688 9.109375 20.242188 8.417969 C 19.933594 7.726562 19.589844 6.84375 19.253906 5.972656 C 18.914062 5.097656 18.582031 4.242188 18.140625 3.523438 C 17.917969 3.164062 17.671875 2.816406 17.34375 2.535156 C 17.015625 2.257812 16.539062 2.023438 16.003906 2.019531 Z M 16.023438 4.007812 C 16.105469 4.082031 16.234375 4.28125 16.390625 4.53125 C 16.699219 5.035156 17.054688 5.785156 17.378906 6.628906 C 17.707031 7.472656 18.015625 8.402344 18.371094 9.195312 C 18.726562 9.988281 19 10.664062 19.722656 11.171875 C 20.441406 11.683594 21.261719 11.769531 22.152344 11.855469 C 23.042969 11.941406 24.007812 11.960938 24.941406 12.007812 C 25.875 12.054688 26.777344 12.148438 27.367188 12.28125 C 27.664062 12.347656 27.878906 12.394531 27.976562 12.453125 C 27.929688 12.550781 27.816406 12.761719 27.617188 12.980469 C 27.21875 13.421875 26.542969 13.957031 25.8125 14.515625 C 25.082031 15.074219 24.253906 15.660156 23.585938 16.230469 C 22.910156 16.800781 22.304688 17.292969 22.023438 18.113281 C 21.742188 18.933594 21.917969 19.667969 22.105469 20.511719 C 22.292969 21.355469 22.613281 22.269531 22.855469 23.136719 C 23.097656 24.007812 23.308594 24.832031 23.359375 25.414062 C 23.382812 25.679688 23.324219 25.882812 23.304688 26 C 23.183594 25.984375 22.953125 25.933594 22.695312 25.828125 C 22.140625 25.597656 21.402344 25.171875 20.625 24.675781 C 19.847656 24.179688 19.019531 23.617188 18.25 23.175781 C 17.480469 22.734375 16.835938 22.378906 15.9375 22.375 C 15.042969 22.371094 14.355469 22.71875 13.582031 23.152344 C 12.808594 23.585938 12.011719 24.144531 11.230469 24.632812 C 10.449219 25.125 9.675781 25.535156 9.117188 25.761719 C 8.839844 25.875 8.625 25.933594 8.515625 25.941406 C 8.492188 25.828125 8.484375 25.621094 8.507812 25.359375 C 8.566406 24.777344 8.785156 23.941406 9.035156 23.074219 C 9.285156 22.207031 9.542969 21.277344 9.738281 20.433594 C 9.9375 19.59375 10.113281 18.859375 9.839844 18.035156 C 9.566406 17.214844 8.976562 16.753906 8.308594 16.179688 C 7.640625 15.601562 6.898438 15.007812 6.171875 14.441406 C 5.445312 13.875 4.738281 13.320312 4.339844 12.875 C 4.144531 12.65625 4.015625 12.453125 3.972656 12.351562 C 4.070312 12.296875 4.28125 12.234375 4.578125 12.171875 C 5.167969 12.042969 6.066406 11.957031 7 11.917969 C 7.933594 11.878906 8.894531 11.859375 9.785156 11.78125 C 10.675781 11.699219 11.480469 11.679688 12.207031 11.175781 C 12.929688 10.671875 13.28125 9.964844 13.644531 9.175781 C 14.003906 8.382812 14.316406 7.492188 14.652344 6.652344 C 14.984375 5.8125 15.289062 4.980469 15.601562 4.480469 C 15.757812 4.230469 15.9375 4.078125 16.023438 4.007812 Z M 16.023438 4.007812 "/>
</g>
</svg>
