<?xml version="1.0" encoding="UTF-8"?>
<svg xmlns="http://www.w3.org/2000/svg" xmlns:xlink="http://www.w3.org/1999/xlink" width="24" height="24" viewBox="0 0 24 24" version="1.1">
<g id="surface1">
<path style=" stroke:none;fill-rule:evenodd;fill:rgb(10.196078%,10.196078%,10.196078%);fill-opacity:1;" d="M 3.027344 7.386719 L 5.582031 9.886719 L 5.5 6.378906 L 3.023438 6.367188 Z M 3.027344 7.386719 "/>
<path style="fill-rule:evenodd;fill:rgb(94.901961%,94.901961%,94.901961%);fill-opacity:1;stroke-width:5.03546;stroke-linecap:butt;stroke-linejoin:miter;stroke:rgb(68.627451%,68.627451%,68.627451%);stroke-opacity:1;stroke-miterlimit:4;" d="M 97.005208 1029.819862 L 433.919271 1028.680539 L 435.139974 664.748247 L 347.086589 575.555539 L 97.005208 575.555539 Z M 97.005208 1029.819862 " transform="matrix(0.048,0,0,0.048,0,-26.513385)"/>
<path style="fill-rule:evenodd;fill:rgb(68.627451%,68.627451%,68.627451%);fill-opacity:1;stroke-width:5.03546;stroke-linecap:butt;stroke-linejoin:miter;stroke:rgb(68.627451%,68.627451%,68.627451%);stroke-opacity:1;stroke-miterlimit:4;" d="M 431.559245 662.957883 L 349.365234 662.306841 L 350.097656 578.566607 Z M 431.559245 662.957883 " transform="matrix(0.048,0,0,0.048,0,-26.513385)"/>
<path style=" stroke:none;fill-rule:nonzero;fill:rgb(20%,20%,20%);fill-opacity:1;" d="M 3.03125 3.351562 L 13.828125 3.351562 L 13.828125 7.398438 L 3.03125 7.398438 Z M 3.03125 3.351562 "/>
<path style=" stroke:none;fill-rule:evenodd;fill:rgb(20%,20%,20%);fill-opacity:1;" d="M 10.023438 11.664062 L 10.023438 19.664062 C 9.683594 19.347656 9.242188 19.144531 8.777344 19.144531 C 7.796875 19.144531 6.90625 20.035156 6.90625 21.015625 C 6.90625 21.992188 7.796875 22.882812 8.777344 22.882812 C 9.753906 22.882812 10.648438 21.992188 10.648438 21.015625 L 10.648438 11.664062 Z M 10.023438 11.664062 "/>
<path style=" stroke:none;fill-rule:evenodd;fill:rgb(20%,20%,20%);fill-opacity:1;" d="M 16.183594 10.949219 L 16.183594 18.949219 C 15.84375 18.632812 15.402344 18.429688 14.9375 18.429688 C 13.957031 18.429688 13.066406 19.320312 13.066406 20.296875 C 13.066406 21.277344 13.957031 22.167969 14.9375 22.167969 C 15.914062 22.167969 16.808594 21.277344 16.808594 20.296875 L 16.808594 10.949219 Z M 16.183594 10.949219 "/>
<path style=" stroke:none;fill-rule:nonzero;fill:rgb(20%,20%,20%);fill-opacity:1;" d="M 10.046875 11.675781 L 16.71875 10.882812 L 16.804688 11.601562 L 10.132812 12.390625 Z M 10.046875 11.675781 "/>
<path style="fill:none;stroke-width:9;stroke-linecap:butt;stroke-linejoin:miter;stroke:rgb(100%,100%,100%);stroke-opacity:1;stroke-miterlimit:4;" d="M 130.859375 691.196815 C 118.815104 691.115435 107.503255 678.989784 107.421875 663.690305 C 107.340495 648.390826 119.466146 636.102414 131.591797 636.427935 C 143.717448 636.834836 154.296875 648.390826 154.541016 664.666867 C 154.703776 680.942909 142.903646 691.278195 130.859375 691.196815 Z M 130.859375 691.196815 " transform="matrix(0.048,0,0,0.048,0,-26.513385)"/>
<path style="fill:none;stroke-width:9;stroke-linecap:butt;stroke-linejoin:miter;stroke:rgb(100%,100%,100%);stroke-opacity:1;stroke-miterlimit:4;" d="M 218.91276 643.833534 C 218.91276 643.833534 211.669922 636.183794 196.207682 636.265174 C 180.745443 636.346555 172.607422 652.134315 172.851562 664.504107 C 173.095703 676.873898 183.837891 689.976112 196.044922 691.278195 C 208.333333 692.498898 217.447917 686.069862 217.447917 686.069862 L 216.878255 665.968951 L 200.113932 666.213091 " transform="matrix(0.048,0,0,0.048,0,-26.513385)"/>
<path style="fill:none;stroke-width:9;stroke-linecap:butt;stroke-linejoin:bevel;stroke:rgb(100%,100%,100%);stroke-opacity:1;stroke-miterlimit:4;" d="M 915.716537 696.264828 L 937.85765 638.002993 L 960.564413 696.264828 " transform="matrix(0.0483405,0,0,0.0483405,-33.184164,-26.790602)"/>
<path style="fill:none;stroke-width:9;stroke-linecap:butt;stroke-linejoin:miter;stroke:rgb(100%,100%,100%);stroke-opacity:1;stroke-miterlimit:4;" d="M 924.605305 676.790345 L 950.382733 676.790345 " transform="matrix(0.0483405,0,0,0.0483405,-33.184164,-26.790602)"/>
</g>
</svg>
