<?xml version="1.0" encoding="UTF-8"?>
<svg xmlns="http://www.w3.org/2000/svg" xmlns:xlink="http://www.w3.org/1999/xlink" width="256" height="256" viewBox="0 0 256 256" version="1.1">
<g id="surface1">
<path style=" stroke:none;fill-rule:evenodd;fill:rgb(20%,20%,20%);fill-opacity:1;" d="M 32.273438 78.773438 L 59.523438 105.445312 L 58.671875 68.046875 L 32.257812 67.921875 Z M 32.273438 78.773438 "/>
<path style="fill-rule:evenodd;fill:rgb(94.901961%,94.901961%,94.901961%);fill-opacity:1;stroke-width:5.03546;stroke-linecap:butt;stroke-linejoin:miter;stroke:rgb(68.627451%,68.627451%,68.627451%);stroke-opacity:1;stroke-miterlimit:4;" d="M 97.045898 1029.840207 L 433.929443 1028.66528 L 435.10437 664.773679 L 347.061157 575.570798 L 97.045898 575.570798 Z M 97.045898 1029.840207 " transform="matrix(0.512,0,0,0.512,0,-282.809436)"/>
<path style="fill-rule:evenodd;fill:rgb(68.627451%,68.627451%,68.627451%);fill-opacity:1;stroke-width:5.03546;stroke-linecap:butt;stroke-linejoin:miter;stroke:rgb(68.627451%,68.627451%,68.627451%);stroke-opacity:1;stroke-miterlimit:4;" d="M 431.518555 662.927365 L 349.349976 662.347531 L 350.112915 578.546262 Z M 431.518555 662.927365 " transform="matrix(0.512,0,0,0.512,0,-282.809436)"/>
<path style=" stroke:none;fill-rule:nonzero;fill:rgb(22.352941%,25.098039%,31.372549%);fill-opacity:1;" d="M 32.328125 35.75 L 175.84375 35.75 L 175.84375 78.9375 L 32.328125 78.9375 Z M 32.328125 35.75 "/>
<path style=" stroke:none;fill-rule:nonzero;fill:rgb(36.470588%,41.568627%,48.235294%);fill-opacity:1;" d="M 157.109375 139.390625 L 162.242188 141.15625 L 162.242188 143.4375 L 157.851562 144.695312 L 157.851562 151.757812 L 167.367188 149.140625 L 161.953125 151.929688 L 162.070312 157.234375 L 157.96875 158.539062 L 157.96875 165.265625 L 166.796875 163.101562 L 162.242188 165.78125 L 162.242188 170.851562 L 157.734375 172.390625 L 158.023438 178.773438 L 167.59375 176.15625 L 162.242188 179.234375 L 162.125 184.1875 L 157.90625 185.445312 L 158.023438 191.773438 L 167.3125 189.375 L 161.445312 193.085938 L 161.273438 195.132812 L 176.09375 195.132812 L 175.921875 188.179688 L 180.195312 187.265625 L 180.078125 180.375 L 170.046875 182.59375 L 175.859375 180.140625 L 175.921875 175.242188 L 180.367188 173.929688 L 180.367188 166.921875 L 172.617188 169.140625 L 175.75 167.09375 L 175.804688 161.960938 L 179.96875 160.765625 L 179.96875 153.695312 L 170.84375 155.921875 L 175.460938 153.523438 L 175.6875 147.773438 L 179.90625 147.140625 L 180.140625 140.1875 L 171.757812 142.070312 L 176.09375 138.710938 L 176.09375 136.539062 L 157.507812 137.054688 Z M 157.109375 139.390625 "/>
<path style=" stroke:none;fill-rule:nonzero;fill:rgb(40%,40%,40%);fill-opacity:1;" d="M 158.21875 210.34375 L 158.304688 224.851562 L 154.109375 224.851562 L 154.109375 230.09375 L 146.617188 230.25 L 146.53125 225.65625 L 136.617188 225.742188 L 136.460938 241.9375 L 146.617188 241.9375 L 146.617188 237.75 L 154.195312 237.671875 L 154.195312 242.90625 L 184.09375 242.828125 L 184.179688 237.75 L 192.078125 237.75 L 192.078125 242.179688 L 201.75 242.179688 L 201.671875 225.414062 L 192.078125 225.5 L 192.078125 230.414062 L 184.09375 230.414062 L 183.773438 224.695312 L 180.304688 224.773438 L 180.304688 210.179688 Z M 158.21875 210.34375 "/>
<path style=" stroke:none;fill-rule:nonzero;fill:rgb(22.352941%,25.098039%,31.372549%);fill-opacity:1;" d="M 91.164062 205.28125 L 90.9375 209.273438 L 99.9375 217.710938 L 147.132812 218.164062 L 153.289062 211.328125 L 185.546875 210.984375 L 185.546875 192.0625 L 153.96875 192.0625 L 141.429688 205.398438 Z M 91.164062 205.28125 "/>
<path style=" stroke:none;fill-rule:nonzero;fill:rgb(22.352941%,25.098039%,31.372549%);fill-opacity:1;" d="M 91.195312 127.90625 L 90.960938 123.914062 L 99.96875 115.484375 L 147.164062 115.023438 L 153.320312 121.867188 L 185.578125 122.210938 L 185.578125 141.132812 L 154 141.132812 L 141.460938 127.796875 Z M 91.195312 127.90625 "/>
<path style=" stroke:none;fill-rule:nonzero;fill:rgb(100%,72.156863%,0%);fill-opacity:1;" d="M 73.75 127.804688 L 141.453125 127.804688 L 141.453125 205.34375 L 73.75 205.34375 Z M 73.75 127.804688 "/>
<path style=" stroke:none;fill-rule:nonzero;fill:rgb(98.039216%,92.54902%,42.745098%);fill-opacity:1;" d="M 78.796875 134.703125 L 135.5625 134.703125 L 135.5625 164.601562 L 78.796875 164.601562 Z M 78.796875 134.703125 "/>
<path style=" stroke:none;fill-rule:nonzero;fill:rgb(98.039216%,92.54902%,42.745098%);fill-opacity:1;" d="M 79.257812 169.476562 L 136.023438 169.476562 L 136.023438 199.367188 L 79.257812 199.367188 Z M 79.257812 169.476562 "/>
<path style=" stroke:none;fill-rule:nonzero;fill:rgb(15.686275%,13.333333%,4.313725%);fill-opacity:1;" d="M 96.585938 146.445312 L 119.375 146.445312 L 119.375 153.765625 L 96.585938 153.765625 Z M 96.585938 146.445312 "/>
<path style=" stroke:none;fill-rule:nonzero;fill:rgb(15.686275%,13.333333%,4.313725%);fill-opacity:1;" d="M 96.46875 180.304688 L 119.265625 180.304688 L 119.265625 187.625 L 96.46875 187.625 Z M 96.46875 180.304688 "/>
<path style="fill:none;stroke-width:9;stroke-linecap:butt;stroke-linejoin:miter;stroke:rgb(100%,100%,100%);stroke-opacity:1;stroke-miterlimit:4;" d="M 122.80871 699.623279 L 122.80871 642.340295 " transform="matrix(0.37192,0,0,0.37192,-1.057828,-193.04764)"/>
<path style="fill:none;stroke-width:8.670217;stroke-linecap:butt;stroke-linejoin:miter;stroke:rgb(100%,100%,100%);stroke-opacity:1;stroke-miterlimit:4;" d="M 96.21529 642.739406 L 149.381125 642.739406 " transform="matrix(0.37192,0,0,0.37192,-1.057828,-193.04764)"/>
<path style="fill:none;stroke-width:9;stroke-linecap:butt;stroke-linejoin:bevel;stroke:rgb(100%,100%,100%);stroke-opacity:1;stroke-miterlimit:4;" d="M 915.692651 696.292115 L 937.84376 638.015092 L 960.57889 696.292115 " transform="matrix(0.374558,0,0,0.374558,-290.511258,-193.895532)"/>
<path style="fill:none;stroke-width:9;stroke-linecap:butt;stroke-linejoin:miter;stroke:rgb(100%,100%,100%);stroke-opacity:1;stroke-miterlimit:4;" d="M 924.578124 676.769104 L 950.379368 676.769104 " transform="matrix(0.374558,0,0,0.374558,-290.511258,-193.895532)"/>
<path style="fill:none;stroke-width:9.063828;stroke-linecap:butt;stroke-linejoin:miter;stroke:rgb(100%,100%,100%);stroke-opacity:1;stroke-miterlimit:4;" d="M 384.452644 735.904102 L 384.452644 679.461352 C 384.452644 679.461352 415.268243 673.537699 415.163214 693.787349 C 415.058185 714.037 385.08282 708.512458 385.08282 708.512458 " transform="matrix(0.37192,0,0,0.37192,-68.86844,-206.861516)"/>
<path style="fill:none;stroke-width:9;stroke-linecap:butt;stroke-linejoin:miter;stroke:rgb(100%,100%,100%);stroke-opacity:1;stroke-miterlimit:4;" d="M 392.455878 710.444998 L 418.398117 734.916826 " transform="matrix(0.37192,0,0,0.37192,-68.86844,-206.861516)"/>
<path style="fill:none;stroke-width:6.537672;stroke-linecap:butt;stroke-linejoin:miter;stroke:rgb(100%,100%,100%);stroke-opacity:1;stroke-miterlimit:4;" d="M 188.446045 641.458249 L 188.659668 681.039548 L 211.730957 681.253171 " transform="matrix(0.512,0,0,0.512,0,-282.809436)"/>
<path style="fill:none;stroke-width:6.537672;stroke-linecap:butt;stroke-linejoin:miter;stroke:rgb(100%,100%,100%);stroke-opacity:1;stroke-miterlimit:4;" d="M 217.681885 643.808103 L 245.407104 644.235349 L 220.214844 682.122922 L 251.296997 681.878781 " transform="matrix(0.512,0,0,0.512,0,-282.809436)"/>
<path style="fill:none;stroke-width:6.537672;stroke-linecap:butt;stroke-linejoin:miter;stroke:rgb(100%,100%,100%);stroke-opacity:1;stroke-miterlimit:4;" d="M 258.056641 683.66406 L 258.270264 644.036984 L 261.917114 643.869138 L 273.452759 673.883176 L 275.894165 673.883176 L 287.475586 643.869138 L 291.290283 643.823361 L 291.290283 683.770871 " transform="matrix(0.512,0,0,0.512,0,-282.809436)"/>
<path style="fill:none;stroke-width:9;stroke-linecap:butt;stroke-linejoin:bevel;stroke:rgb(100%,100%,100%);stroke-opacity:1;stroke-miterlimit:4;" d="M 915.696788 696.281947 L 937.847897 638.004924 L 960.562169 696.281947 " transform="matrix(0.374558,0,0,0.374558,-187.98937,-193.462036)"/>
<path style="fill:none;stroke-width:9;stroke-linecap:butt;stroke-linejoin:miter;stroke:rgb(100%,100%,100%);stroke-opacity:1;stroke-miterlimit:4;" d="M 924.582261 676.758936 L 950.362647 676.758936 " transform="matrix(0.374558,0,0,0.374558,-187.98937,-193.462036)"/>
<path style=" stroke:none;fill-rule:nonzero;fill:rgb(100%,100%,100%);fill-opacity:1;" d="M 89.335938 64.3125 L 92.648438 64.3125 L 92.648438 67.546875 L 89.335938 67.546875 Z M 89.335938 64.3125 "/>
</g>
</svg>
