<?xml version="1.0" encoding="UTF-8"?>
<svg xmlns="http://www.w3.org/2000/svg" xmlns:xlink="http://www.w3.org/1999/xlink" width="256" height="256" viewBox="0 0 256 256" version="1.1">
<g id="surface1">
<path style=" stroke:none;fill-rule:evenodd;fill:rgb(20%,20%,20%);fill-opacity:1;" d="M 32.273438 78.773438 L 59.523438 105.445312 L 58.671875 68.046875 L 32.257812 67.921875 Z M 32.273438 78.773438 "/>
<path style="fill-rule:evenodd;fill:rgb(94.901961%,94.901961%,94.901961%);fill-opacity:1;stroke-width:5.03546;stroke-linecap:butt;stroke-linejoin:miter;stroke:rgb(68.627451%,68.627451%,68.627451%);stroke-opacity:1;stroke-miterlimit:4;" d="M 97.045898 1029.840207 L 433.929443 1028.66528 L 435.10437 664.773679 L 347.061157 575.570798 L 97.045898 575.570798 Z M 97.045898 1029.840207 " transform="matrix(0.512,0,0,0.512,0,-282.809436)"/>
<path style="fill-rule:evenodd;fill:rgb(68.627451%,68.627451%,68.627451%);fill-opacity:1;stroke-width:5.03546;stroke-linecap:butt;stroke-linejoin:miter;stroke:rgb(68.627451%,68.627451%,68.627451%);stroke-opacity:1;stroke-miterlimit:4;" d="M 431.518555 662.927365 L 349.349976 662.347531 L 350.112915 578.546262 Z M 431.518555 662.927365 " transform="matrix(0.512,0,0,0.512,0,-282.809436)"/>
<path style=" stroke:none;fill-rule:nonzero;fill:rgb(22.352941%,25.098039%,31.372549%);fill-opacity:1;" d="M 32.328125 35.75 L 147.492188 35.75 L 147.492188 78.9375 L 32.328125 78.9375 Z M 32.328125 35.75 "/>
<path style=" stroke:none;fill-rule:nonzero;fill:rgb(36.470588%,41.568627%,48.235294%);fill-opacity:1;" d="M 157.109375 139.390625 L 162.242188 141.15625 L 162.242188 143.4375 L 157.851562 144.695312 L 157.851562 151.757812 L 167.367188 149.140625 L 161.953125 151.929688 L 162.070312 157.234375 L 157.96875 158.539062 L 157.96875 165.265625 L 166.796875 163.101562 L 162.242188 165.78125 L 162.242188 170.851562 L 157.734375 172.390625 L 158.023438 178.773438 L 167.59375 176.15625 L 162.242188 179.234375 L 162.125 184.1875 L 157.90625 185.445312 L 158.023438 191.773438 L 167.3125 189.375 L 161.445312 193.085938 L 161.273438 195.132812 L 176.09375 195.132812 L 175.921875 188.179688 L 180.195312 187.265625 L 180.078125 180.375 L 170.046875 182.59375 L 175.859375 180.140625 L 175.921875 175.242188 L 180.367188 173.929688 L 180.367188 166.921875 L 172.617188 169.140625 L 175.75 167.09375 L 175.804688 161.960938 L 179.96875 160.765625 L 179.96875 153.695312 L 170.84375 155.921875 L 175.460938 153.523438 L 175.6875 147.773438 L 179.90625 147.140625 L 180.140625 140.1875 L 171.757812 142.070312 L 176.09375 138.710938 L 176.09375 136.539062 L 157.507812 137.054688 Z M 157.109375 139.390625 "/>
<path style=" stroke:none;fill-rule:nonzero;fill:rgb(40%,40%,40%);fill-opacity:1;" d="M 158.21875 210.34375 L 158.304688 224.851562 L 154.109375 224.851562 L 154.109375 230.09375 L 146.617188 230.25 L 146.53125 225.65625 L 136.617188 225.742188 L 136.460938 241.9375 L 146.617188 241.9375 L 146.617188 237.75 L 154.195312 237.671875 L 154.195312 242.90625 L 184.09375 242.828125 L 184.179688 237.75 L 192.078125 237.75 L 192.078125 242.179688 L 201.75 242.179688 L 201.671875 225.414062 L 192.078125 225.5 L 192.078125 230.414062 L 184.09375 230.414062 L 183.773438 224.695312 L 180.304688 224.773438 L 180.304688 210.179688 Z M 158.21875 210.34375 "/>
<path style=" stroke:none;fill-rule:nonzero;fill:rgb(22.352941%,25.098039%,31.372549%);fill-opacity:1;" d="M 91.164062 205.28125 L 90.9375 209.273438 L 99.9375 217.710938 L 147.132812 218.164062 L 153.289062 211.328125 L 185.546875 210.984375 L 185.546875 192.0625 L 153.96875 192.0625 L 141.429688 205.398438 Z M 91.164062 205.28125 "/>
<path style=" stroke:none;fill-rule:nonzero;fill:rgb(22.352941%,25.098039%,31.372549%);fill-opacity:1;" d="M 91.195312 127.90625 L 90.960938 123.914062 L 99.96875 115.484375 L 147.164062 115.023438 L 153.320312 121.867188 L 185.578125 122.210938 L 185.578125 141.132812 L 154 141.132812 L 141.460938 127.796875 Z M 91.195312 127.90625 "/>
<path style=" stroke:none;fill-rule:nonzero;fill:rgb(100%,72.156863%,0%);fill-opacity:1;" d="M 73.75 127.804688 L 141.453125 127.804688 L 141.453125 205.34375 L 73.75 205.34375 Z M 73.75 127.804688 "/>
<path style=" stroke:none;fill-rule:nonzero;fill:rgb(98.039216%,92.54902%,42.745098%);fill-opacity:1;" d="M 78.796875 134.703125 L 135.5625 134.703125 L 135.5625 164.601562 L 78.796875 164.601562 Z M 78.796875 134.703125 "/>
<path style=" stroke:none;fill-rule:nonzero;fill:rgb(98.039216%,92.54902%,42.745098%);fill-opacity:1;" d="M 79.257812 169.476562 L 136.023438 169.476562 L 136.023438 199.367188 L 79.257812 199.367188 Z M 79.257812 169.476562 "/>
<path style=" stroke:none;fill-rule:nonzero;fill:rgb(15.686275%,13.333333%,4.313725%);fill-opacity:1;" d="M 96.585938 146.445312 L 119.375 146.445312 L 119.375 153.765625 L 96.585938 153.765625 Z M 96.585938 146.445312 "/>
<path style=" stroke:none;fill-rule:nonzero;fill:rgb(15.686275%,13.333333%,4.313725%);fill-opacity:1;" d="M 96.46875 180.304688 L 119.265625 180.304688 L 119.265625 187.625 L 96.46875 187.625 Z M 96.46875 180.304688 "/>
<path style="fill:none;stroke-width:9;stroke-linecap:butt;stroke-linejoin:bevel;stroke:rgb(100%,100%,100%);stroke-opacity:1;stroke-miterlimit:4;" d="M 915.688955 696.284475 L 937.840169 637.997388 L 960.567133 696.284475 " transform="matrix(0.515632,0,0,0.515632,-414.049152,-287.612494)"/>
<path style="fill:none;stroke-width:9;stroke-linecap:butt;stroke-linejoin:miter;stroke:rgb(100%,100%,100%);stroke-opacity:1;stroke-miterlimit:4;" d="M 924.582773 676.754437 L 950.370302 676.754437 " transform="matrix(0.515632,0,0,0.515632,-414.049152,-287.612494)"/>
<path style="fill:none;stroke-width:9;stroke-linecap:butt;stroke-linejoin:miter;stroke:rgb(100%,100%,100%);stroke-opacity:1;stroke-miterlimit:4;" d="M 213.867188 641.244626 C 213.867188 641.244626 206.253052 634.423947 192.352295 635.507321 C 178.466797 636.590695 170.578003 652.429318 171.325684 664.422727 C 172.073364 676.416135 182.58667 690.698361 196.182251 689.523435 C 209.777832 688.348508 213.867188 683.541989 213.867188 683.541989 " transform="matrix(0.512,0,0,0.512,0,-282.809436)"/>
<path style="fill:none;stroke-width:9;stroke-linecap:butt;stroke-linejoin:miter;stroke:rgb(100%,100%,100%);stroke-opacity:1;stroke-miterlimit:4;" d="M 380.205497 670.709463 L 346.208915 670.297476 L 346.620902 618.585439 L 381.075248 618.738027 " transform="matrix(0.512,0,0,0.512,-58.657402,-273.66887)"/>
<path style="fill:none;stroke-width:9;stroke-linecap:butt;stroke-linejoin:miter;stroke:rgb(100%,100%,100%);stroke-opacity:1;stroke-miterlimit:4;" d="M 348.955497 642.373892 L 378.084525 642.511221 " transform="matrix(0.512,0,0,0.512,-58.657402,-273.66887)"/>
</g>
</svg>
