<?xml version="1.0" encoding="UTF-8"?>
<svg xmlns="http://www.w3.org/2000/svg" xmlns:xlink="http://www.w3.org/1999/xlink" width="256" height="256" viewBox="0 0 256 256" version="1.1">
<g id="surface1">
<path style=" stroke:none;fill-rule:evenodd;fill:rgb(10.196078%,10.196078%,10.196078%);fill-opacity:1;" d="M 32.273438 78.773438 L 59.523438 105.445312 L 58.671875 68.046875 L 32.257812 67.921875 Z M 32.273438 78.773438 "/>
<path style="fill-rule:evenodd;fill:rgb(94.901961%,94.901961%,94.901961%);fill-opacity:1;stroke-width:5.03546;stroke-linecap:butt;stroke-linejoin:miter;stroke:rgb(68.627451%,68.627451%,68.627451%);stroke-opacity:1;stroke-miterlimit:4;" d="M 97.045898 1029.840207 L 433.929443 1028.66528 L 435.10437 664.773679 L 347.061157 575.570798 L 97.045898 575.570798 Z M 97.045898 1029.840207 " transform="matrix(0.512,0,0,0.512,0,-282.809436)"/>
<path style="fill-rule:evenodd;fill:rgb(68.627451%,68.627451%,68.627451%);fill-opacity:1;stroke-width:5.03546;stroke-linecap:butt;stroke-linejoin:miter;stroke:rgb(68.627451%,68.627451%,68.627451%);stroke-opacity:1;stroke-miterlimit:4;" d="M 431.518555 662.927365 L 349.349976 662.347531 L 350.112915 578.546262 Z M 431.518555 662.927365 " transform="matrix(0.512,0,0,0.512,0,-282.809436)"/>
<path style=" stroke:none;fill-rule:nonzero;fill:rgb(20%,20%,20%);fill-opacity:1;" d="M 32.328125 35.75 L 147.492188 35.75 L 147.492188 78.9375 L 32.328125 78.9375 Z M 32.328125 35.75 "/>
<path style=" stroke:none;fill-rule:evenodd;fill:rgb(20%,20%,20%);fill-opacity:1;" d="M 106.921875 124.4375 L 106.921875 209.765625 C 103.304688 206.390625 98.578125 204.210938 93.609375 204.210938 C 83.164062 204.210938 73.671875 213.710938 73.671875 224.15625 C 73.671875 234.601562 83.164062 244.101562 93.609375 244.101562 C 104.054688 244.101562 113.578125 234.601562 113.578125 224.15625 L 113.578125 124.4375 Z M 106.921875 124.4375 "/>
<path style=" stroke:none;fill-rule:evenodd;fill:rgb(20%,20%,20%);fill-opacity:1;" d="M 172.632812 116.796875 L 172.632812 202.132812 C 169.015625 198.757812 164.289062 196.570312 159.320312 196.578125 C 148.875 196.578125 139.382812 206.078125 139.382812 216.515625 C 139.382812 226.960938 148.875 236.460938 159.320312 236.460938 C 169.765625 236.460938 179.289062 226.960938 179.289062 216.515625 L 179.289062 116.796875 Z M 172.632812 116.796875 "/>
<path style=" stroke:none;fill-rule:nonzero;fill:rgb(20%,20%,20%);fill-opacity:1;" d="M 107.171875 124.523438 L 178.351562 116.101562 L 179.257812 123.765625 L 108.078125 132.1875 Z M 107.171875 124.523438 "/>
<path style="fill:none;stroke-width:9;stroke-linecap:butt;stroke-linejoin:miter;stroke:rgb(100%,100%,100%);stroke-opacity:1;stroke-miterlimit:4;" d="M 122.177124 694.635129 L 122.467041 640.069699 L 127.502441 639.856076 L 143.386841 681.161618 L 146.728516 681.161618 L 162.689209 639.856076 L 167.922974 639.779782 L 167.922974 694.787717 " transform="matrix(0.512,0,0,0.512,0,-282.809436)"/>
<path style="fill:none;stroke-width:9.063828;stroke-linecap:butt;stroke-linejoin:miter;stroke:rgb(100%,100%,100%);stroke-opacity:1;stroke-miterlimit:4;" d="M 189.041138 695.901608 L 189.041138 639.459348 C 189.041138 639.459348 219.863892 633.50842 219.75708 653.772092 C 219.650269 674.035764 189.666748 668.512082 189.666748 668.512082 " transform="matrix(0.512,0,0,0.512,0,-282.809436)"/>
<path style="fill:none;stroke-width:8.069904;stroke-linecap:butt;stroke-linejoin:miter;stroke:rgb(100%,100%,100%);stroke-opacity:1;stroke-miterlimit:4;" d="M 231.842041 654.260373 C 231.842041 654.260373 234.680176 639.749265 247.634888 639.459348 C 259.475708 639.184689 264.724731 646.432614 264.007568 652.871823 C 263.290405 659.311032 238.113403 687.18884 238.113403 687.18884 L 276.473999 686.898923 " transform="matrix(0.512,0,0,0.512,0,-282.809436)"/>
</g>
</svg>
