<?xml version="1.0" encoding="UTF-8"?>
<svg xmlns="http://www.w3.org/2000/svg" xmlns:xlink="http://www.w3.org/1999/xlink" width="256" height="256" viewBox="0 0 256 256" version="1.1">
<g id="surface1">
<path style=" stroke:none;fill-rule:evenodd;fill:rgb(50.196078%,20%,0%);fill-opacity:1;" d="M 32.273438 76.210938 L 59.523438 102.882812 L 58.671875 65.484375 L 32.257812 65.359375 Z M 32.273438 76.210938 "/>
<path style="fill-rule:evenodd;fill:rgb(94.901961%,94.901961%,94.901961%);fill-opacity:1;stroke-width:5.03546;stroke-linecap:butt;stroke-linejoin:miter;stroke:rgb(68.627451%,68.627451%,68.627451%);stroke-opacity:1;stroke-miterlimit:4;" d="M 97.045898 1024.835324 L 433.929443 1023.660397 L 435.10437 659.768796 L 347.061157 570.565915 L 97.045898 570.565915 Z M 97.045898 1024.835324 " transform="matrix(0.512,0,0,0.512,0,-282.809436)"/>
<path style="fill-rule:evenodd;fill:rgb(68.627451%,68.627451%,68.627451%);fill-opacity:1;stroke-width:5.03546;stroke-linecap:butt;stroke-linejoin:miter;stroke:rgb(68.627451%,68.627451%,68.627451%);stroke-opacity:1;stroke-miterlimit:4;" d="M 431.518555 657.937741 L 349.349976 657.342648 L 350.112915 573.541379 Z M 431.518555 657.937741 " transform="matrix(0.512,0,0,0.512,0,-282.809436)"/>
<path style=" stroke:none;fill-rule:nonzero;fill:rgb(100%,40%,0%);fill-opacity:1;" d="M 32.328125 33.1875 L 148.859375 33.1875 L 148.859375 76.375 L 32.328125 76.375 Z M 32.328125 33.1875 "/>
<path style="fill-rule:nonzero;fill:rgb(0%,73.333333%,94.901961%);fill-opacity:1;stroke-width:6.833039;stroke-linecap:round;stroke-linejoin:round;stroke:rgb(100%,100%,100%);stroke-opacity:1;stroke-miterlimit:4;" d="M 141.278705 807.744902 L 352.769338 807.739316 L 352.765923 983.444754 L 141.275289 983.450339 Z M 141.278705 807.744902 " transform="matrix(0.511954,-0.00685735,0.00685735,0.511954,0,-282.809436)"/>
<path style="fill-rule:nonzero;fill:rgb(100%,40%,0%);fill-opacity:1;stroke-width:6.833039;stroke-linecap:round;stroke-linejoin:round;stroke:rgb(100%,100%,100%);stroke-opacity:1;stroke-miterlimit:4;" d="M -269.540805 827.272678 L -58.041515 827.268233 L -58.046593 1002.968242 L -269.545883 1002.972687 Z M -269.540805 827.272678 " transform="matrix(0.456382,-0.232076,0.232076,0.456382,0,-282.809436)"/>
<path style=" stroke:none;fill-rule:nonzero;fill:rgb(98.039216%,92.54902%,42.745098%);fill-opacity:1;" d="M 111.3125 165.203125 C 114.023438 170.53125 111.820312 177.085938 106.390625 179.851562 C 100.96875 182.617188 94.367188 180.554688 91.648438 175.234375 C 88.921875 169.914062 91.109375 163.351562 96.53125 160.570312 C 101.953125 157.789062 108.554688 159.84375 111.289062 165.15625 "/>
<path style="fill-rule:nonzero;fill:rgb(50.196078%,20%,0%);fill-opacity:1;stroke-width:0.28471;stroke-linecap:butt;stroke-linejoin:miter;stroke:rgb(0%,0%,0%);stroke-opacity:1;stroke-miterlimit:4;" d="M 186.431885 953.775144 L 215.637207 1011.834836 L 398.55957 918.512082 L 373.657227 870.828366 C 373.657227 870.828366 352.523804 893.228269 328.720093 901.742673 C 304.916382 910.272336 256.256104 898.965573 231.933594 909.997678 C 207.595825 921.014523 186.431885 953.775144 186.431885 953.775144 Z M 186.431885 953.775144 " transform="matrix(0.512,0,0,0.512,0,-282.809436)"/>
</g>
</svg>
