<?xml version="1.0" encoding="UTF-8"?>
<svg xmlns="http://www.w3.org/2000/svg" xmlns:xlink="http://www.w3.org/1999/xlink" width="256" height="256" viewBox="0 0 256 256" version="1.1">
<g id="surface1">
<path style=" stroke:none;fill-rule:evenodd;fill:rgb(0%,11.372549%,39.215686%);fill-opacity:1;" d="M 32.273438 78.773438 L 59.523438 105.445312 L 58.671875 68.046875 L 32.257812 67.921875 Z M 32.273438 78.773438 "/>
<path style="fill-rule:evenodd;fill:rgb(94.901961%,94.901961%,94.901961%);fill-opacity:1;stroke-width:5.03546;stroke-linecap:butt;stroke-linejoin:miter;stroke:rgb(68.627451%,68.627451%,68.627451%);stroke-opacity:1;stroke-miterlimit:4;" d="M 97.045898 1029.840207 L 433.929443 1028.66528 L 435.10437 664.773679 L 347.061157 575.570798 L 97.045898 575.570798 Z M 97.045898 1029.840207 " transform="matrix(0.512,0,0,0.512,0,-282.809436)"/>
<path style="fill-rule:evenodd;fill:rgb(68.627451%,68.627451%,68.627451%);fill-opacity:1;stroke-width:5.03546;stroke-linecap:butt;stroke-linejoin:miter;stroke:rgb(68.627451%,68.627451%,68.627451%);stroke-opacity:1;stroke-miterlimit:4;" d="M 431.518555 662.927365 L 349.349976 662.347531 L 350.112915 578.546262 Z M 431.518555 662.927365 " transform="matrix(0.512,0,0,0.512,0,-282.809436)"/>
<path style=" stroke:none;fill-rule:nonzero;fill:rgb(0%,30.196078%,54.509804%);fill-opacity:1;" d="M 32.328125 35.75 L 133.945312 35.75 L 133.945312 78.9375 L 32.328125 78.9375 Z M 32.328125 35.75 "/>
<path style=" stroke:none;fill-rule:nonzero;fill:rgb(0%,30.196078%,54.509804%);fill-opacity:1;" d="M 74.992188 123.460938 L 74.992188 243.148438 L 194.679688 243.148438 L 194.679688 123.460938 Z M 83.96875 132.4375 L 92.945312 132.4375 L 92.945312 141.414062 L 83.96875 141.414062 Z M 176.726562 132.4375 L 185.703125 132.4375 L 185.703125 141.414062 L 176.726562 141.414062 Z M 83.96875 154.882812 L 92.945312 154.882812 L 92.945312 163.859375 L 83.96875 163.859375 Z M 176.726562 154.882812 L 185.703125 154.882812 L 185.703125 163.859375 L 176.726562 163.859375 Z M 83.96875 178.820312 L 92.945312 178.820312 L 92.945312 187.796875 L 83.96875 187.796875 Z M 176.726562 178.820312 L 185.703125 178.820312 L 185.703125 187.796875 L 176.726562 187.796875 Z M 83.96875 202.757812 L 92.945312 202.757812 L 92.945312 211.734375 L 83.96875 211.734375 Z M 176.726562 202.757812 L 185.703125 202.757812 L 185.703125 211.734375 L 176.726562 211.734375 Z M 83.96875 225.195312 L 92.945312 225.195312 L 92.945312 234.171875 L 83.96875 234.171875 Z M 176.726562 225.195312 L 185.703125 225.195312 L 185.703125 234.171875 L 176.726562 234.171875 Z M 176.726562 225.195312 "/>
<path style=" stroke:none;fill-rule:nonzero;fill:rgb(40.784314%,91.764706%,100%);fill-opacity:1;" d="M 102.234375 132.664062 L 168.0625 132.664062 L 168.0625 179.046875 L 102.234375 179.046875 Z M 102.234375 132.664062 "/>
<path style=" stroke:none;fill-rule:nonzero;fill:rgb(40.784314%,91.764706%,100%);fill-opacity:1;" d="M 101.921875 187.796875 L 167.75 187.796875 L 167.75 234.171875 L 101.921875 234.171875 Z M 101.921875 187.796875 "/>
<path style=" stroke:none;fill-rule:evenodd;fill:rgb(94.117647%,22.352941%,8.627451%);fill-opacity:0.941176;" d="M 126.648438 234.335938 C 126.648438 234.335938 128.109375 218.609375 140.039062 208.273438 C 151.96875 197.929688 167.921875 201.390625 167.921875 201.390625 L 167.765625 234.460938 Z M 126.648438 234.335938 "/>
<path style=" stroke:none;fill-rule:evenodd;fill:rgb(94.117647%,22.352941%,8.627451%);fill-opacity:0.941176;" d="M 117.296875 132.492188 C 117.296875 132.492188 117.15625 137.140625 121.007812 141.835938 C 124.867188 146.53125 129.070312 147.3125 129.070312 147.3125 L 128.945312 157.703125 L 133.554688 157.703125 L 133.679688 147.335938 C 133.679688 147.335938 137.304688 146.96875 141.492188 142.601562 C 145.671875 138.234375 145.328125 132.359375 145.328125 132.359375 Z M 117.296875 132.492188 "/>
<path style=" stroke:none;fill-rule:nonzero;fill:rgb(83.137255%,33.333333%,0%);fill-opacity:0.941176;" d="M 128.820312 159.085938 L 133.523438 159.085938 L 133.523438 162.703125 L 128.820312 162.703125 Z M 128.820312 159.085938 "/>
<path style="fill:none;stroke-width:9.274095;stroke-linecap:butt;stroke-linejoin:miter;stroke:rgb(100%,100%,100%);stroke-opacity:1;stroke-miterlimit:4;" d="M 93.36853 692.193723 L 93.673706 635.965085 L 98.861694 635.751462 L 115.219116 678.308225 L 118.667603 678.308225 L 135.116577 635.751462 L 140.518188 635.675168 L 140.518188 692.346311 " transform="matrix(0.512,0,0,0.512,0,-282.809436)"/>
<path style="fill:none;stroke-width:9.063828;stroke-linecap:butt;stroke-linejoin:miter;stroke:rgb(100%,100%,100%);stroke-opacity:1;stroke-miterlimit:4;" d="M 160.644531 691.629147 L 160.644531 635.186887 C 160.644531 635.186887 191.467285 629.251218 191.360474 649.499631 C 191.253662 669.763303 161.270142 664.239621 161.270142 664.239621 " transform="matrix(0.512,0,0,0.512,0,-282.809436)"/>
<path style="fill:none;stroke-width:9;stroke-linecap:butt;stroke-linejoin:bevel;stroke:rgb(100%,100%,100%);stroke-opacity:1;stroke-miterlimit:4;" d="M 238.15918 670.236325 L 203.964233 670.236325 L 225.387573 633.981442 L 224.975586 692.086911 " transform="matrix(0.512,0,0,0.512,0,-282.809436)"/>
</g>
</svg>
