<?xml version="1.0" encoding="UTF-8"?>
<svg xmlns="http://www.w3.org/2000/svg" xmlns:xlink="http://www.w3.org/1999/xlink" width="128" height="128" viewBox="0 0 128 128" version="1.1">
<g id="surface1">
<path style=" stroke:none;fill-rule:nonzero;fill:rgb(74.509804%,74.509804%,74.509804%);fill-opacity:1;" d="M 40 40 L 40 56 L 88 56 L 88 40 Z M 40 64 L 40 80 L 72 80 L 74 79 L 88 65 L 88 64 Z M 40 88.5 L 40 104 L 64 104 L 64 88.5 Z M 40 88.5 "/>
<path style=" stroke:none;fill-rule:nonzero;fill:rgb(74.509804%,74.509804%,74.509804%);fill-opacity:1;" d="M 43.761719 0 C 39.835938 0 37.390625 1.828125 35.511719 3.75 C 33.589844 5.671875 31.992188 8.230469 31.992188 11.988281 L 31.992188 15.988281 L 15.992188 15.988281 L 15.992188 127.988281 L 79.992188 127.988281 L 79.992188 111.988281 L 31.992188 111.988281 L 31.992188 31.988281 L 47.992188 31.988281 L 47.992188 15.988281 L 79.992188 15.988281 L 79.992188 31.988281 L 95.992188 31.988281 L 95.992188 55.988281 L 111.992188 55.988281 L 111.992188 15.988281 L 95.992188 15.988281 L 95.992188 12.492188 C 95.800781 9.046875 94.628906 6.722656 92.742188 4.492188 C 90.949219 2.375 87.726562 0.257812 83.492188 0.242188 L 83.492188 -0.0078125 L 43.742188 -0.0078125 Z M 43.761719 0 "/>
<path style=" stroke:none;fill-rule:nonzero;fill:rgb(74.509804%,74.509804%,74.509804%);fill-opacity:1;" d="M 102 64 C 100.578125 64.390625 99.265625 65.179688 98.25 66.25 L 74.25 90 C 72.367188 91.847656 71.492188 94.914062 72 97.5 L 72 104 L 97 104 L 90.25 114 C 89.035156 115.195312 88.289062 116.824219 88 118.5 L 88 128 L 96 128 C 98.109375 128.03125 100.222656 126.957031 101.75 125.5 L 125.75 101.5 C 127.21875 99.980469 128.050781 98.113281 128 96 C 128.023438 95.667969 128.023438 95.332031 128 95 L 128 88 L 120.5 88 C 120.335938 87.996094 120.167969 87.996094 120 88 L 103 88 L 109.75 77.5 C 110.964844 76.308594 111.710938 74.851562 112 73.25 L 112 64 Z M 102 64 "/>
<path style=" stroke:none;fill-rule:nonzero;fill:rgb(0%,0%,0%);fill-opacity:1;" d="M 16.089844 71.957031 L 16.089844 15.988281 L 32.070312 15.988281 L 32.144531 12.730469 C 32.207031 9.921875 32.269531 9.328125 32.578125 8.476562 C 33.929688 4.722656 37.386719 1.429688 41.101562 0.355469 C 42.011719 0.0898438 43.726562 0.0625 62.769531 0.015625 C 77.007812 -0.0234375 83.449219 0.015625 83.449219 0.132812 C 83.449219 0.226562 83.710938 0.304688 84.035156 0.304688 C 84.902344 0.304688 87.035156 0.777344 88.082031 1.207031 C 90.800781 2.308594 93.246094 4.660156 94.679688 7.550781 C 95.492188 9.191406 95.835938 10.820312 95.949219 13.554688 L 96.046875 15.988281 L 112.011719 15.988281 L 112.011719 55.941406 L 95.996094 55.941406 L 95.996094 32.003906 L 79.980469 32.003906 L 79.980469 15.988281 L 47.953125 15.988281 L 47.953125 32.003906 L 31.9375 32.003906 L 31.9375 112.078125 L 79.980469 112.078125 L 79.980469 127.925781 L 16.089844 127.925781 Z M 16.089844 71.957031 "/>
<path style=" stroke:none;fill-rule:nonzero;fill:rgb(100%,100%,0%);fill-opacity:1;" d="M 88.105469 122.765625 L 88.152344 117.605469 L 88.75 116.359375 C 89.078125 115.675781 89.566406 114.859375 89.839844 114.542969 C 90.308594 114.007812 96.988281 104.207031 96.988281 104.054688 C 96.988281 104.019531 91.386719 103.988281 84.542969 103.988281 L 72.101562 103.988281 L 72.023438 99.570312 C 71.933594 94.714844 72.039062 93.726562 72.824219 92.101562 C 73.347656 91.023438 75.566406 88.746094 89.832031 74.667969 C 98.886719 65.726562 99.5 65.15625 100.640625 64.613281 L 101.847656 64.03125 L 112.011719 64.03125 L 112.007812 68.53125 C 112.007812 73.285156 111.925781 73.964844 111.191406 75.425781 C 110.988281 75.832031 110.542969 76.503906 110.203125 76.910156 C 109.359375 77.929688 102.941406 87.925781 103.058594 88.042969 C 103.109375 88.09375 108.703125 88.136719 115.492188 88.136719 L 127.835938 88.136719 L 127.890625 91.894531 C 127.960938 96.84375 127.851562 97.972656 127.1875 99.351562 C 126.707031 100.347656 125.597656 101.5 113.601562 113.484375 C 102.339844 124.730469 100.402344 126.597656 99.578125 127 C 97.828125 127.847656 97.265625 127.921875 92.480469 127.925781 L 88.054688 127.925781 Z M 88.105469 122.765625 "/>
<path style=" stroke:none;fill-rule:nonzero;fill:rgb(100%,0%,0%);fill-opacity:1;" d="M 40.027344 96.308594 L 40.027344 88.632812 L 63.96875 88.632812 L 63.96875 103.988281 L 40.027344 103.988281 Z M 40.027344 96.308594 "/>
<path style=" stroke:none;fill-rule:nonzero;fill:rgb(100%,0%,0%);fill-opacity:1;" d="M 40.027344 71.957031 L 40.027344 64.03125 L 87.90625 64.03125 L 87.90625 64.488281 C 87.90625 64.867188 86.734375 66.109375 80.847656 71.984375 C 75.359375 77.460938 73.597656 79.121094 72.929688 79.453125 L 72.066406 79.882812 L 40.027344 79.882812 Z M 40.027344 71.957031 "/>
<path style=" stroke:none;fill-rule:nonzero;fill:rgb(100%,0%,0%);fill-opacity:1;" d="M 40.027344 48.019531 L 40.027344 40.09375 L 87.90625 40.09375 L 87.90625 55.941406 L 40.027344 55.941406 Z M 40.027344 48.019531 "/>
<path style=" stroke:none;fill-rule:nonzero;fill:rgb(100%,100%,100%);fill-opacity:1;" d="M 16.164062 71.972656 L 16.164062 16.378906 L 32.433594 16.378906 L 32.433594 12.832031 C 32.433594 7.714844 34.34375 4.480469 39.1875 1.398438 C 40.671875 0.457031 42.335938 0.367188 61.140625 0.195312 C 75.027344 0.0742188 82.53125 0.214844 84.757812 0.644531 C 91.171875 1.875 94.542969 5.527344 95.519531 12.296875 L 96.109375 16.378906 L 111.621094 16.378906 L 111.621094 55.429688 L 96.453125 55.429688 L 96.164062 31.835938 L 80.164062 31.539062 L 80.164062 15.835938 L 47.621094 15.835938 L 47.621094 31.566406 L 31.890625 31.566406 L 31.890625 112.378906 L 79.621094 112.378906 L 79.621094 127.566406 L 16.164062 127.566406 Z M 16.164062 71.972656 "/>
</g>
</svg>
