<?xml version="1.0" encoding="UTF-8"?>
<svg xmlns="http://www.w3.org/2000/svg" xmlns:xlink="http://www.w3.org/1999/xlink" width="128" height="128" viewBox="0 0 128 128" version="1.1">
<g id="surface1">
<path style=" stroke:none;fill-rule:nonzero;fill:rgb(0%,0%,0%);fill-opacity:1;" d="M 40 40 L 40 56 L 88 56 L 88 40 Z M 40 40 "/>
<path style=" stroke:none;fill-rule:nonzero;fill:rgb(0%,0%,0%);fill-opacity:1;" d="M 43.753906 0 C 39.828125 0 37.382812 1.828125 35.503906 3.75 C 33.621094 5.671875 32.003906 7.96875 32.003906 11.75 L 32.003906 15.988281 L 16.003906 15.988281 L 16.003906 127.988281 L 112.003906 127.988281 L 112.003906 15.988281 L 96.003906 15.988281 L 96.003906 12.492188 C 95.8125 9.046875 94.640625 6.722656 92.753906 4.492188 C 90.960938 2.375 87.738281 0.257812 83.503906 0.242188 L 83.503906 -0.0078125 L 43.753906 -0.0078125 Z M 48 16 L 80 16 L 80 32 L 96 32 L 96 112 L 32 112 L 32 32 L 48 32 Z M 48 16 "/>
<path style=" stroke:none;fill-rule:nonzero;fill:rgb(0%,0%,0%);fill-opacity:1;" d="M 40 64 L 40 80 L 88 80 L 88 64 Z M 40 64 "/>
<path style=" stroke:none;fill-rule:nonzero;fill:rgb(0%,0%,0%);fill-opacity:1;" d="M 40 88 L 40 104 L 88 104 L 88 88 Z M 40 88 "/>
<path style=" stroke:none;fill-rule:nonzero;fill:rgb(100%,0%,0%);fill-opacity:1;" d="M 40.027344 48.019531 L 40.027344 40.09375 L 87.90625 40.09375 L 87.90625 55.941406 L 40.027344 55.941406 Z M 40.027344 48.019531 "/>
<path style=" stroke:none;fill-rule:nonzero;fill:rgb(100%,0%,0%);fill-opacity:1;" d="M 40.027344 71.957031 L 40.027344 64.03125 L 87.90625 64.03125 L 87.90625 79.882812 L 40.027344 79.882812 Z M 40.027344 71.957031 "/>
<path style=" stroke:none;fill-rule:nonzero;fill:rgb(100%,0%,0%);fill-opacity:1;" d="M 40.027344 96.0625 L 40.027344 88.136719 L 87.90625 88.136719 L 87.90625 103.988281 L 40.027344 103.988281 Z M 40.027344 96.0625 "/>
<path style=" stroke:none;fill-rule:nonzero;fill:rgb(100%,100%,100%);fill-opacity:1;" d="M 16.164062 71.972656 L 16.164062 16.378906 L 32.433594 16.378906 L 32.433594 12.835938 C 32.433594 10.890625 32.765625 8.507812 33.167969 7.546875 C 34.1875 5.125 38.410156 1.390625 40.921875 0.695312 C 43.628906 -0.0546875 81.117188 -0.09375 85.105469 0.65625 C 91.125 1.78125 95.246094 6.492188 95.753906 12.824219 L 96.039062 16.378906 L 111.621094 16.378906 L 111.621094 127.566406 L 16.164062 127.566406 Z M 96.433594 71.972656 L 96.433594 31.566406 L 80.164062 31.566406 L 80.164062 15.835938 L 47.621094 15.835938 L 47.621094 31.566406 L 31.890625 31.566406 L 31.890625 112.378906 L 96.433594 112.378906 Z M 96.433594 71.972656 "/>
</g>
</svg>
