<?xml version="1.0" encoding="UTF-8"?>
<svg xmlns="http://www.w3.org/2000/svg" xmlns:xlink="http://www.w3.org/1999/xlink" width="128" height="128" viewBox="0 0 128 128" version="1.1">
<g id="surface1">
<path style=" stroke:none;fill-rule:nonzero;fill:rgb(74.509804%,74.509804%,74.509804%);fill-opacity:1;" d="M 40 88 L 40 104 L 88 104 L 88 88 Z M 40 88 "/>
<path style=" stroke:none;fill-rule:nonzero;fill:rgb(74.509804%,74.509804%,74.509804%);fill-opacity:1;" d="M 43.753906 0 C 39.828125 0 37.382812 1.828125 35.503906 3.75 C 33.621094 5.671875 32.003906 7.96875 32.003906 11.75 L 32.003906 15.988281 L 16.003906 15.988281 L 16.003906 127.988281 L 112.003906 127.988281 L 112.003906 15.988281 L 96.003906 15.988281 L 96.003906 12.492188 C 95.8125 9.046875 94.640625 6.722656 92.753906 4.492188 C 90.960938 2.375 87.738281 0.257812 83.503906 0.242188 L 83.503906 -0.0078125 L 43.753906 -0.0078125 Z M 48 16 L 80 16 L 80 32 L 96 32 L 96 112 L 32 112 L 32 32 L 48 32 Z M 48 16 "/>
<path style=" stroke:none;fill-rule:nonzero;fill:rgb(100%,0%,0%);fill-opacity:1;" d="M 40.027344 96.0625 L 40.027344 88.136719 L 87.90625 88.136719 L 87.90625 103.988281 L 40.027344 103.988281 Z M 40.027344 96.0625 "/>
<path style=" stroke:none;fill-rule:nonzero;fill:rgb(0%,0%,0%);fill-opacity:1;" d="M 16.089844 71.957031 L 16.089844 15.988281 L 32.074219 15.988281 L 32.140625 12.730469 C 32.199219 9.945312 32.261719 9.308594 32.570312 8.375 C 33.449219 5.695312 36.554688 2.273438 39.207031 1.0625 C 41.523438 0.0078125 40.03125 0.0742188 62.769531 0.015625 C 77.007812 -0.0234375 83.449219 0.015625 83.449219 0.132812 C 83.449219 0.226562 83.710938 0.304688 84.035156 0.304688 C 84.851562 0.304688 86.964844 0.761719 87.96875 1.152344 C 90.832031 2.273438 93.796875 5.210938 94.953125 8.074219 C 95.636719 9.769531 95.847656 10.90625 95.945312 13.472656 L 96.046875 15.988281 L 112.011719 15.988281 L 112.011719 127.925781 L 16.089844 127.925781 Z M 95.996094 72.039062 L 95.996094 32.003906 L 79.980469 32.003906 L 79.980469 15.988281 L 47.953125 15.988281 L 47.953125 32.003906 L 31.9375 32.003906 L 31.9375 112.078125 L 95.996094 112.078125 Z M 95.996094 72.039062 "/>
<path style=" stroke:none;fill-rule:nonzero;fill:rgb(100%,100%,100%);fill-opacity:1;" d="M 16.164062 71.972656 L 16.164062 16.378906 L 32.433594 16.378906 L 32.433594 12.890625 C 32.433594 8.609375 32.90625 7.296875 35.488281 4.441406 C 39.21875 0.3125 38.46875 0.4375 60.90625 0.199219 C 84.035156 -0.0429688 86.890625 0.238281 90.664062 3.117188 C 93.59375 5.359375 95.230469 8.574219 95.695312 13.019531 L 96.046875 16.378906 L 111.621094 16.378906 L 111.621094 127.566406 L 16.164062 127.566406 Z M 96.300781 72.109375 L 96.164062 31.835938 L 80.164062 31.539062 L 80.164062 15.835938 L 47.621094 15.835938 L 47.621094 31.566406 L 31.890625 31.566406 L 31.890625 112.378906 L 96.441406 112.378906 Z M 96.300781 72.109375 "/>
</g>
</svg>
