<?xml version="1.0" encoding="UTF-8"?>
<svg xmlns="http://www.w3.org/2000/svg" xmlns:xlink="http://www.w3.org/1999/xlink" width="128" height="128" viewBox="0 0 128 128" version="1.1">
<g id="surface1">
<path style=" stroke:none;fill-rule:nonzero;fill:rgb(100%,100%,100%);fill-opacity:1;" d="M 16.503906 0 C 7.296875 0 0.00390625 7.292969 0.00390625 16.5 L 0.00390625 111.5 C 0.00390625 120.707031 7.296875 128 16.503906 128 L 111.503906 128 C 120.710938 128 128.003906 120.707031 128.003906 111.5 L 128.003906 16.5 C 128.003906 7.300781 120.707031 0.0195312 111.507812 0.0195312 L 16.507812 0.0195312 Z M 16.003906 24 L 48.003906 24 C 50.726562 24.066406 53.226562 25.511719 54.644531 27.839844 C 56.058594 30.164062 56.195312 33.050781 55.003906 35.5 L 44.003906 57.75 C 46.839844 58.671875 49.996094 59.3125 51.753906 61.25 C 54.414062 64.179688 56.003906 67.730469 56.003906 72 L 56.003906 88 C 56.003906 96.898438 48.746094 104 40.003906 104 L 16.003906 104 L 16.003906 88 L 40.003906 88 L 40.003906 72 L 32.003906 72 C 29.28125 71.933594 26.78125 70.488281 25.363281 68.160156 C 23.949219 65.835938 23.8125 62.949219 25.003906 60.5 L 35.003906 40 L 16.003906 40 Z M 80.503906 24.25 L 95.753906 24.25 C 95.777344 24.25 95.730469 24.5 95.753906 24.5 C 99.972656 24.335938 104.335938 25.105469 107.753906 28.25 C 111.074219 31.296875 112.5 36.308594 112.253906 41 L 112.503906 41 L 112.503906 48 L 96.503906 48 L 96.503906 40.25 C 96.363281 40.234375 96.527344 40.234375 96.253906 40.25 L 80.503906 40.25 C 80.285156 40.25 80.328125 40.265625 80.257812 40.25 C 80.207031 40.28125 80.023438 40.226562 80.007812 40.25 C 79.949219 40.429688 80.0625 40.621094 80.007812 40.75 L 80.007812 87.5 C 79.816406 87.324219 80.007812 88 80.007812 88 L 95.757812 88 C 95.8125 87.84375 95.992188 87.871094 96.007812 88 C 96.011719 88.0625 96.007812 87.554688 96.007812 87.75 L 96.007812 72.25 L 88.007812 72.25 L 88.007812 56.25 L 112.007812 56.25 L 112.007812 87.75 C 112.007812 92.25 110.191406 95.746094 107.507812 98.75 C 104.980469 101.578125 100.691406 103.804688 95.757812 103.75 L 95.757812 104 L 80.007812 104 C 75.007812 104 72.054688 102.070312 69.257812 99.5 C 66.609375 97.066406 64.105469 93.179688 64.257812 88 C 64.257812 87.984375 64.003906 88.015625 64.007812 88 L 64.007812 39.5 C 64.507812 36.003906 65.648438 32.386719 68.507812 29.25 C 71.363281 26.113281 76.074219 24.25 80.507812 24.25 Z M 80.503906 24.25 "/>
</g>
</svg>
