<?xml version="1.0" encoding="UTF-8"?>
<svg xmlns="http://www.w3.org/2000/svg" xmlns:xlink="http://www.w3.org/1999/xlink" width="128" height="128" viewBox="0 0 128 128" version="1.1">
<g id="surface1">
<path style=" stroke:none;fill-rule:nonzero;fill:rgb(100%,100%,100%);fill-opacity:1;" d="M 16.480469 0 C 7.273438 0 -0.0195312 7.292969 -0.0195312 16.5 L -0.0195312 111.5 C -0.0195312 120.707031 7.273438 128 16.480469 128 L 111.480469 128 C 120.6875 128 127.980469 120.707031 127.980469 111.5 L 127.980469 16.5 C 127.980469 7.292969 120.6875 0 111.480469 0 Z M 47.980469 24 L 95.980469 24 L 95.980469 40 L 47.980469 40 L 47.980469 56 L 95.980469 56 L 95.980469 72 L 47.980469 72 L 47.980469 88 C 47.976562 87.996094 48.230469 88 48.230469 88 L 95.980469 88 L 95.980469 104 L 47.980469 104 C 42.980469 104 40.027344 102.070312 37.230469 99.5 C 34.582031 97.066406 32.078125 93.183594 32.230469 88 L 31.980469 88 L 31.980469 40 L 32.230469 40 C 32.125 36.199219 33.109375 32.003906 35.980469 28.75 C 38.808594 25.542969 43.453125 24.085938 47.980469 24.25 Z M 47.980469 24 "/>
</g>
</svg>
