<?xml version="1.0" encoding="UTF-8"?>
<svg xmlns="http://www.w3.org/2000/svg" xmlns:xlink="http://www.w3.org/1999/xlink" width="128" height="128" viewBox="0 0 128 128" version="1.1">
<g id="surface1">
<path style=" stroke:none;fill-rule:nonzero;fill:rgb(100%,100%,100%);fill-opacity:1;" d="M 16 8 L 16 64 C 16 80.574219 28.078125 93.449219 38.75 103 C 49.425781 112.550781 60 119 60 119 L 64 121.25 L 68.25 118.75 C 68.25 118.75 78.605469 112.371094 89.25 102.75 C 99.890625 93.070312 111.96875 80.269531 111.96875 63.949219 L 111.96875 7.949219 L 15.96875 7.949219 Z M 32 24 L 96 24 L 96 64 C 96 71.359375 88.105469 82.546875 78.75 91 C 71.503906 97.546875 66.917969 100.113281 64 102 C 61.167969 100.21875 56.570312 97.800781 49.25 91.25 C 39.890625 82.847656 31.96875 71.808594 31.96875 63.96875 L 31.96875 23.96875 Z M 32 24 "/>
</g>
</svg>
