<?xml version="1.0" encoding="UTF-8"?>
<svg xmlns="http://www.w3.org/2000/svg" xmlns:xlink="http://www.w3.org/1999/xlink" width="128" height="128" viewBox="0 0 128 128" version="1.1">
<g id="surface1">
<path style=" stroke:none;fill-rule:nonzero;fill:rgb(100%,100%,100%);fill-opacity:1;" d="M 104 120 L 104 84 L 76 84 Z M 104 120 "/>
<path style=" stroke:none;fill-rule:nonzero;fill:rgb(100%,100%,100%);fill-opacity:1;" d="M 28 8 C 16.921875 8 8 16.921875 8 28 L 8 68 C 8 79.078125 16.921875 88 28 88 L 100 88 C 111.078125 88 120 79.078125 120 68 L 120 28 C 120 16.921875 111.078125 8 100 8 Z M 64 24 L 72 24 C 74.210938 24 76.300781 24.800781 77.75 26.25 L 93.75 42.25 L 99.25 48 L 93.75 53.75 L 77.75 69.75 C 76.308594 71.191406 74.230469 71.988281 71.988281 71.988281 L 63.988281 71.988281 L 63.988281 63.988281 C 63.988281 61.78125 64.792969 59.6875 66.238281 58.238281 L 68.480469 56 L 31.980469 56 L 31.980469 40 L 68.480469 40 L 66.230469 37.75 C 64.789062 36.308594 63.988281 34.230469 63.988281 31.988281 L 63.988281 23.988281 Z M 64 24 "/>
</g>
</svg>
