<?xml version="1.0" encoding="UTF-8"?>
<svg xmlns="http://www.w3.org/2000/svg" xmlns:xlink="http://www.w3.org/1999/xlink" width="22" height="22" viewBox="0 0 22 22" version="1.1">
<g id="surface1">
<path style=" stroke:none;fill-rule:nonzero;fill:rgb(74.509804%,74.509804%,74.509804%);fill-opacity:1;" d="M 4.8125 6.875 C 4.433594 6.875 4.125 7.183594 4.125 7.5625 L 4.125 11.644531 C 4.125 14.351562 5.855469 16.628906 8.25 17.488281 L 8.25 19.25 L 5.5 19.25 C 4.722656 19.25 4.125 19.925781 4.125 20.625 L 4.125 22 L 16.5 22 L 16.5 20.625 C 16.5 19.820312 15.84375 19.25 15.125 19.25 L 12.375 19.25 L 12.375 17.488281 C 14.769531 16.628906 16.5 14.351562 16.5 11.644531 L 16.5 7.5625 C 16.5 7.183594 16.191406 6.875 15.8125 6.875 C 15.433594 6.875 15.125 7.183594 15.125 7.5625 C 15.125 7.65625 15.132812 7.738281 15.167969 7.820312 L 15.167969 11.644531 C 15.167969 14.34375 12.996094 16.5 10.3125 16.5 C 7.628906 16.5 5.5 14.34375 5.5 11.644531 L 5.5 7.5625 C 5.5 7.183594 5.191406 6.875 4.8125 6.875 Z M 10.3125 1.363281 C 12.214844 1.363281 13.75 2.894531 13.75 4.800781 L 13.75 11.6875 C 13.75 13.589844 12.214844 15.125 10.3125 15.125 C 8.410156 15.125 6.875 13.589844 6.875 11.6875 L 6.875 4.796875 C 6.875 2.890625 8.410156 1.359375 10.3125 1.359375 Z M 10.3125 1.363281 "/>
<path style=" stroke:none;fill-rule:nonzero;fill:rgb(100%,100%,100%);fill-opacity:1;" d="M 9.890625 15.089844 C 9.535156 15.046875 9.15625 14.929688 8.796875 14.753906 C 8.40625 14.558594 8.164062 14.386719 7.875 14.089844 C 7.582031 13.792969 7.4375 13.585938 7.246094 13.203125 C 7.0625 12.828125 6.953125 12.46875 6.910156 12.070312 C 6.871094 11.722656 6.871094 4.753906 6.910156 4.410156 C 7.054688 3.117188 7.929688 2.011719 9.148438 1.574219 C 9.613281 1.40625 10.050781 1.347656 10.5625 1.386719 C 11.410156 1.453125 12.128906 1.78125 12.730469 2.378906 C 13.210938 2.859375 13.507812 3.394531 13.671875 4.097656 C 13.730469 4.347656 13.730469 4.40625 13.738281 8.054688 C 13.746094 10.695312 13.742188 11.839844 13.71875 12.039062 C 13.582031 13.246094 12.875 14.253906 11.804688 14.769531 C 11.199219 15.058594 10.5625 15.167969 9.890625 15.089844 Z M 9.890625 15.089844 "/>
<path style=" stroke:none;fill-rule:nonzero;fill:rgb(100%,100%,100%);fill-opacity:1;" d="M 4.128906 21.269531 C 4.128906 20.460938 4.152344 20.273438 4.300781 20 C 4.414062 19.789062 4.636719 19.554688 4.84375 19.4375 C 5.140625 19.265625 5.183594 19.261719 6.800781 19.261719 L 8.269531 19.261719 L 8.269531 17.484375 L 8.105469 17.421875 C 7.859375 17.332031 7.351562 17.078125 7.0625 16.898438 C 5.773438 16.101562 4.789062 14.800781 4.375 13.347656 C 4.144531 12.542969 4.121094 12.175781 4.132812 9.53125 C 4.140625 7.390625 4.140625 7.386719 4.203125 7.273438 C 4.28125 7.125 4.460938 6.964844 4.59375 6.921875 C 4.878906 6.824219 5.226562 6.953125 5.390625 7.214844 L 5.476562 7.355469 L 5.492188 9.785156 C 5.507812 12.433594 5.507812 12.394531 5.683594 13.007812 C 6.238281 14.921875 7.828125 16.265625 9.808594 16.480469 C 10.898438 16.601562 12.058594 16.320312 12.976562 15.71875 C 14.070312 14.996094 14.773438 13.960938 15.085938 12.605469 C 15.148438 12.324219 15.152344 12.316406 15.15625 9.832031 L 15.160156 7.339844 L 15.242188 7.207031 C 15.398438 6.957031 15.75 6.828125 16.03125 6.921875 C 16.167969 6.964844 16.34375 7.125 16.421875 7.273438 L 16.484375 7.386719 L 16.484375 9.742188 C 16.484375 12.214844 16.480469 12.335938 16.355469 12.929688 C 16.015625 14.507812 15.074219 15.894531 13.726562 16.792969 C 13.402344 17.007812 12.886719 17.277344 12.5625 17.40625 L 12.355469 17.484375 L 12.355469 19.261719 L 13.824219 19.261719 C 15.035156 19.261719 15.324219 19.269531 15.457031 19.304688 C 15.910156 19.421875 16.253906 19.738281 16.417969 20.1875 C 16.472656 20.339844 16.480469 20.425781 16.492188 21.171875 L 16.503906 21.988281 L 4.128906 21.988281 Z M 4.128906 21.269531 "/>
</g>
</svg>
