<?xml version="1.0" encoding="UTF-8"?>
<svg xmlns="http://www.w3.org/2000/svg" xmlns:xlink="http://www.w3.org/1999/xlink" width="22" height="22" viewBox="0 0 22 22" version="1.1">
<defs>
<filter id="alpha" filterUnits="objectBoundingBox" x="0%" y="0%" width="100%" height="100%">
  <feColorMatrix type="matrix" in="SourceGraphic" values="0 0 0 0 1 0 0 0 0 1 0 0 0 0 1 0 0 0 1 0"/>
</filter>
<image id="image12" width="22" height="22" xlink:href="data:image/png;base64,iVBORw0KGgoAAAANSUhEUgAAABYAAAAWCAYAAADEtGw7AAAABmJLR0QA/wD/AP+gvaeTAAAAU0lEQVQ4jWNgGGqAEV3gf0MzE1kGNdT+w2/wn2Bfhr/ZPCSZyjz1CyPL2s3IQmS5jhiA6eKPekIMTL+YSTLlH9tfRv5L76jmqlEwCkbBKBgFVAMAZQoSBlxQBLsAAAAASUVORK5CYII="/>
<mask id="mask0">
  <g filter="url(#alpha)">
<use xlink:href="#image12"/>
  </g>
</mask>
<clipPath id="clip1">
  <rect x="0" y="0" width="22" height="22"/>
</clipPath>
<g id="surface11" clip-path="url(#clip1)">
<path style=" stroke:none;fill-rule:nonzero;fill:rgb(74.509804%,74.509804%,74.509804%);fill-opacity:1;" d="M 4.125 5.5 L 17.875 5.5 L 17.875 2.75 L 4.125 2.75 Z M 4.125 5.5 "/>
</g>
<image id="image21" width="22" height="22" xlink:href="data:image/png;base64,iVBORw0KGgoAAAANSUhEUgAAABYAAAAWCAYAAADEtGw7AAAABmJLR0QA/wD/AP+gvaeTAAAAOklEQVQ4jWNgGAWjYBQMI8CIT/L/H54QvJpZvqzBJceC19q/m1jxyjM44ZTBbzDjv7v4DR4Fo2B4AwDo0Qfcn/2W6wAAAABJRU5ErkJggg=="/>
<mask id="mask1">
  <g filter="url(#alpha)">
<use xlink:href="#image21"/>
  </g>
</mask>
<clipPath id="clip2">
  <rect x="0" y="0" width="22" height="22"/>
</clipPath>
<g id="surface20" clip-path="url(#clip2)">
<path style=" stroke:none;fill-rule:nonzero;fill:rgb(74.509804%,74.509804%,74.509804%);fill-opacity:1;" d="M 6.875 11.039062 L 15.125 11.039062 L 15.125 12.371094 L 6.875 13.746094 Z M 6.875 11.039062 "/>
</g>
</defs>
<g id="surface3">
<path style=" stroke:none;fill-rule:nonzero;fill:rgb(74.509804%,74.509804%,74.509804%);fill-opacity:1;" d="M 4.125 0 C 3.328125 0 2.667969 0.273438 2.105469 0.773438 C 1.824219 1.023438 1.570312 1.347656 1.417969 1.804688 C 1.265625 2.261719 1.265625 2.871094 1.503906 3.351562 L 2.878906 6.101562 C 3 6.347656 3.15625 6.6875 3.394531 7.046875 C 3.722656 6.945312 4.074219 6.875 4.425781 6.875 L 17.574219 6.875 C 17.925781 6.875 18.273438 6.945312 18.605469 7.046875 C 18.84375 6.6875 19 6.347656 19.121094 6.101562 L 20.496094 3.351562 C 20.734375 2.871094 20.734375 2.261719 20.582031 1.804688 C 20.429688 1.347656 20.175781 1.023438 19.894531 0.773438 C 19.34375 0.277344 18.683594 0.00390625 17.886719 0.00390625 L 4.136719 0.00390625 Z M 4.296875 2.75 L 17.703125 2.75 L 16.628906 4.898438 C 16.46875 5.226562 16.386719 5.410156 16.328125 5.5 L 5.671875 5.5 C 5.613281 5.410156 5.53125 5.226562 5.371094 4.898438 L 4.3125 2.753906 Z M 4.296875 2.75 "/>
<path style=" stroke:none;fill-rule:nonzero;fill:rgb(74.509804%,74.509804%,74.509804%);fill-opacity:1;" d="M 5.5 8.25 C 4.828125 8.25 4.214844 8.449219 3.695312 8.851562 C 3.175781 9.253906 2.75 9.925781 2.75 10.699219 L 2.75 22 L 19.25 22 L 19.25 10.699219 C 19.25 9.925781 18.824219 9.253906 18.304688 8.851562 C 17.796875 8.4375 17.175781 8.246094 16.503906 8.246094 Z M 5.5 9.625 L 16.5 9.625 L 16.5 17.875 L 5.5 17.875 Z M 15.125 19.25 L 16.5 19.25 L 16.5 20.625 L 15.125 20.625 Z M 15.125 19.25 "/>
<use xlink:href="#surface11" mask="url(#mask0)"/>
<path style=" stroke:none;fill-rule:nonzero;fill:rgb(74.509804%,74.509804%,74.509804%);fill-opacity:1;" d="M 6.875 15.164062 L 15.125 15.164062 L 15.125 16.539062 L 6.875 16.539062 Z M 6.875 15.164062 "/>
<use xlink:href="#surface20" mask="url(#mask1)"/>
<path style=" stroke:none;fill-rule:nonzero;fill:rgb(100%,100%,100%);fill-opacity:1;" d="M 2.773438 16.148438 C 2.78125 9.601562 2.757812 10.214844 2.992188 9.742188 C 3.339844 9.03125 3.941406 8.566406 4.816406 8.332031 L 5.050781 8.269531 L 10.851562 8.257812 C 14.796875 8.253906 16.726562 8.261719 16.882812 8.28125 C 17.371094 8.34375 17.734375 8.476562 18.101562 8.71875 C 18.640625 9.078125 19 9.570312 19.175781 10.183594 L 19.238281 10.394531 L 19.253906 21.988281 L 2.765625 21.988281 Z M 16.5 19.929688 L 16.5 19.234375 L 15.109375 19.234375 L 15.109375 20.625 L 16.5 20.625 Z M 16.5 13.742188 L 16.5 9.613281 L 5.488281 9.613281 L 5.488281 17.871094 L 16.5 17.871094 Z M 16.5 13.742188 "/>
<path style=" stroke:none;fill-rule:nonzero;fill:rgb(100%,100%,100%);fill-opacity:1;" d="M 3.292969 6.871094 C 3.089844 6.53125 1.433594 3.171875 1.386719 3 C 1.316406 2.753906 1.316406 2.207031 1.382812 1.953125 C 1.449219 1.699219 1.65625 1.292969 1.820312 1.089844 C 2.1875 0.632812 2.777344 0.257812 3.367188 0.101562 L 3.601562 0.0390625 L 18.441406 0.0390625 L 18.699219 0.117188 C 19.222656 0.28125 19.621094 0.519531 19.988281 0.882812 C 20.4375 1.339844 20.636719 1.777344 20.660156 2.378906 C 20.6875 2.949219 20.710938 2.886719 19.652344 5.003906 C 19.136719 6.035156 18.6875 6.910156 18.652344 6.953125 L 18.585938 7.03125 L 18.378906 6.976562 C 18.269531 6.949219 18.078125 6.910156 17.960938 6.894531 C 17.8125 6.871094 15.59375 6.863281 11 6.863281 C 3.859375 6.863281 3.992188 6.859375 3.574219 6.988281 C 3.496094 7.011719 3.421875 7.03125 3.414062 7.03125 C 3.402344 7.03125 3.347656 6.960938 3.292969 6.871094 Z M 17.019531 4.132812 C 17.386719 3.382812 17.6875 2.761719 17.679688 2.757812 C 17.675781 2.753906 14.664062 2.75 10.992188 2.753906 L 4.308594 2.761719 L 4.984375 4.132812 L 5.660156 5.5 L 16.34375 5.5 Z M 17.019531 4.132812 "/>
</g>
</svg>
