<?xml version="1.0" encoding="UTF-8"?>
<svg xmlns="http://www.w3.org/2000/svg" xmlns:xlink="http://www.w3.org/1999/xlink" width="48" height="48" viewBox="0 0 48 48" version="1.1">
<g id="surface1">
<path style=" stroke:none;fill-rule:evenodd;fill:rgb(50.196078%,20%,0%);fill-opacity:1;" d="M 6.050781 14.289062 L 11.160156 19.289062 L 11 12.277344 L 6.046875 12.253906 Z M 6.050781 14.289062 "/>
<path style="fill-rule:evenodd;fill:rgb(94.901961%,94.901961%,94.901961%);fill-opacity:1;stroke-width:5.03546;stroke-linecap:butt;stroke-linejoin:miter;stroke:rgb(68.627451%,68.627451%,68.627451%);stroke-opacity:1;stroke-miterlimit:4;" d="M 97.045898 1024.814979 L 433.919271 1023.675656 L 435.099284 659.784055 L 347.045898 570.550656 L 97.045898 570.550656 Z M 97.045898 1024.814979 " transform="matrix(0.096,0,0,0.096,0,-53.026769)"/>
<path style="fill-rule:evenodd;fill:rgb(68.627451%,68.627451%,68.627451%);fill-opacity:1;stroke-width:5.03546;stroke-linecap:butt;stroke-linejoin:miter;stroke:rgb(68.627451%,68.627451%,68.627451%);stroke-opacity:1;stroke-miterlimit:4;" d="M 431.518555 657.953 L 349.365234 657.342648 L 350.097656 573.561724 Z M 431.518555 657.953 " transform="matrix(0.096,0,0,0.096,0,-53.026769)"/>
<path style=" stroke:none;fill-rule:nonzero;fill:rgb(100%,40%,0%);fill-opacity:1;" d="M 6.0625 6.222656 L 27.910156 6.222656 L 27.910156 14.320312 L 6.0625 14.320312 Z M 6.0625 6.222656 "/>
<path style="fill-rule:nonzero;fill:rgb(0%,73.333333%,94.901961%);fill-opacity:1;stroke-width:6.833039;stroke-linecap:round;stroke-linejoin:round;stroke:rgb(100%,100%,100%);stroke-opacity:1;stroke-miterlimit:4;" d="M 141.293962 807.745106 L 352.779646 807.729281 L 352.786266 983.445026 L 141.259895 983.460307 Z M 141.293962 807.745106 " transform="matrix(0.0959914,-0.00128575,0.00128575,0.0959914,0,-53.026769)"/>
<path style="fill-rule:nonzero;fill:rgb(100%,40%,0%);fill-opacity:1;stroke-width:6.833039;stroke-linecap:round;stroke-linejoin:round;stroke:rgb(100%,100%,100%);stroke-opacity:1;stroke-miterlimit:4;" d="M -269.53166 827.265916 L -58.039209 827.2637 L -58.048821 1002.961403 L -269.541272 1002.963619 Z M -269.53166 827.265916 " transform="matrix(0.0855716,-0.0435143,0.0435143,0.0855716,0,-53.026769)"/>
<path style=" stroke:none;fill-rule:nonzero;fill:rgb(98.039216%,92.54902%,42.745098%);fill-opacity:1;" d="M 20.871094 30.976562 C 21.378906 31.976562 20.964844 33.203125 19.949219 33.722656 C 18.929688 34.242188 17.695312 33.855469 17.183594 32.855469 C 16.671875 31.859375 17.082031 30.628906 18.101562 30.105469 C 19.117188 29.585938 20.355469 29.96875 20.867188 30.96875 "/>
<path style="fill-rule:nonzero;fill:rgb(50.196078%,20%,0%);fill-opacity:1;stroke-width:0.28471;stroke-linecap:butt;stroke-linejoin:miter;stroke:rgb(0%,0%,0%);stroke-opacity:1;stroke-miterlimit:4;" d="M 186.442057 953.770057 L 215.616862 1011.834836 L 398.55957 918.491737 L 373.657227 870.843625 C 373.657227 870.843625 352.539062 893.223182 328.735352 901.727414 C 304.931641 910.272336 256.266276 898.960487 231.933594 909.987505 C 207.600911 921.014523 186.442057 953.770057 186.442057 953.770057 Z M 186.442057 953.770057 " transform="matrix(0.096,0,0,0.096,0,-53.026769)"/>
<path style="fill:none;stroke-width:9;stroke-linecap:butt;stroke-linejoin:miter;stroke:rgb(100%,100%,100%);stroke-opacity:1;stroke-miterlimit:4;" d="M 127.970378 631.341672 L 127.970378 684.279497 L 148.152669 684.279497 C 148.152669 684.279497 163.94043 685.13399 163.411458 670.363482 C 162.882487 655.592974 149.414062 655.877805 149.414062 655.877805 L 131.266276 655.877805 L 149.169922 655.633664 C 149.169922 655.633664 160.31901 655.348833 160.19694 642.979042 C 160.07487 630.60925 144.775391 631.341672 144.775391 631.341672 Z M 127.970378 631.341672 " transform="matrix(0.096,0,0,0.096,0,-53.026769)"/>
<path style="fill:none;stroke-width:9;stroke-linecap:butt;stroke-linejoin:miter;stroke:rgb(100%,100%,100%);stroke-opacity:1;stroke-miterlimit:4;" d="M 177.001953 686.883664 L 177.327474 632.318234 L 182.332357 632.074094 L 198.201497 673.41524 L 201.578776 673.41524 L 217.529297 632.074094 L 222.77832 632.033404 L 222.77832 687.005734 " transform="matrix(0.096,0,0,0.096,0,-53.026769)"/>
<path style="fill:none;stroke-width:9.063828;stroke-linecap:butt;stroke-linejoin:miter;stroke:rgb(100%,100%,100%);stroke-opacity:1;stroke-miterlimit:4;" d="M 240.478516 687.575396 L 240.478516 631.097531 C 240.478516 631.097531 271.321615 625.156776 271.199544 645.420448 C 271.077474 665.68412 241.088867 660.150266 241.088867 660.150266 " transform="matrix(0.096,0,0,0.096,0,-53.026769)"/>
</g>
</svg>
