<?xml version="1.0" encoding="UTF-8"?>
<svg xmlns="http://www.w3.org/2000/svg" xmlns:xlink="http://www.w3.org/1999/xlink" width="48" height="48" viewBox="0 0 48 48" version="1.1">
<g id="surface1">
<path style=" stroke:none;fill-rule:evenodd;fill:rgb(10.196078%,10.196078%,10.196078%);fill-opacity:1;" d="M 6.066406 14.824219 L 11.175781 19.828125 L 11.015625 12.8125 L 6.0625 12.789062 Z M 6.066406 14.824219 "/>
<path style="fill-rule:evenodd;fill:rgb(94.901961%,94.901961%,94.901961%);fill-opacity:1;stroke-width:5.03546;stroke-linecap:butt;stroke-linejoin:miter;stroke:rgb(68.627451%,68.627451%,68.627451%);stroke-opacity:1;stroke-miterlimit:4;" d="M 96.923828 1029.819862 L 433.797201 1028.680539 L 434.977214 664.788937 L 346.923828 575.555539 L 96.923828 575.555539 Z M 96.923828 1029.819862 " transform="matrix(0.096,0,0,0.096,0,-53.026769)"/>
<path style="fill-rule:evenodd;fill:rgb(68.627451%,68.627451%,68.627451%);fill-opacity:1;stroke-width:5.03546;stroke-linecap:butt;stroke-linejoin:miter;stroke:rgb(68.627451%,68.627451%,68.627451%);stroke-opacity:1;stroke-miterlimit:4;" d="M 431.396484 662.917193 L 349.202474 662.347531 L 349.975586 578.566607 Z M 431.396484 662.917193 " transform="matrix(0.096,0,0,0.096,0,-53.026769)"/>
<path style=" stroke:none;fill-rule:nonzero;fill:rgb(22.352941%,25.098039%,31.372549%);fill-opacity:1;" d="M 6.046875 6.703125 L 28.425781 6.703125 L 28.425781 14.800781 L 6.046875 14.800781 Z M 6.046875 6.703125 "/>
<path style="fill-rule:nonzero;fill:rgb(98.039216%,92.54902%,42.745098%);fill-opacity:1;stroke-width:13.157895;stroke-linecap:butt;stroke-linejoin:miter;stroke:rgb(22.352941%,25.098039%,31.372549%);stroke-opacity:1;stroke-miterlimit:4;" d="M 380.249023 902.378456 C 380.249023 967.767453 327.229818 1020.786659 261.84082 1020.786659 C 196.411133 1020.786659 143.391927 967.767453 143.391927 902.378456 C 143.391927 836.989458 196.370443 783.970253 261.75944 783.929562 C 327.189128 783.929562 380.208333 836.908078 380.249023 902.337766 " transform="matrix(0.096,0,0,0.096,0,-53.026769)"/>
<path style=" stroke:none;fill-rule:nonzero;fill:rgb(22.352941%,25.098039%,31.372549%);fill-opacity:1;" d="M 21.828125 31.9375 L 27.132812 31.925781 L 27.171875 39.007812 C 27.171875 39.007812 27.15625 39.191406 27.296875 39.339844 C 27.433594 39.488281 27.570312 39.492188 27.570312 39.492188 L 28.75 39.5 L 28.761719 40.359375 L 22.019531 40.34375 L 22.011719 39.472656 L 23.390625 39.476562 C 23.390625 39.476562 23.582031 39.453125 23.691406 39.296875 C 23.800781 39.140625 23.773438 38.96875 23.773438 38.96875 L 23.765625 33.246094 C 23.765625 33.246094 23.785156 33.101562 23.589844 32.933594 C 23.394531 32.765625 23.210938 32.785156 23.210938 32.785156 L 21.835938 32.769531 Z M 21.828125 31.9375 "/>
<path style=" stroke:none;fill-rule:nonzero;fill:rgb(22.352941%,25.098039%,31.372549%);fill-opacity:1;" d="M 27.183594 28.992188 C 27.183594 30.074219 26.324219 30.953125 25.257812 30.957031 C 24.195312 30.957031 23.332031 30.082031 23.328125 28.996094 C 23.328125 27.910156 24.1875 27.03125 25.25 27.023438 C 26.3125 27.023438 27.179688 27.898438 27.183594 28.980469 "/>
<path style="fill:none;stroke-width:9;stroke-linecap:butt;stroke-linejoin:bevel;stroke:rgb(100%,100%,100%);stroke-opacity:1;stroke-miterlimit:4;" d="M 124.226888 695.062375 L 124.023438 634.108599 L 166.056315 694.248573 L 166.056315 633.254107 " transform="matrix(0.096,0,0,0.096,0,-53.026769)"/>
<path style="fill:none;stroke-width:9;stroke-linecap:butt;stroke-linejoin:miter;stroke:rgb(100%,100%,100%);stroke-opacity:1;stroke-miterlimit:4;" d="M 233.377454 692.495262 L 233.784355 640.778139 L 268.248874 640.9409 " transform="matrix(0.096,0,0,0.096,-4.478454,-53.366264)"/>
<path style="fill:none;stroke-width:9;stroke-linecap:butt;stroke-linejoin:miter;stroke:rgb(100%,100%,100%);stroke-opacity:1;stroke-miterlimit:4;" d="M 236.144382 664.58185 L 265.278496 664.744611 " transform="matrix(0.096,0,0,0.096,-4.478454,-53.366264)"/>
<path style="fill:none;stroke-width:9;stroke-linecap:butt;stroke-linejoin:miter;stroke:rgb(100%,100%,100%);stroke-opacity:1;stroke-miterlimit:4;" d="M 252.888997 691.522336 C 240.885417 691.440956 229.573568 679.355995 229.492188 664.056516 C 229.410807 648.757036 241.455078 636.468625 253.621419 636.834836 C 265.74707 637.160357 276.367188 648.716346 276.570638 665.033078 C 276.774089 681.30912 264.933268 691.644406 252.888997 691.522336 Z M 252.888997 691.522336 " transform="matrix(0.096,0,0,0.096,0,-53.026769)"/>
</g>
</svg>
