<?xml version="1.0" encoding="UTF-8"?>
<svg xmlns="http://www.w3.org/2000/svg" xmlns:xlink="http://www.w3.org/1999/xlink" width="48" height="48" viewBox="0 0 48 48" version="1.1">
<g id="surface1">
<path style=" stroke:none;fill-rule:evenodd;fill:rgb(8.627451%,31.372549%,8.627451%);fill-opacity:1;" d="M 6.050781 14.769531 L 11.160156 19.769531 L 11 12.757812 L 6.046875 12.734375 Z M 6.050781 14.769531 "/>
<path style="fill-rule:evenodd;fill:rgb(94.901961%,94.901961%,94.901961%);fill-opacity:1;stroke-width:5.03546;stroke-linecap:butt;stroke-linejoin:miter;stroke:rgb(68.627451%,68.627451%,68.627451%);stroke-opacity:1;stroke-miterlimit:4;" d="M 97.045898 1029.819862 L 433.919271 1028.680539 L 435.099284 664.788937 L 347.045898 575.555539 L 97.045898 575.555539 Z M 97.045898 1029.819862 " transform="matrix(0.096,0,0,0.096,0,-53.026769)"/>
<path style="fill-rule:evenodd;fill:rgb(68.627451%,68.627451%,68.627451%);fill-opacity:1;stroke-width:5.03546;stroke-linecap:butt;stroke-linejoin:miter;stroke:rgb(68.627451%,68.627451%,68.627451%);stroke-opacity:1;stroke-miterlimit:4;" d="M 431.518555 662.917193 L 349.365234 662.347531 L 350.097656 578.566607 Z M 431.518555 662.917193 " transform="matrix(0.096,0,0,0.096,0,-53.026769)"/>
<path style=" stroke:none;fill-rule:nonzero;fill:rgb(17.254902%,62.745098%,17.254902%);fill-opacity:1;" d="M 6.0625 6.703125 L 27.65625 6.703125 L 27.65625 14.800781 L 6.0625 14.800781 Z M 6.0625 6.703125 "/>
<path style=" stroke:none;fill-rule:nonzero;fill:rgb(17.254902%,62.745098%,17.254902%);fill-opacity:1;" d="M 13.726562 23.832031 L 38.40625 23.832031 L 38.40625 43.574219 L 13.726562 43.574219 Z M 13.726562 23.832031 "/>
<path style=" stroke:none;fill-rule:nonzero;fill:rgb(55.294118%,82.745098%,37.254902%);fill-opacity:1;" d="M 14.410156 24.394531 L 19.589844 24.394531 L 19.589844 26.789062 L 14.410156 26.789062 Z M 14.410156 24.394531 "/>
<path style=" stroke:none;fill-rule:nonzero;fill:rgb(55.294118%,82.745098%,37.254902%);fill-opacity:1;" d="M 20.386719 24.394531 L 25.5625 24.394531 L 25.5625 26.789062 L 20.386719 26.789062 Z M 20.386719 24.394531 "/>
<path style=" stroke:none;fill-rule:nonzero;fill:rgb(55.294118%,82.745098%,37.254902%);fill-opacity:1;" d="M 26.359375 24.394531 L 31.539062 24.394531 L 31.539062 26.789062 L 26.359375 26.789062 Z M 26.359375 24.394531 "/>
<path style=" stroke:none;fill-rule:nonzero;fill:rgb(55.294118%,82.745098%,37.254902%);fill-opacity:1;" d="M 32.335938 24.394531 L 37.511719 24.394531 L 37.511719 26.789062 L 32.335938 26.789062 Z M 32.335938 24.394531 "/>
<path style=" stroke:none;fill-rule:nonzero;fill:rgb(66.666667%,87.058824%,52.941176%);fill-opacity:1;" d="M 14.410156 27.59375 L 19.589844 27.59375 L 19.589844 29.988281 L 14.410156 29.988281 Z M 14.410156 27.59375 "/>
<path style=" stroke:none;fill-rule:nonzero;fill:rgb(66.666667%,87.058824%,52.941176%);fill-opacity:1;" d="M 20.386719 27.59375 L 25.5625 27.59375 L 25.5625 29.988281 L 20.386719 29.988281 Z M 20.386719 27.59375 "/>
<path style=" stroke:none;fill-rule:nonzero;fill:rgb(66.666667%,87.058824%,52.941176%);fill-opacity:1;" d="M 26.359375 27.59375 L 31.539062 27.59375 L 31.539062 29.988281 L 26.359375 29.988281 Z M 26.359375 27.59375 "/>
<path style=" stroke:none;fill-rule:nonzero;fill:rgb(66.666667%,87.058824%,52.941176%);fill-opacity:1;" d="M 32.335938 27.59375 L 37.511719 27.59375 L 37.511719 29.988281 L 32.335938 29.988281 Z M 32.335938 27.59375 "/>
<path style=" stroke:none;fill-rule:nonzero;fill:rgb(66.666667%,87.058824%,52.941176%);fill-opacity:1;" d="M 14.410156 30.765625 L 19.589844 30.765625 L 19.589844 33.164062 L 14.410156 33.164062 Z M 14.410156 30.765625 "/>
<path style=" stroke:none;fill-rule:nonzero;fill:rgb(66.666667%,87.058824%,52.941176%);fill-opacity:1;" d="M 20.386719 30.765625 L 25.5625 30.765625 L 25.5625 33.164062 L 20.386719 33.164062 Z M 20.386719 30.765625 "/>
<path style=" stroke:none;fill-rule:nonzero;fill:rgb(66.666667%,87.058824%,52.941176%);fill-opacity:1;" d="M 26.359375 30.765625 L 31.539062 30.765625 L 31.539062 33.164062 L 26.359375 33.164062 Z M 26.359375 30.765625 "/>
<path style=" stroke:none;fill-rule:nonzero;fill:rgb(66.666667%,87.058824%,52.941176%);fill-opacity:1;" d="M 32.335938 30.765625 L 37.511719 30.765625 L 37.511719 33.164062 L 32.335938 33.164062 Z M 32.335938 30.765625 "/>
<path style=" stroke:none;fill-rule:nonzero;fill:rgb(66.666667%,87.058824%,52.941176%);fill-opacity:1;" d="M 14.410156 33.964844 L 19.589844 33.964844 L 19.589844 36.359375 L 14.410156 36.359375 Z M 14.410156 33.964844 "/>
<path style=" stroke:none;fill-rule:nonzero;fill:rgb(66.666667%,87.058824%,52.941176%);fill-opacity:1;" d="M 20.386719 33.964844 L 25.5625 33.964844 L 25.5625 36.359375 L 20.386719 36.359375 Z M 20.386719 33.964844 "/>
<path style=" stroke:none;fill-rule:nonzero;fill:rgb(66.666667%,87.058824%,52.941176%);fill-opacity:1;" d="M 26.359375 33.964844 L 31.539062 33.964844 L 31.539062 36.359375 L 26.359375 36.359375 Z M 26.359375 33.964844 "/>
<path style=" stroke:none;fill-rule:nonzero;fill:rgb(66.666667%,87.058824%,52.941176%);fill-opacity:1;" d="M 32.335938 33.964844 L 37.511719 33.964844 L 37.511719 36.359375 L 32.335938 36.359375 Z M 32.335938 33.964844 "/>
<path style=" stroke:none;fill-rule:nonzero;fill:rgb(66.666667%,87.058824%,52.941176%);fill-opacity:1;" d="M 14.460938 37.183594 L 19.640625 37.183594 L 19.640625 39.578125 L 14.460938 39.578125 Z M 14.460938 37.183594 "/>
<path style=" stroke:none;fill-rule:nonzero;fill:rgb(66.666667%,87.058824%,52.941176%);fill-opacity:1;" d="M 20.4375 37.183594 L 25.617188 37.183594 L 25.617188 39.578125 L 20.4375 39.578125 Z M 20.4375 37.183594 "/>
<path style=" stroke:none;fill-rule:nonzero;fill:rgb(66.666667%,87.058824%,52.941176%);fill-opacity:1;" d="M 26.414062 37.183594 L 31.589844 37.183594 L 31.589844 39.578125 L 26.414062 39.578125 Z M 26.414062 37.183594 "/>
<path style=" stroke:none;fill-rule:nonzero;fill:rgb(66.666667%,87.058824%,52.941176%);fill-opacity:1;" d="M 32.386719 37.183594 L 37.5625 37.183594 L 37.5625 39.578125 L 32.386719 39.578125 Z M 32.386719 37.183594 "/>
<path style=" stroke:none;fill-rule:nonzero;fill:rgb(66.666667%,87.058824%,52.941176%);fill-opacity:1;" d="M 14.460938 40.378906 L 19.640625 40.378906 L 19.640625 42.777344 L 14.460938 42.777344 Z M 14.460938 40.378906 "/>
<path style=" stroke:none;fill-rule:nonzero;fill:rgb(66.666667%,87.058824%,52.941176%);fill-opacity:1;" d="M 20.4375 40.378906 L 25.617188 40.378906 L 25.617188 42.777344 L 20.4375 42.777344 Z M 20.4375 40.378906 "/>
<path style=" stroke:none;fill-rule:nonzero;fill:rgb(66.666667%,87.058824%,52.941176%);fill-opacity:1;" d="M 26.414062 40.378906 L 31.589844 40.378906 L 31.589844 42.777344 L 26.414062 42.777344 Z M 26.414062 40.378906 "/>
<path style=" stroke:none;fill-rule:nonzero;fill:rgb(66.666667%,87.058824%,52.941176%);fill-opacity:1;" d="M 32.386719 40.378906 L 37.5625 40.378906 L 37.5625 42.777344 L 32.386719 42.777344 Z M 32.386719 40.378906 "/>
<path style=" stroke:none;fill-rule:nonzero;fill:rgb(22.352941%,25.098039%,31.372549%);fill-opacity:1;" d="M 40.128906 36.265625 L 40.128906 44.554688 C 40.128906 45.007812 39.609375 45.375 38.96875 45.375 L 26.617188 45.375 C 25.976562 45.375 25.457031 45.007812 25.457031 44.554688 L 25.457031 36.265625 C 25.457031 35.8125 25.976562 35.445312 26.617188 35.445312 L 38.96875 35.445312 C 39.609375 35.445312 40.128906 35.8125 40.128906 36.265625 Z M 40.128906 36.265625 "/>
<path style=" stroke:none;fill-rule:nonzero;fill:rgb(100%,100%,100%);fill-opacity:1;" d="M 39.597656 35.921875 C 39.492188 35.851562 39.347656 35.863281 39.347656 35.863281 L 27.132812 35.867188 L 26.238281 35.867188 C 26.238281 35.867188 26.097656 35.859375 26.027344 35.914062 C 25.953125 35.964844 25.945312 36.089844 25.945312 36.089844 L 25.945312 44.71875 C 25.945312 44.71875 25.9375 44.863281 26.007812 44.929688 C 26.078125 44.992188 26.234375 44.988281 26.234375 44.988281 L 38.960938 44.984375 C 38.960938 44.984375 39.308594 45.019531 39.511719 44.851562 C 39.714844 44.683594 39.664062 44.386719 39.664062 44.386719 L 39.691406 36.109375 C 39.691406 36.109375 39.707031 35.992188 39.597656 35.921875 Z M 39.597656 35.921875 "/>
<path style=" stroke:none;fill-rule:nonzero;fill:rgb(100%,80%,0%);fill-opacity:1;" d="M 33.316406 43.421875 L 32.226562 43.421875 C 32.074219 43.421875 31.953125 43.300781 31.953125 43.152344 L 31.953125 38.789062 C 31.953125 38.636719 32.074219 38.515625 32.226562 38.515625 L 33.316406 38.515625 C 33.46875 38.515625 33.589844 38.636719 33.589844 38.789062 L 33.589844 43.152344 C 33.589844 43.300781 33.46875 43.421875 33.316406 43.421875 Z M 33.316406 43.421875 "/>
<path style=" stroke:none;fill-rule:nonzero;fill:rgb(94.117647%,22.352941%,8.627451%);fill-opacity:1;" d="M 30.859375 43.421875 L 29.773438 43.421875 C 29.621094 43.421875 29.5 43.300781 29.5 43.152344 L 29.5 40.152344 C 29.5 40 29.621094 39.878906 29.773438 39.878906 L 30.859375 39.878906 C 31.011719 39.878906 31.136719 40 31.136719 40.152344 L 31.136719 43.152344 C 31.136719 43.300781 31.011719 43.421875 30.859375 43.421875 Z M 30.859375 43.421875 "/>
<path style=" stroke:none;fill-rule:nonzero;fill:rgb(0%,26.666667%,33.333333%);fill-opacity:1;" d="M 28.40625 43.421875 L 27.316406 43.421875 C 27.164062 43.421875 27.042969 43.300781 27.042969 43.152344 L 27.042969 41.515625 C 27.042969 41.363281 27.164062 41.242188 27.316406 41.242188 L 28.40625 41.242188 C 28.558594 41.242188 28.679688 41.363281 28.679688 41.515625 L 28.679688 43.152344 C 28.679688 43.300781 28.558594 43.421875 28.40625 43.421875 Z M 28.40625 43.421875 "/>
<path style=" stroke:none;fill-rule:nonzero;fill:rgb(27.058824%,81.568627%,24.705882%);fill-opacity:1;" d="M 35.769531 43.421875 L 34.679688 43.421875 C 34.53125 43.421875 34.40625 43.300781 34.40625 43.152344 L 34.40625 40.152344 C 34.40625 40 34.53125 39.878906 34.679688 39.878906 L 35.769531 39.878906 C 35.921875 39.878906 36.042969 40 36.042969 40.152344 L 36.042969 43.152344 C 36.042969 43.300781 35.921875 43.421875 35.769531 43.421875 Z M 35.769531 43.421875 "/>
<path style=" stroke:none;fill-rule:nonzero;fill:rgb(0%,73.333333%,94.901961%);fill-opacity:1;" d="M 38.226562 43.421875 L 37.132812 43.421875 C 36.984375 43.421875 36.859375 43.300781 36.859375 43.152344 L 36.859375 37.152344 C 36.859375 37 36.984375 36.878906 37.132812 36.878906 L 38.226562 36.878906 C 38.375 36.878906 38.496094 37 38.496094 37.152344 L 38.496094 43.152344 C 38.496094 43.300781 38.375 43.421875 38.226562 43.421875 Z M 38.226562 43.421875 "/>
<path style=" stroke:none;fill-rule:nonzero;fill:rgb(22.352941%,25.098039%,31.372549%);fill-opacity:1;" d="M 39.042969 43.695312 L 26.5 43.695312 C 26.347656 43.695312 26.226562 43.574219 26.226562 43.421875 C 26.226562 43.273438 26.347656 43.152344 26.5 43.152344 L 39.042969 43.152344 C 39.195312 43.152344 39.316406 43.273438 39.316406 43.421875 C 39.316406 43.574219 39.195312 43.695312 39.042969 43.695312 Z M 39.042969 43.695312 "/>
</g>
</svg>
