<?xml version="1.0" encoding="UTF-8"?>
<svg xmlns="http://www.w3.org/2000/svg" xmlns:xlink="http://www.w3.org/1999/xlink" width="48" height="48" viewBox="0 0 48 48" version="1.1">
<g id="surface1">
<path style=" stroke:none;fill-rule:evenodd;fill:rgb(66.666667%,26.666667%,0%);fill-opacity:1;" d="M 6.050781 14.769531 L 11.160156 19.769531 L 11 12.757812 L 6.046875 12.734375 Z M 6.050781 14.769531 "/>
<path style="fill-rule:evenodd;fill:rgb(94.901961%,94.901961%,94.901961%);fill-opacity:1;stroke-width:5.03546;stroke-linecap:butt;stroke-linejoin:miter;stroke:rgb(68.627451%,68.627451%,68.627451%);stroke-opacity:1;stroke-miterlimit:4;" d="M 97.045898 1029.819862 L 433.919271 1028.680539 L 435.099284 664.788937 L 347.045898 575.555539 L 97.045898 575.555539 Z M 97.045898 1029.819862 " transform="matrix(0.096,0,0,0.096,0,-53.026769)"/>
<path style="fill-rule:evenodd;fill:rgb(68.627451%,68.627451%,68.627451%);fill-opacity:1;stroke-width:5.03546;stroke-linecap:butt;stroke-linejoin:miter;stroke:rgb(68.627451%,68.627451%,68.627451%);stroke-opacity:1;stroke-miterlimit:4;" d="M 431.518555 662.917193 L 349.365234 662.347531 L 350.097656 578.566607 Z M 431.518555 662.917193 " transform="matrix(0.096,0,0,0.096,0,-53.026769)"/>
<path style=" stroke:none;fill-rule:nonzero;fill:rgb(100%,40%,0%);fill-opacity:1;" d="M 6.0625 6.703125 L 27.65625 6.703125 L 27.65625 14.800781 L 6.0625 14.800781 Z M 6.0625 6.703125 "/>
<path style=" stroke:none;fill-rule:nonzero;fill:rgb(100%,40%,0%);fill-opacity:1;" d="M 14.707031 23.554688 L 35.230469 23.554688 L 35.230469 24.738281 L 14.707031 24.738281 Z M 14.707031 23.554688 "/>
<path style=" stroke:none;fill-rule:nonzero;fill:rgb(100%,40%,0%);fill-opacity:1;" d="M 17.726562 26.027344 L 31.890625 26.027344 L 31.890625 27.207031 L 17.726562 27.207031 Z M 17.726562 26.027344 "/>
<path style=" stroke:none;fill-rule:nonzero;fill:rgb(100%,40%,0%);fill-opacity:1;" d="M 15.542969 31.09375 L 22.480469 31.09375 L 22.480469 32.277344 L 15.542969 32.277344 Z M 15.542969 31.09375 "/>
<path style=" stroke:none;fill-rule:nonzero;fill:rgb(100%,40%,0%);fill-opacity:1;" d="M 13.359375 31.09375 L 14.578125 31.09375 L 14.578125 32.277344 L 13.359375 32.277344 Z M 13.359375 31.09375 "/>
<path style=" stroke:none;fill-rule:nonzero;fill:rgb(100%,40%,0%);fill-opacity:1;" d="M 15.480469 33.089844 L 22.421875 33.089844 L 22.421875 34.269531 L 15.480469 34.269531 Z M 15.480469 33.089844 "/>
<path style=" stroke:none;fill-rule:nonzero;fill:rgb(100%,40%,0%);fill-opacity:1;" d="M 13.296875 33.089844 L 14.515625 33.089844 L 14.515625 34.269531 L 13.296875 34.269531 Z M 13.296875 33.089844 "/>
<path style=" stroke:none;fill-rule:nonzero;fill:rgb(100%,40%,0%);fill-opacity:1;" d="M 15.480469 35.125 L 22.421875 35.125 L 22.421875 36.304688 L 15.480469 36.304688 Z M 15.480469 35.125 "/>
<path style=" stroke:none;fill-rule:nonzero;fill:rgb(100%,40%,0%);fill-opacity:1;" d="M 13.296875 35.125 L 14.515625 35.125 L 14.515625 36.304688 L 13.296875 36.304688 Z M 13.296875 35.125 "/>
<path style=" stroke:none;fill-rule:nonzero;fill:rgb(100%,40%,0%);fill-opacity:1;" d="M 15.480469 37.292969 L 22.421875 37.292969 L 22.421875 38.472656 L 15.480469 38.472656 Z M 15.480469 37.292969 "/>
<path style=" stroke:none;fill-rule:nonzero;fill:rgb(100%,40%,0%);fill-opacity:1;" d="M 13.296875 37.292969 L 14.515625 37.292969 L 14.515625 38.472656 L 13.296875 38.472656 Z M 13.296875 37.292969 "/>
<path style=" stroke:none;fill-rule:nonzero;fill:rgb(100%,100%,100%);fill-opacity:1;" d="M 25.582031 30.066406 L 36.5 30.066406 L 36.5 39.136719 L 25.582031 39.136719 Z M 25.582031 30.066406 "/>
<path style=" stroke:none;fill-rule:nonzero;fill:rgb(100%,80%,0%);fill-opacity:1;" d="M 31.4375 38.746094 L 30.574219 38.746094 C 30.457031 38.746094 30.359375 38.640625 30.359375 38.511719 L 30.359375 34.746094 C 30.359375 34.613281 30.457031 34.507812 30.574219 34.507812 L 31.4375 34.507812 C 31.558594 34.507812 31.652344 34.613281 31.652344 34.746094 L 31.652344 38.511719 C 31.652344 38.640625 31.558594 38.746094 31.4375 38.746094 Z M 31.4375 38.746094 "/>
<path style=" stroke:none;fill-rule:nonzero;fill:rgb(94.117647%,22.352941%,8.627451%);fill-opacity:1;" d="M 29.496094 38.746094 L 28.632812 38.746094 C 28.511719 38.746094 28.417969 38.640625 28.417969 38.511719 L 28.417969 35.921875 C 28.417969 35.789062 28.511719 35.683594 28.632812 35.683594 L 29.496094 35.683594 C 29.613281 35.683594 29.710938 35.789062 29.710938 35.921875 L 29.710938 38.511719 C 29.710938 38.640625 29.613281 38.746094 29.496094 38.746094 Z M 29.496094 38.746094 "/>
<path style=" stroke:none;fill-rule:nonzero;fill:rgb(0%,26.666667%,33.333333%);fill-opacity:1;" d="M 27.554688 38.746094 L 26.6875 38.746094 C 26.570312 38.746094 26.472656 38.640625 26.472656 38.511719 L 26.472656 37.097656 C 26.472656 36.96875 26.570312 36.863281 26.6875 36.863281 L 27.554688 36.863281 C 27.671875 36.863281 27.769531 36.96875 27.769531 37.097656 L 27.769531 38.511719 C 27.769531 38.640625 27.671875 38.746094 27.554688 38.746094 Z M 27.554688 38.746094 "/>
<path style=" stroke:none;fill-rule:nonzero;fill:rgb(27.058824%,81.568627%,24.705882%);fill-opacity:1;" d="M 33.378906 38.746094 L 32.515625 38.746094 C 32.398438 38.746094 32.300781 38.640625 32.300781 38.511719 L 32.300781 35.921875 C 32.300781 35.789062 32.398438 35.683594 32.515625 35.683594 L 33.378906 35.683594 C 33.5 35.683594 33.59375 35.789062 33.59375 35.921875 L 33.59375 38.511719 C 33.59375 38.640625 33.5 38.746094 33.378906 38.746094 Z M 33.378906 38.746094 "/>
<path style=" stroke:none;fill-rule:nonzero;fill:rgb(0%,73.333333%,94.901961%);fill-opacity:1;" d="M 35.320312 38.746094 L 34.460938 38.746094 C 34.339844 38.746094 34.242188 38.640625 34.242188 38.511719 L 34.242188 33.332031 C 34.242188 33.203125 34.339844 33.097656 34.460938 33.097656 L 35.320312 33.097656 C 35.441406 33.097656 35.539062 33.203125 35.539062 33.332031 L 35.539062 38.511719 C 35.539062 38.640625 35.441406 38.746094 35.320312 38.746094 Z M 35.320312 38.746094 "/>
<path style=" stroke:none;fill-rule:nonzero;fill:rgb(22.352941%,25.098039%,31.372549%);fill-opacity:1;" d="M 35.96875 38.980469 L 26.042969 38.980469 C 25.921875 38.980469 25.828125 38.875 25.828125 38.746094 C 25.828125 38.617188 25.921875 38.511719 26.042969 38.511719 L 35.96875 38.511719 C 36.085938 38.511719 36.183594 38.617188 36.183594 38.746094 C 36.183594 38.875 36.085938 38.980469 35.96875 38.980469 Z M 35.96875 38.980469 "/>
<path style="fill:none;stroke-width:2.504357;stroke-linecap:butt;stroke-linejoin:miter;stroke:rgb(22.352941%,25.098039%,31.372549%);stroke-opacity:1;stroke-miterlimit:4;" d="M 274.698893 931.634641 L 325.195312 902.012245 L 342.732747 919.305539 L 365.071615 870.599484 " transform="matrix(0.096,0,0,0.096,0,-53.026769)"/>
<path style="fill:none;stroke-width:2.504357;stroke-linecap:butt;stroke-linejoin:miter;stroke:rgb(22.352941%,25.098039%,31.372549%);stroke-opacity:1;stroke-miterlimit:4;" d="M 365.926107 869.948443 L 356.933594 874.220904 " transform="matrix(0.096,0,0,0.096,0,-53.026769)"/>
<path style="fill:none;stroke-width:2.504357;stroke-linecap:butt;stroke-linejoin:miter;stroke:rgb(22.352941%,25.098039%,31.372549%);stroke-opacity:1;stroke-miterlimit:4;" d="M 368.408203 879.307167 L 364.339193 869.256711 " transform="matrix(0.096,0,0,0.096,0,-53.026769)"/>
<path style=" stroke:none;fill-rule:nonzero;fill:rgb(100%,40%,0%);fill-opacity:1;" d="M 15.058594 45.234375 L 35.578125 45.234375 L 35.578125 44.054688 L 15.058594 44.054688 Z M 15.058594 45.234375 "/>
<path style=" stroke:none;fill-rule:nonzero;fill:rgb(100%,40%,0%);fill-opacity:1;" d="M 18.078125 42.765625 L 32.242188 42.765625 L 32.242188 41.585938 L 18.078125 41.585938 Z M 18.078125 42.765625 "/>
</g>
</svg>
