<?xml version="1.0" encoding="UTF-8"?>
<svg xmlns="http://www.w3.org/2000/svg" xmlns:xlink="http://www.w3.org/1999/xlink" width="96" height="96" viewBox="0 0 96 96" version="1.1">
<g id="surface1">
<path style=" stroke:none;fill-rule:nonzero;fill:rgb(100%,100%,100%);fill-opacity:1;" d="M 38.484375 96 C 93.695312 80.523438 112.363281 44.066406 69.4375 20.449219 L 96 0 L 0 0.0273438 L 11.34375 65.179688 C 11.34375 65.179688 38.734375 44.089844 38.734375 44.089844 C 60.09375 55.253906 61.332031 77.148438 32.777344 92.085938 Z M 38.484375 96 "/>
</g>
</svg>
