<?xml version="1.0" encoding="UTF-8"?>
<svg xmlns="http://www.w3.org/2000/svg" xmlns:xlink="http://www.w3.org/1999/xlink" width="48" height="48" viewBox="0 0 48 48" version="1.1">
<g id="surface1">
<path style=" stroke:none;fill-rule:nonzero;fill:rgb(100%,100%,100%);fill-opacity:1;" d="M 22.230469 18 C 21.507812 18.132812 20.988281 18.765625 21 19.5 L 21 27 L 16.5 27 C 15.960938 26.992188 15.457031 27.277344 15.183594 27.742188 C 14.910156 28.210938 14.910156 28.789062 15.183594 29.257812 C 15.457031 29.722656 15.960938 30.007812 16.5 30 L 22.5 30 C 23.328125 30 24 29.328125 24 28.5 L 24 19.5 C 24.007812 19.046875 23.8125 18.617188 23.46875 18.328125 C 23.121094 18.035156 22.664062 17.914062 22.21875 18 Z M 22.230469 18 "/>
<path style=" stroke:none;fill-rule:nonzero;fill:rgb(100%,100%,100%);fill-opacity:1;" d="M 22.410156 9.179688 C 11.730469 9.179688 3.082031 17.921875 3.082031 28.601562 C 3.082031 39.28125 11.730469 48.027344 22.410156 48.027344 C 33.089844 48.027344 41.832031 39.28125 41.832031 28.601562 C 41.832031 17.921875 33.089844 9.179688 22.410156 9.179688 Z M 22.410156 15.128906 C 29.875 15.128906 35.886719 21.136719 35.886719 28.601562 C 35.886719 36.070312 29.875 42.078125 22.410156 42.078125 C 14.945312 42.078125 9.027344 36.070312 9.027344 28.601562 C 9.027344 21.136719 14.945312 15.128906 22.410156 15.128906 Z M 22.410156 15.128906 "/>
<path style=" stroke:none;fill-rule:nonzero;fill:rgb(100%,100%,100%);fill-opacity:1;" d="M 12.839844 3 C 7.421875 3 2.996094 7.425781 2.996094 12.84375 C 2.996094 14.058594 3.25 15.144531 3.652344 16.21875 C 7.269531 10.75 13.203125 6.910156 20.058594 6.1875 C 18.257812 4.238281 15.679688 3.007812 12.828125 3.007812 Z M 32.152344 3 C 29.292969 3 26.726562 4.238281 24.933594 6.1875 C 31.796875 6.941406 37.746094 10.8125 41.339844 16.3125 C 41.765625 15.214844 41.996094 14.089844 41.996094 12.84375 C 41.996094 7.425781 37.570312 3 32.152344 3 Z M 32.152344 3 "/>
<path style=" stroke:none;fill-rule:nonzero;fill:rgb(100%,100%,100%);fill-opacity:1;" d="M 11.730469 38.730469 C 11.191406 38.875 10.703125 39.167969 10.324219 39.574219 L 6.949219 42.855469 C 6.042969 43.558594 5.613281 44.714844 5.847656 45.835938 C 6.082031 46.960938 6.933594 47.851562 8.046875 48.136719 C 9.15625 48.417969 10.332031 48.042969 11.074219 47.167969 L 14.449219 43.886719 C 15.484375 42.96875 15.757812 41.464844 15.113281 40.242188 C 14.46875 39.015625 13.070312 38.394531 11.730469 38.730469 Z M 11.730469 38.730469 "/>
<path style=" stroke:none;fill-rule:nonzero;fill:rgb(100%,100%,100%);fill-opacity:1;" d="M 32.820312 39 C 31.730469 39.167969 30.820312 39.914062 30.449219 40.953125 C 30.078125 41.992188 30.304688 43.148438 31.039062 43.96875 L 33.757812 46.96875 C 34.429688 47.878906 35.554688 48.335938 36.671875 48.148438 C 37.789062 47.960938 38.703125 47.15625 39.039062 46.078125 C 39.375 44.996094 39.070312 43.816406 38.257812 43.03125 L 35.539062 40.03125 C 34.871094 39.230469 33.839844 38.835938 32.808594 38.980469 Z M 32.820312 39 "/>
</g>
</svg>
