<?xml version="1.0" encoding="UTF-8"?>
<svg xmlns="http://www.w3.org/2000/svg" xmlns:xlink="http://www.w3.org/1999/xlink" width="48" height="48" viewBox="0 0 48 48" version="1.1">
<defs>
<filter id="alpha" filterUnits="objectBoundingBox" x="0%" y="0%" width="100%" height="100%">
  <feColorMatrix type="matrix" in="SourceGraphic" values="0 0 0 0 1 0 0 0 0 1 0 0 0 0 1 0 0 0 1 0"/>
</filter>
<image id="image11" width="48" height="48" xlink:href="data:image/png;base64,iVBORw0KGgoAAAANSUhEUgAAADAAAAAwCAYAAABXAvmHAAAABmJLR0QA/wD/AP+gvaeTAAAAiklEQVRoge3YQQqDMBRF0ReVoLsUwUE77ka6K0fuxpFIuoGmkKJ5IPdMQ5J/nRkJAJxC6Ya0P17SEq8YJn/pcwtxfn9b6spPW6K01g0I455bamrOcQUC3AhwI8CNADcC3AhwI8CNADcC3P74Jx6S1KfzR/llyt5X/iqhtnjPGYKOyh8NAAAAAHBzH2J2EJ86amWsAAAAAElFTkSuQmCC"/>
<mask id="mask0">
  <g filter="url(#alpha)">
<use xlink:href="#image11"/>
  </g>
</mask>
<clipPath id="clip1">
  <rect x="0" y="0" width="48" height="48"/>
</clipPath>
<g id="surface10" clip-path="url(#clip1)">
<path style=" stroke:none;fill-rule:nonzero;fill:rgb(74.509804%,74.509804%,74.509804%);fill-opacity:1;" d="M 27 6 L 27 8.34375 C 26.792969 9.261719 27.027344 10.222656 27.632812 10.941406 C 28.242188 11.660156 29.148438 12.054688 30.089844 12.003906 L 31.871094 12.003906 L 24.183594 19.691406 L 17.058594 12.847656 C 16.480469 12.292969 15.703125 11.988281 14.898438 12.007812 L 11.992188 12.007812 L 11.992188 14.257812 C 11.988281 14.351562 11.988281 14.445312 11.992188 14.539062 C 11.835938 15.5 12.148438 16.476562 12.835938 17.164062 L 22.117188 26.070312 L 24.179688 28.132812 L 26.335938 26.070312 L 35.992188 16.320312 L 35.992188 18.007812 C 35.992188 19.664062 37.335938 21.007812 38.992188 21.007812 L 41.992188 21.007812 L 41.992188 18.476562 C 42.003906 18.320312 42.003906 18.164062 41.992188 18.007812 L 41.992188 6.007812 L 30.085938 6.007812 C 30.054688 6.007812 30.023438 6.007812 29.992188 6.007812 L 26.992188 6.007812 Z M 27 6 "/>
</g>
</defs>
<g id="surface2">
<path style=" stroke:none;fill-rule:nonzero;fill:rgb(74.509804%,74.509804%,74.509804%);fill-opacity:1;" d="M 10.019531 34.558594 C 6.414062 35.425781 4.042969 37.855469 3.457031 41.871094 C 3.296875 43.5625 2.617188 45.90625 4.207031 47.027344 C 6.332031 48.296875 8.929688 48.089844 11.238281 47.683594 C 12.921875 47.238281 13.644531 47.078125 14.988281 45.808594 C 14.988281 45.808594 14.832031 42.597656 15.550781 40.839844 C 21.34375 38.410156 26.984375 38.589844 32.613281 40.839844 C 33.332031 42.597656 33.175781 45.808594 33.175781 45.808594 C 34.523438 47.078125 35.242188 47.238281 36.925781 47.683594 C 39.234375 48.089844 41.832031 48.296875 43.957031 47.027344 C 45.546875 45.90625 44.867188 43.5625 44.707031 41.871094 C 44.125 37.855469 41.75 35.425781 38.144531 34.558594 C 28.730469 32.789062 19.316406 32.386719 10.019531 34.558594 Z M 10.019531 34.558594 "/>
<use xlink:href="#surface10" mask="url(#mask0)"/>
<path style=" stroke:none;fill-rule:nonzero;fill:rgb(100%,100%,100%);fill-opacity:1;" d="M 5.449219 47.503906 C 3.195312 46.722656 2.785156 45.160156 3.742188 40.941406 C 4.316406 38.398438 5.957031 36.328125 8.21875 35.292969 C 9.671875 34.628906 13.285156 33.890625 17.144531 33.476562 C 24.382812 32.699219 36.816406 33.734375 40.210938 35.394531 C 42.542969 36.539062 44.058594 38.769531 44.613281 41.878906 C 45.207031 45.222656 44.902344 46.484375 43.3125 47.269531 C 42.472656 47.683594 42.070312 47.734375 39.722656 47.734375 C 36.867188 47.734375 35.574219 47.445312 34.105469 46.476562 C 33.375 45.992188 33.371094 45.988281 33.234375 44.117188 C 33.15625 43.085938 33.003906 41.90625 32.894531 41.496094 C 32.714844 40.808594 32.597656 40.71875 31.429688 40.335938 C 28.796875 39.480469 27.644531 39.269531 25.03125 39.152344 C 21.890625 39.015625 20.03125 39.253906 17.3125 40.148438 L 15.449219 40.761719 L 15.234375 41.707031 C 15.121094 42.226562 14.992188 43.382812 14.957031 44.277344 L 14.886719 45.90625 L 13.933594 46.550781 C 13.375 46.925781 12.394531 47.328125 11.566406 47.515625 C 9.753906 47.925781 6.664062 47.921875 5.449219 47.503906 Z M 5.449219 47.503906 "/>
</g>
</svg>
