<?xml version="1.0" encoding="UTF-8"?>
<svg xmlns="http://www.w3.org/2000/svg" xmlns:xlink="http://www.w3.org/1999/xlink" width="48" height="48" viewBox="0 0 48 48" version="1.1">
<defs>
<filter id="alpha" filterUnits="objectBoundingBox" x="0%" y="0%" width="100%" height="100%">
  <feColorMatrix type="matrix" in="SourceGraphic" values="0 0 0 0 1 0 0 0 0 1 0 0 0 0 1 0 0 0 1 0"/>
</filter>
<image id="image12" width="48" height="48" xlink:href="data:image/png;base64,iVBORw0KGgoAAAANSUhEUgAAADAAAAAwCAYAAABXAvmHAAAABmJLR0QA/wD/AP+gvaeTAAAAcElEQVRoge3VoQ2AQBBE0TkCFIS6lvCUgaelU9DPIUAhQJAjZFnEf26SFTNqJeCV4F1Akra1H6TUll3HHJppPFJtVeqZ1Epz4YDulCqDNp9igDcGeGOANwZ4+8knjvn6Ye9vF9M2AAAAAAAAAAAApnbImwtVS44L5gAAAABJRU5ErkJggg=="/>
<mask id="mask0">
  <g filter="url(#alpha)">
<use xlink:href="#image12"/>
  </g>
</mask>
<clipPath id="clip1">
  <rect x="0" y="0" width="48" height="48"/>
</clipPath>
<g id="surface11" clip-path="url(#clip1)">
<path style=" stroke:none;fill-rule:nonzero;fill:rgb(74.509804%,74.509804%,74.509804%);fill-opacity:1;" d="M 39 3 C 35.6875 3 33 5.6875 33 9 C 33 12.3125 35.6875 15 39 15 C 42.3125 15 45 12.3125 45 9 C 45 5.6875 42.3125 3 39 3 Z M 39 6 C 40.65625 6 42 7.34375 42 9 C 42 10.65625 40.65625 12 39 12 C 37.34375 12 36 10.65625 36 9 C 36 7.34375 37.34375 6 39 6 Z M 39 6 "/>
</g>
<clipPath id="clip2">
  <path d="M 3 16.542969 L 30.09375 16.542969 L 30.09375 39.09375 L 3 39.09375 Z M 3 16.542969 "/>
</clipPath>
<image id="image21" width="48" height="48" xlink:href="data:image/png;base64,iVBORw0KGgoAAAANSUhEUgAAADAAAAAwCAYAAABXAvmHAAAABmJLR0QA/wD/AP+gvaeTAAAAcElEQVRoge3VoRGAMBBE0Q0DKQiVlvCUgaelKOgnCFAIEEwQxyH+cztzYledBAAAAADwEbwLSNK+DaOUY911KqGbpzO1VqXeyVFaKgf0l9QYtPkUA7wxwBsDvDHA208+cSr3D/t8u5q2AQAAAADUOACmLwtVfPNkTgAAAABJRU5ErkJggg=="/>
<mask id="mask1">
  <g filter="url(#alpha)">
<use xlink:href="#image21"/>
  </g>
</mask>
<clipPath id="clip3">
  <rect x="0" y="0" width="48" height="48"/>
</clipPath>
<g id="surface20" clip-path="url(#clip3)">
<path style=" stroke:none;fill-rule:nonzero;fill:rgb(74.509804%,74.509804%,74.509804%);fill-opacity:1;" d="M 39 18 C 35.6875 18 33 20.6875 33 24 C 33 27.3125 35.6875 30 39 30 C 42.3125 30 45 27.3125 45 24 C 45 20.6875 42.3125 18 39 18 Z M 39 21 C 40.65625 21 42 22.34375 42 24 C 42 25.65625 40.65625 27 39 27 C 37.34375 27 36 25.65625 36 24 C 36 22.34375 37.34375 21 39 21 Z M 39 21 "/>
</g>
</defs>
<g id="surface3">
<use xlink:href="#surface11" mask="url(#mask0)"/>
<path style=" stroke:none;fill-rule:nonzero;fill:rgb(100%,100%,100%);fill-opacity:1;" d="M 16.5 3 C 20.640625 3 24 6.359375 24 10.5 L 24 25.5 C 24 29.640625 20.640625 33 16.5 33 C 12.359375 33 9 29.640625 9 25.5 L 9 10.5 C 9 6.359375 12.359375 3 16.5 3 Z M 16.5 3 "/>
<g clip-path="url(#clip2)" clip-rule="nonzero">
<path style=" stroke:none;fill-rule:nonzero;fill:rgb(100%,100%,100%);fill-opacity:1;" d="M 16.53125 -5.597656 C 9.070312 -5.597656 3.019531 0.488281 3.019531 7.996094 L 3.019531 25.433594 C 3.019531 32.941406 9.070312 39.027344 16.53125 39.027344 C 23.992188 39.027344 30.042969 32.941406 30.042969 25.433594 L 30.042969 7.996094 C 30.042969 0.488281 23.992188 -5.597656 16.53125 -5.597656 Z M 16.53125 -2.597656 C 22.386719 -2.597656 27.058594 2.101562 27.058594 7.996094 L 27.058594 25.433594 C 27.058594 31.324219 22.386719 36.027344 16.53125 36.027344 C 10.675781 36.027344 6 31.324219 6 25.433594 L 6 7.996094 C 6 2.101562 10.675781 -2.597656 16.53125 -2.597656 Z M 16.53125 -2.597656 "/>
</g>
<path style=" stroke:none;fill-rule:nonzero;fill:rgb(100%,100%,100%);fill-opacity:1;" d="M 6 16.5 C 6 17.328125 5.328125 18 4.5 18 C 3.671875 18 3 17.328125 3 16.5 C 3 15.671875 3.671875 15 4.5 15 C 5.328125 15 6 15.671875 6 16.5 Z M 6 16.5 "/>
<path style=" stroke:none;fill-rule:nonzero;fill:rgb(100%,100%,100%);fill-opacity:1;" d="M 30 16.5 C 30 17.328125 29.328125 18 28.5 18 C 27.671875 18 27 17.328125 27 16.5 C 27 15.671875 27.671875 15 28.5 15 C 29.328125 15 30 15.671875 30 16.5 Z M 30 16.5 "/>
<path style=" stroke:none;fill-rule:nonzero;fill:rgb(100%,100%,100%);fill-opacity:1;" d="M 5.730469 42 C 4.648438 42.035156 3.667969 42.648438 3.164062 43.605469 C 2.664062 44.566406 2.714844 45.71875 3.300781 46.628906 C 3.890625 47.539062 4.917969 48.0625 6 48 L 27 48 C 28.082031 48.015625 29.089844 47.445312 29.632812 46.511719 C 30.179688 45.578125 30.179688 44.421875 29.632812 43.488281 C 29.089844 42.554688 28.082031 41.984375 27 42 L 6 42 C 5.90625 41.996094 5.8125 41.996094 5.71875 42 Z M 5.730469 42 "/>
<path style=" stroke:none;fill-rule:nonzero;fill:rgb(100%,100%,100%);fill-opacity:1;" d="M 3 45 L 30 45 L 30 48 L 3 48 Z M 3 45 "/>
<path style=" stroke:none;fill-rule:nonzero;fill:rgb(100%,100%,100%);fill-opacity:1;" d="M 12 36 L 21 36 L 21 48 L 12 48 Z M 12 36 "/>
<path style=" stroke:none;fill-rule:nonzero;fill:rgb(100%,100%,100%);fill-opacity:1;" d="M 44.96875 39.019531 C 44.96875 42.332031 42.285156 45.019531 38.96875 45.019531 C 35.65625 45.019531 32.96875 42.332031 32.96875 39.019531 C 32.96875 35.703125 35.65625 33.015625 38.96875 33.015625 C 42.285156 33.015625 44.96875 35.703125 44.96875 39.019531 Z M 44.96875 39.019531 "/>
<use xlink:href="#surface20" mask="url(#mask1)"/>
</g>
</svg>
