<?xml version="1.0" encoding="UTF-8"?>
<svg xmlns="http://www.w3.org/2000/svg" xmlns:xlink="http://www.w3.org/1999/xlink" width="48" height="48" viewBox="0 0 48 48" version="1.1">
<defs>
<filter id="alpha" filterUnits="objectBoundingBox" x="0%" y="0%" width="100%" height="100%">
  <feColorMatrix type="matrix" in="SourceGraphic" values="0 0 0 0 1 0 0 0 0 1 0 0 0 0 1 0 0 0 1 0"/>
</filter>
<image id="image12" width="48" height="48" xlink:href="data:image/png;base64,iVBORw0KGgoAAAANSUhEUgAAADAAAAAwCAYAAABXAvmHAAAABmJLR0QA/wD/AP+gvaeTAAAAaUlEQVRoge3T0QmAMAxF0VQzS8BBHMBJHcBBCp0lot9FUEpQEe/5DM0LgVQEAAAAAAAAAAAA+JcUad58mESK1lXzpHmO5LbQ6ydnisq61Bn9GIts1D067QYs8LbgHzA/3ry5SI7FAsBn7CS4DFX5Wqa7AAAAAElFTkSuQmCC"/>
<mask id="mask0">
  <g filter="url(#alpha)">
<use xlink:href="#image12"/>
  </g>
</mask>
<clipPath id="clip1">
  <rect x="0" y="0" width="48" height="48"/>
</clipPath>
<g id="surface11" clip-path="url(#clip1)">
<path style=" stroke:none;fill-rule:nonzero;fill:rgb(74.509804%,74.509804%,74.509804%);fill-opacity:1;" d="M 15 36 L 21 36 L 21 42 L 15 42 Z M 15 36 "/>
</g>
<image id="image21" width="48" height="48" xlink:href="data:image/png;base64,iVBORw0KGgoAAAANSUhEUgAAADAAAAAwCAYAAABXAvmHAAAABmJLR0QA/wD/AP+gvaeTAAAAaElEQVRoge3TwQmEMBAF0NFNLQELsQAr3QIsRLCWiJ7Fwx420YPvHYfwPwOZCAAAAAAAAHiXrnXBXoYpYk3naS5dWr418tPvJ/9aU2zzueczVkvvqyU9xAJPu+EGcrn++VwilvbVAM0dauYMVa6n4KsAAAAASUVORK5CYII="/>
<mask id="mask1">
  <g filter="url(#alpha)">
<use xlink:href="#image21"/>
  </g>
</mask>
<clipPath id="clip2">
  <rect x="0" y="0" width="48" height="48"/>
</clipPath>
<g id="surface20" clip-path="url(#clip2)">
<path style=" stroke:none;fill-rule:nonzero;fill:rgb(74.509804%,74.509804%,74.509804%);fill-opacity:1;" d="M 24 36 L 30 36 L 30 42 L 24 42 Z M 24 36 "/>
</g>
</defs>
<g id="surface3">
<path style=" stroke:none;fill-rule:nonzero;fill:rgb(74.509804%,74.509804%,74.509804%);fill-opacity:1;" d="M 9 3 C 5.675781 3 3 5.675781 3 9 L 3 39 C 3 42.324219 5.675781 45 9 45 L 30 45 L 30 39 L 12 39 C 10.335938 39 9 37.664062 9 36 L 9 18 C 9 16.335938 10.335938 15 12 15 L 15 15 L 15 12 C 15 10.335938 16.335938 9 18 9 L 30 9 C 31.664062 9 32.902344 10.339844 33 12 L 33 15 L 36 15 C 37.664062 15 39 16.335938 39 18 L 39 30 L 45 30 L 45 9 C 45 5.675781 42.324219 3 39 3 Z M 9 3 "/>
<use xlink:href="#surface11" mask="url(#mask0)"/>
<path style=" stroke:none;fill-rule:nonzero;fill:rgb(74.509804%,74.509804%,74.509804%);fill-opacity:1;" d="M 33 33 L 37.125 33 L 40.5 36.28125 L 43.78125 33 L 48 33 L 48 37.40625 L 44.71875 40.59375 L 48 43.78125 L 48 48 L 43.6875 48 L 40.5 44.8125 L 37.3125 48 L 33 48 L 33 43.78125 L 36.1875 40.59375 L 33 37.40625 Z M 33 33 "/>
<use xlink:href="#surface20" mask="url(#mask1)"/>
<path style=" stroke:none;fill-rule:nonzero;fill:rgb(100%,100%,100%);fill-opacity:1;" d="M 7.417969 44.699219 C 5.367188 44.148438 3.652344 42.332031 3.222656 40.25 C 3.066406 39.507812 3.015625 34.285156 3.054688 23.421875 L 3.113281 7.667969 L 3.597656 6.59375 C 4.230469 5.191406 5.765625 3.804688 7.132812 3.398438 C 8.019531 3.136719 10.484375 3.089844 24.089844 3.089844 C 39.6875 3.089844 40.035156 3.101562 41.136719 3.511719 C 42.613281 4.066406 43.933594 5.386719 44.488281 6.863281 C 44.894531 7.949219 44.910156 8.367188 44.910156 18.964844 L 44.910156 29.9375 L 39.011719 29.9375 L 39.011719 23.578125 C 39.011719 16.292969 38.984375 16.171875 37.375 15.34375 C 36.664062 14.980469 36.144531 14.886719 34.796875 14.886719 L 33.113281 14.886719 L 33.109375 13.414062 C 33.109375 11.457031 32.855469 10.640625 31.984375 9.792969 L 31.257812 9.089844 L 24.203125 9.039062 C 17.441406 8.984375 17.117188 9 16.484375 9.390625 C 15.328125 10.101562 15.011719 10.875 15.011719 12.988281 L 15.011719 14.851562 L 12.992188 14.917969 C 10.8125 14.996094 10.320312 15.199219 9.429688 16.390625 C 9.019531 16.941406 9.011719 17.167969 9.011719 26.988281 C 9.011719 36.8125 9.019531 37.039062 9.429688 37.589844 C 9.660156 37.898438 10.101562 38.339844 10.410156 38.570312 C 10.957031 38.976562 11.242188 38.992188 20.414062 39.046875 L 29.859375 39.101562 L 29.859375 44.988281 L 19.128906 44.976562 C 11.011719 44.964844 8.160156 44.898438 7.417969 44.699219 Z M 7.417969 44.699219 "/>
<path style=" stroke:none;fill-rule:nonzero;fill:rgb(100%,0%,0%);fill-opacity:1;" d="M 33.113281 45.757812 L 33.113281 43.675781 L 34.683594 42.097656 L 36.253906 40.515625 L 34.683594 38.933594 L 33.113281 37.355469 L 33.113281 32.988281 L 37.070312 32.988281 L 38.746094 34.65625 L 40.421875 36.328125 L 42.132812 34.65625 L 43.839844 32.988281 L 47.960938 32.988281 L 47.960938 37.371094 L 44.703125 40.609375 L 47.960938 43.878906 L 47.960938 47.835938 L 43.59375 47.835938 L 42.015625 46.265625 L 40.433594 44.695312 L 38.851562 46.265625 L 37.273438 47.835938 L 33.113281 47.835938 Z M 33.113281 45.757812 "/>
</g>
</svg>
