<?xml version="1.0" encoding="UTF-8"?>
<svg xmlns="http://www.w3.org/2000/svg" xmlns:xlink="http://www.w3.org/1999/xlink" width="48" height="48" viewBox="0 0 48 48" version="1.1">
<defs>
<filter id="alpha" filterUnits="objectBoundingBox" x="0%" y="0%" width="100%" height="100%">
  <feColorMatrix type="matrix" in="SourceGraphic" values="0 0 0 0 1 0 0 0 0 1 0 0 0 0 1 0 0 0 1 0"/>
</filter>
<image id="image11" width="48" height="48" xlink:href="data:image/png;base64,iVBORw0KGgoAAAANSUhEUgAAADAAAAAwCAYAAABXAvmHAAAABmJLR0QA/wD/AP+gvaeTAAAAbElEQVRoge3VsQmAMBSE4Rd9swQcxAGc1AEcJJBZnmglaCoL4QL+X3fdXXVmAKCU7uGIaTGrrirzTo7kZb1SU7a67VvfA8b5EQdRjc8wQI0BagxQY4Ba87o52qfrTw6zoi4BAAAAAAAAAPi1E2NMDGFDndMcAAAAAElFTkSuQmCC"/>
<mask id="mask0">
  <g filter="url(#alpha)">
<use xlink:href="#image11"/>
  </g>
</mask>
<clipPath id="clip1">
  <rect x="0" y="0" width="48" height="48"/>
</clipPath>
<g id="surface10" clip-path="url(#clip1)">
<path style=" stroke:none;fill-rule:nonzero;fill:rgb(74.509804%,74.509804%,74.509804%);fill-opacity:1;" d="M 24 6 C 15.558594 6 8.484375 9 3 13.757812 L 3 18 L 7.441406 18 C 12 14.207031 17.101562 12 24 12 C 30.898438 12 36 14.335938 40.558594 18 L 45 18 L 45 13.855469 C 40.078125 9.457031 32.441406 6 24 6 Z M 24 6 "/>
</g>
</defs>
<g id="surface2">
<path style=" stroke:none;fill-rule:nonzero;fill:rgb(100%,100%,100%);fill-opacity:1;" d="M 30 39 C 30 42.3125 27.3125 45 24 45 C 20.6875 45 18 42.3125 18 39 C 18 35.6875 20.6875 33 24 33 C 27.3125 33 30 35.6875 30 39 Z M 30 39 "/>
<use xlink:href="#surface10" mask="url(#mask0)"/>
<path style=" stroke:none;fill-rule:nonzero;fill:rgb(100%,100%,100%);fill-opacity:1;" d="M 24 15 C 17.5 15 11.941406 17.214844 9 21 L 9 24 L 15 24 C 17.367188 22.179688 20.277344 21 24 21 C 27.722656 21 30.65625 22.179688 33 24 L 39 24 L 39 21 C 36.015625 17.332031 30.378906 15 24 15 Z M 24 15 "/>
<path style=" stroke:none;fill-rule:nonzero;fill:rgb(100%,100%,100%);fill-opacity:1;" d="M 24 24 C 20.226562 24 17.351562 24.933594 15 27 L 15 30 L 33 30 L 33 27 C 30.488281 24.984375 27.773438 24 24 24 Z M 24 24 "/>
</g>
</svg>
