<?xml version="1.0" encoding="UTF-8"?>
<svg xmlns="http://www.w3.org/2000/svg" xmlns:xlink="http://www.w3.org/1999/xlink" width="48" height="48" viewBox="0 0 48 48" version="1.1">
<defs>
<filter id="alpha" filterUnits="objectBoundingBox" x="0%" y="0%" width="100%" height="100%">
  <feColorMatrix type="matrix" in="SourceGraphic" values="0 0 0 0 1 0 0 0 0 1 0 0 0 0 1 0 0 0 1 0"/>
</filter>
<image id="image13" width="48" height="48" xlink:href="data:image/png;base64,iVBORw0KGgoAAAANSUhEUgAAADAAAAAwCAYAAABXAvmHAAAABmJLR0QA/wD/AP+gvaeTAAAAiklEQVRoge3awQ1CIRAA0cVPLSQWYgFWagEWQkItGD158Bu84aCZd9uwh507KRZz78dzRMvjjdJTrpfn9GGR0nLcruO7ttPLeJh9zmwG0AygGUAzgGYAzQCaATQDaAbQDKAZQDOAZgDNAJoBNANoBtAMoBlAM4D28wELfjUoff+d4O096teu0d97AAJvDKPSMNVoAAAAAElFTkSuQmCC"/>
<mask id="mask0">
  <g filter="url(#alpha)">
<use xlink:href="#image13"/>
  </g>
</mask>
<clipPath id="clip1">
  <rect x="0" y="0" width="48" height="48"/>
</clipPath>
<g id="surface12" clip-path="url(#clip1)">
<path style=" stroke:none;fill-rule:evenodd;fill:rgb(74.509804%,74.509804%,74.509804%);fill-opacity:1;" d="M 36 0 L 36 45 L 45 45 L 45 0 Z M 36 0 "/>
</g>
<image id="image22" width="48" height="48" xlink:href="data:image/png;base64,iVBORw0KGgoAAAANSUhEUgAAADAAAAAwCAYAAABXAvmHAAAABmJLR0QA/wD/AP+gvaeTAAAAg0lEQVRoge3ZwQ2AIBAF0UWphcRCLMBKLcBCSKgFow0IBxG/JvPOsDDnNQMA4Mdc7weOPC1myZdPhOx8XO/Orwx+SvK2b+V3xrlp+tB0+wMIUCNAjQA1AtQIUCNAjQA1AtQIUCNAjQA1AtQIUCNAjQA1AtRe2NCEXN/ChGwW+38DuHYCqnkMkXNT3JMAAAAASUVORK5CYII="/>
<mask id="mask1">
  <g filter="url(#alpha)">
<use xlink:href="#image22"/>
  </g>
</mask>
<clipPath id="clip2">
  <rect x="0" y="0" width="48" height="48"/>
</clipPath>
<g id="surface21" clip-path="url(#clip2)">
<path style=" stroke:none;fill-rule:evenodd;fill:rgb(74.509804%,74.509804%,74.509804%);fill-opacity:1;" d="M 24 9 L 24 45 L 33 45 L 33 9 Z M 24 9 "/>
</g>
<image id="image31" width="48" height="48" xlink:href="data:image/png;base64,iVBORw0KGgoAAAANSUhEUgAAADAAAAAwCAYAAABXAvmHAAAABmJLR0QA/wD/AP+gvaeTAAAAfUlEQVRoge3Y0QmAIBRG4Ws5i9AgDdCkDdAggrMYNYGCSv4E53v24j2v1wwAAAAAoOFaB568HWbJl1+E7Hw8R5ZqUVmkJHm7r/Lcug+s026Z+tsHCFAjQI0ANQLUCFAjQI0ANQLUCFAjQI0Atd8HdBy2Qq4fr0I2i90LAZO9zLQMf/aLzxgAAAAASUVORK5CYII="/>
<mask id="mask2">
  <g filter="url(#alpha)">
<use xlink:href="#image31"/>
  </g>
</mask>
<clipPath id="clip3">
  <rect x="0" y="0" width="48" height="48"/>
</clipPath>
<g id="surface30" clip-path="url(#clip3)">
<path style=" stroke:none;fill-rule:evenodd;fill:rgb(74.509804%,74.509804%,74.509804%);fill-opacity:1;" d="M 12 18 L 12 45 L 21 45 L 21 18 Z M 12 18 "/>
</g>
</defs>
<g id="surface4">
<use xlink:href="#surface12" mask="url(#mask0)"/>
<use xlink:href="#surface21" mask="url(#mask1)"/>
<use xlink:href="#surface30" mask="url(#mask2)"/>
<path style=" stroke:none;fill-rule:evenodd;fill:rgb(100%,100%,100%);fill-opacity:1;" d="M 0 27 L 0 45 L 9 45 L 9 27 Z M 0 27 "/>
</g>
</svg>
