<?xml version="1.0" encoding="UTF-8"?>
<svg xmlns="http://www.w3.org/2000/svg" xmlns:xlink="http://www.w3.org/1999/xlink" width="48" height="48" viewBox="0 0 48 48" version="1.1">
<defs>
<filter id="alpha" filterUnits="objectBoundingBox" x="0%" y="0%" width="100%" height="100%">
  <feColorMatrix type="matrix" in="SourceGraphic" values="0 0 0 0 1 0 0 0 0 1 0 0 0 0 1 0 0 0 1 0"/>
</filter>
<image id="image11" width="48" height="48" xlink:href="data:image/png;base64,iVBORw0KGgoAAAANSUhEUgAAADAAAAAwCAYAAABXAvmHAAAABmJLR0QA/wD/AP+gvaeTAAAAh0lEQVRoge3ZMQ5FUBBA0SG+BanelvSWobclFft5CioJqp+QXJF7usk0c+uJkG4pjsO6tF3EWFPH/Cfl4jf0+1Sdl2MdMb08oDlNJXTFYwygGUAzgGYAzQCaATQDaAbQDKAZQDOAZgDNAJoBNANoBtAMoBlAM4B2+ROnfP3Dvk/KETN9hL5jAzXtC5E/kpyzAAAAAElFTkSuQmCC"/>
<mask id="mask0">
  <g filter="url(#alpha)">
<use xlink:href="#image11"/>
  </g>
</mask>
<clipPath id="clip1">
  <rect x="0" y="0" width="48" height="48"/>
</clipPath>
<g id="surface10" clip-path="url(#clip1)">
<path style=" stroke:none;fill-rule:nonzero;fill:rgb(74.509804%,74.509804%,74.509804%);fill-opacity:1;" d="M 10.5 3 C 6.34375 3 3 6.34375 3 10.5 L 3 25.5 C 3 29.65625 6.34375 33 10.5 33 L 29.625 33 L 39 45 L 39 32.8125 C 42.421875 32.117188 45 29.136719 45 25.5 L 45 10.5 C 45 6.34375 41.65625 3 37.5 3 Z M 10.5 3 "/>
</g>
</defs>
<g id="surface2">
<use xlink:href="#surface10" mask="url(#mask0)"/>
<path style=" stroke:none;fill-rule:nonzero;fill:rgb(100%,100%,100%);fill-opacity:1;" d="M 34.324219 38.960938 L 29.738281 33.089844 L 19.273438 32.984375 C 7.667969 32.867188 7.984375 32.902344 6.027344 31.46875 C 4.933594 30.667969 4.054688 29.460938 3.5 28.007812 C 3.140625 27.0625 3.113281 26.347656 3.113281 17.9375 C 3.113281 8.960938 3.117188 8.878906 3.582031 7.730469 C 4.238281 6.101562 5.589844 4.671875 7.238281 3.859375 L 8.59375 3.195312 L 39.519531 3.195312 L 40.6875 3.765625 C 42.171875 4.496094 43.503906 5.828125 44.234375 7.3125 L 44.804688 8.480469 L 44.867188 17.503906 C 44.914062 25.125 44.875 26.691406 44.613281 27.597656 C 43.980469 29.773438 42.171875 31.691406 40.027344 32.460938 L 39.015625 32.824219 L 38.910156 44.832031 Z M 34.324219 38.960938 "/>
</g>
</svg>
