<?xml version="1.0" encoding="UTF-8"?>
<svg xmlns="http://www.w3.org/2000/svg" xmlns:xlink="http://www.w3.org/1999/xlink" width="28" height="28" viewBox="0 0 28 28" version="1.1">
<g id="surface1">
<path style=" stroke:none;fill-rule:nonzero;fill:rgb(100%,100%,100%);fill-opacity:1;" d="M 14 0 C 6.273438 0 0 6.273438 0 14 C 0 21.726562 6.273438 28 14 28 C 21.726562 28 28 21.726562 28 14 C 28 6.273438 21.726562 0 14 0 Z M 7 11.082031 L 21.582031 11.082031 L 21.582031 16.917969 L 7 16.917969 Z M 7 11.082031 "/>
</g>
</svg>
