<?xml version="1.0" encoding="UTF-8"?>
<svg xmlns="http://www.w3.org/2000/svg" xmlns:xlink="http://www.w3.org/1999/xlink" width="22" height="22" viewBox="0 0 22 22" version="1.1">
<g id="surface1">
<path style=" stroke:none;fill-rule:evenodd;fill:rgb(84.705882%,14.901961%,0%);fill-opacity:1;" d="M 2.816406 6.550781 L 5.160156 8.839844 L 5.085938 5.628906 L 2.816406 5.617188 Z M 2.816406 6.550781 "/>
<path style="fill-rule:evenodd;fill:rgb(94.901961%,94.901961%,94.901961%);fill-opacity:1;stroke-width:5.03546;stroke-linecap:butt;stroke-linejoin:miter;stroke:rgb(68.627451%,68.627451%,68.627451%);stroke-opacity:1;stroke-miterlimit:4;" d="M 98.011364 1024.840873 L 434.925426 1023.686754 L 436.079545 659.784055 L 348.100142 570.561754 L 98.011364 570.561754 Z M 98.011364 1024.840873 " transform="matrix(0.044,0,0,0.044,0,-24.303936)"/>
<path style="fill-rule:evenodd;fill:rgb(68.627451%,68.627451%,68.627451%);fill-opacity:1;stroke-width:5.03546;stroke-linecap:butt;stroke-linejoin:miter;stroke:rgb(68.627451%,68.627451%,68.627451%);stroke-opacity:1;stroke-miterlimit:4;" d="M 432.528409 657.919708 L 350.319602 657.298259 L 351.118608 573.580219 Z M 432.528409 657.919708 " transform="matrix(0.044,0,0,0.044,0,-24.303936)"/>
<path style=" stroke:none;fill-rule:nonzero;fill:rgb(94.117647%,22.352941%,8.627451%);fill-opacity:1;" d="M 2.820312 2.851562 L 12.71875 2.851562 L 12.71875 6.5625 L 2.820312 6.5625 Z M 2.820312 2.851562 "/>
<path style=" stroke:none;fill-rule:nonzero;fill:rgb(94.117647%,22.352941%,8.627451%);fill-opacity:1;" d="M 11.703125 9.660156 C 14.738281 9.660156 17.203125 12.125 17.203125 15.160156 C 17.203125 18.199219 14.738281 20.660156 11.703125 20.660156 C 8.664062 20.660156 6.203125 18.199219 6.203125 15.160156 C 6.203125 12.125 8.664062 9.660156 11.703125 9.660156 Z M 11.703125 9.660156 "/>
<path style=" stroke:none;fill-rule:nonzero;fill:rgb(100%,100%,100%);fill-opacity:1;" d="M 13.679688 12.6875 L 13.679688 13.683594 C 12.6875 13.703125 12.441406 14.671875 12.441406 14.671875 L 13.191406 14.671875 L 13.191406 15.667969 L 12.03125 15.667969 C 11.332031 17.824219 9.722656 17.632812 9.722656 17.632812 L 9.722656 16.636719 C 9.722656 16.636719 10.742188 16.828125 11.261719 14.925781 C 11.914062 12.546875 13.679688 12.6875 13.679688 12.6875 Z M 13.679688 12.6875 "/>
<path style="fill:none;stroke-width:9;stroke-linecap:butt;stroke-linejoin:miter;stroke:rgb(100%,100%,100%);stroke-opacity:1;stroke-miterlimit:4;" d="M 233.410808 692.513002 L 233.765922 640.755189 L 268.211944 640.932746 " transform="matrix(0.044,0,0,0.044,0.140081,-24.634635)"/>
<path style="fill:none;stroke-width:9;stroke-linecap:butt;stroke-linejoin:miter;stroke:rgb(100%,100%,100%);stroke-opacity:1;stroke-miterlimit:4;" d="M 236.162939 664.547803 L 265.282257 664.72536 " transform="matrix(0.044,0,0,0.044,0.140081,-24.634635)"/>
<path style="fill:none;stroke-width:10;stroke-linecap:butt;stroke-linejoin:miter;stroke:rgb(100%,100%,100%);stroke-opacity:1;stroke-miterlimit:4;" d="M 147.90483 634.748543 C 147.90483 634.748543 138.671875 630.48718 129.882813 630.398401 C 121.004972 630.309623 115.589489 635.636327 115.323153 643.271271 C 114.96804 650.817435 119.229403 656.854367 134.410511 658.629935 C 149.502841 660.405504 148.615057 673.633487 146.75071 678.338742 C 144.886364 682.955219 136.097301 687.39414 127.130682 686.240021 C 118.075284 684.997123 110.617898 681.002094 110.617898 681.002094 " transform="matrix(0.044,0,0,0.044,0,-24.303936)"/>
<path style="fill:none;stroke-width:9;stroke-linecap:butt;stroke-linejoin:miter;stroke:rgb(100%,100%,100%);stroke-opacity:1;stroke-miterlimit:4;" d="M 160.600142 628.178941 L 168.767756 684.375674 L 173.828125 684.553231 L 189.71946 643.271271 L 193.004261 643.271271 L 208.984375 684.553231 L 214.222301 684.642009 L 221.679688 628.445276 " transform="matrix(0.044,0,0,0.044,0,-24.303936)"/>
</g>
</svg>
