<?xml version="1.0" encoding="UTF-8"?>
<svg xmlns="http://www.w3.org/2000/svg" xmlns:xlink="http://www.w3.org/1999/xlink" width="22" height="22" viewBox="0 0 22 22" version="1.1">
<g id="surface1">
<path style=" stroke:none;fill-rule:evenodd;fill:rgb(10.196078%,10.196078%,10.196078%);fill-opacity:1;" d="M 2.773438 6.769531 L 5.117188 9.0625 L 5.042969 5.847656 L 2.773438 5.835938 Z M 2.773438 6.769531 "/>
<path style="fill-rule:evenodd;fill:rgb(94.901961%,94.901961%,94.901961%);fill-opacity:1;stroke-width:5.03546;stroke-linecap:butt;stroke-linejoin:miter;stroke:rgb(68.627451%,68.627451%,68.627451%);stroke-opacity:1;stroke-miterlimit:4;" d="M 97.034801 1029.812464 L 433.948864 1028.658344 L 435.102983 664.755646 L 347.034801 575.533344 L 97.034801 575.533344 Z M 97.034801 1029.812464 " transform="matrix(0.044,0,0,0.044,0,-24.303936)"/>
<path style="fill-rule:evenodd;fill:rgb(68.627451%,68.627451%,68.627451%);fill-opacity:1;stroke-width:5.03546;stroke-linecap:butt;stroke-linejoin:miter;stroke:rgb(68.627451%,68.627451%,68.627451%);stroke-opacity:1;stroke-miterlimit:4;" d="M 431.551847 662.891299 L 349.34304 662.358629 L 350.142045 578.55181 Z M 431.551847 662.891299 " transform="matrix(0.044,0,0,0.044,0,-24.303936)"/>
<path style=" stroke:none;fill-rule:nonzero;fill:rgb(20%,20%,20%);fill-opacity:1;" d="M 2.777344 3.070312 L 12.675781 3.070312 L 12.675781 6.785156 L 2.777344 6.785156 Z M 2.777344 3.070312 "/>
<path style=" stroke:none;fill-rule:evenodd;fill:rgb(20%,20%,20%);fill-opacity:1;" d="M 9.1875 10.695312 L 9.1875 18.027344 C 8.878906 17.738281 8.472656 17.550781 8.042969 17.550781 C 7.148438 17.550781 6.332031 18.367188 6.332031 19.261719 C 6.332031 20.160156 7.148438 20.976562 8.042969 20.976562 C 8.941406 20.976562 9.761719 20.160156 9.761719 19.261719 L 9.761719 10.695312 Z M 9.1875 10.695312 "/>
<path style=" stroke:none;fill-rule:evenodd;fill:rgb(20%,20%,20%);fill-opacity:1;" d="M 14.835938 10.039062 L 14.835938 17.371094 C 14.523438 17.082031 14.117188 16.894531 13.691406 16.894531 C 12.792969 16.894531 11.976562 17.710938 11.976562 18.605469 C 11.976562 19.503906 12.792969 20.320312 13.691406 20.320312 C 14.589844 20.320312 15.40625 19.503906 15.40625 18.605469 L 15.40625 10.039062 Z M 14.835938 10.039062 "/>
<path style=" stroke:none;fill-rule:nonzero;fill:rgb(20%,20%,20%);fill-opacity:1;" d="M 9.210938 10.703125 L 15.328125 9.976562 L 15.40625 10.636719 L 9.289062 11.359375 Z M 9.210938 10.703125 "/>
<path style="fill:none;stroke-width:9;stroke-linecap:butt;stroke-linejoin:bevel;stroke:rgb(100%,100%,100%);stroke-opacity:1;stroke-miterlimit:4;" d="M 915.676542 696.29573 L 937.802963 638.026549 L 960.546456 696.29573 " transform="matrix(0.0443121,0,0,0.0443121,-32.993542,-24.666843)"/>
<path style="fill:none;stroke-width:9;stroke-linecap:butt;stroke-linejoin:miter;stroke:rgb(100%,100%,100%);stroke-opacity:1;stroke-miterlimit:4;" d="M 924.580002 676.725748 L 950.408853 676.725748 " transform="matrix(0.0443121,0,0,0.0443121,-32.993542,-24.666843)"/>
<path style="fill:none;stroke-width:9;stroke-linecap:butt;stroke-linejoin:bevel;stroke:rgb(100%,100%,100%);stroke-opacity:1;stroke-miterlimit:4;" d="M 216.708097 634.39343 L 243.519176 690.678941 L 269.620028 634.659765 " transform="matrix(0.044,0,0,0.044,0,-24.303936)"/>
<path style="fill:none;stroke-width:9;stroke-linecap:butt;stroke-linejoin:miter;stroke:rgb(100%,100%,100%);stroke-opacity:1;stroke-miterlimit:4;" d="M 101.384943 629.865731 L 109.463778 686.062464 L 114.524148 686.240021 L 130.415483 644.95806 L 133.700284 644.95806 L 149.680398 686.240021 L 154.918324 686.328799 L 162.37571 630.132066 " transform="matrix(0.044,0,0,0.044,0,-24.303936)"/>
</g>
</svg>
