<?xml version="1.0" encoding="UTF-8"?>
<svg xmlns="http://www.w3.org/2000/svg" xmlns:xlink="http://www.w3.org/1999/xlink" width="22" height="22" viewBox="0 0 22 22" version="1.1">
<g id="surface1">
<path style=" stroke:none;fill-rule:nonzero;fill:rgb(100%,100%,100%);fill-opacity:1;" d="M 14.164062 0.917969 C 13.527344 0.917969 13.027344 0.917969 12.832031 0.929688 C 12.058594 0.976562 11.667969 1.460938 11.515625 2.175781 C 11.496094 2.539062 11.515625 8.480469 11.515625 8.480469 C 11.515625 9.210938 12.101562 9.8125 12.832031 9.8125 L 19.75 9.8125 C 20.484375 9.8125 21.070312 9.210938 21.070312 8.480469 C 21.070312 7.746094 21.15625 2.273438 20.96875 1.777344 C 20.78125 1.277344 20.316406 0.929688 19.75 0.929688 C 19.328125 0.929688 16.085938 0.910156 14.164062 0.917969 Z M 13.304688 1.960938 L 19.265625 1.960938 C 19.691406 1.960938 20.039062 2.296875 20.039062 2.722656 L 20.039062 8.019531 C 20.039062 8.445312 19.691406 8.78125 19.265625 8.78125 L 13.304688 8.78125 C 12.878906 8.78125 12.53125 8.445312 12.53125 8.019531 L 12.53125 2.722656 C 12.53125 2.296875 12.878906 1.960938 13.304688 1.960938 Z M 18.949219 10.414062 C 18.4375 10.46875 18.074219 10.933594 18.132812 11.445312 C 18.191406 11.957031 18.652344 12.316406 19.164062 12.261719 C 19.675781 12.203125 20.039062 11.753906 19.980469 11.242188 C 19.921875 10.730469 19.460938 10.355469 18.949219 10.414062 Z M 3.566406 12.1875 C 2.925781 12.191406 2.441406 12.191406 2.25 12.203125 C 1.472656 12.25 1.070312 12.734375 0.917969 13.449219 C 0.898438 13.808594 0.917969 19.75 0.917969 19.75 C 0.917969 20.484375 1.515625 21.082031 2.25 21.082031 L 9.152344 21.082031 C 9.335938 21.117188 9.527344 21.132812 9.726562 21.113281 C 10.796875 20.992188 11.578125 20.019531 11.457031 18.949219 C 11.386719 18.3125 11.003906 17.785156 10.484375 17.488281 C 10.5 15.609375 10.511719 13.382812 10.382812 13.046875 C 10.195312 12.550781 9.71875 12.203125 9.152344 12.203125 C 8.726562 12.203125 5.484375 12.183594 3.566406 12.1875 Z M 2.707031 13.234375 L 8.664062 13.234375 C 9.089844 13.234375 9.4375 13.566406 9.4375 13.992188 L 9.4375 19.292969 C 9.4375 19.71875 9.089844 20.050781 8.664062 20.050781 L 2.707031 20.050781 C 2.28125 20.050781 1.933594 19.71875 1.933594 19.292969 L 1.933594 13.992188 C 1.933594 13.566406 2.28125 13.234375 2.707031 13.234375 Z M 17.472656 14.421875 C 16.753906 14.503906 16.246094 15.164062 16.328125 15.882812 C 16.410156 16.605469 17.054688 17.125 17.773438 17.042969 C 18.496094 16.960938 19.015625 16.304688 18.933594 15.582031 C 18.851562 14.863281 18.195312 14.339844 17.472656 14.421875 Z M 14.207031 17.042969 C 14.101562 17.035156 14.003906 17.046875 13.894531 17.058594 C 13.007812 17.160156 12.359375 17.949219 12.460938 18.835938 C 12.5625 19.71875 13.367188 20.367188 14.25 20.265625 C 15.136719 20.167969 15.769531 19.363281 15.667969 18.476562 C 15.582031 17.703125 14.957031 17.113281 14.207031 17.042969 Z M 14.207031 17.042969 "/>
</g>
</svg>
