<?xml version="1.0" encoding="UTF-8"?>
<svg xmlns="http://www.w3.org/2000/svg" xmlns:xlink="http://www.w3.org/1999/xlink" width="22" height="22" viewBox="0 0 22 22" version="1.1">
<g id="surface1">
<path style=" stroke:none;fill-rule:nonzero;fill:rgb(100%,100%,100%);fill-opacity:1;" d="M 14.164062 0.917969 C 13.527344 0.917969 13.027344 0.917969 12.832031 0.929688 C 12.058594 0.976562 11.667969 1.460938 11.515625 2.175781 C 11.496094 2.539062 11.515625 8.480469 11.515625 8.480469 C 11.515625 9.210938 12.101562 9.8125 12.832031 9.8125 L 18.046875 9.8125 C 17.488281 10.28125 17.21875 11.03125 17.417969 11.789062 C 17.691406 12.832031 18.75 13.464844 19.792969 13.191406 C 20.835938 12.917969 21.457031 11.84375 21.183594 10.800781 C 21.054688 10.308594 20.746094 9.921875 20.351562 9.667969 C 20.78125 9.445312 21.070312 8.996094 21.070312 8.480469 C 21.070312 7.746094 21.15625 2.273438 20.96875 1.777344 C 20.78125 1.277344 20.316406 0.929688 19.75 0.929688 C 19.328125 0.929688 16.085938 0.910156 14.164062 0.917969 Z M 13.304688 1.960938 L 19.265625 1.960938 C 19.691406 1.960938 20.039062 2.296875 20.039062 2.722656 L 20.039062 8.019531 C 20.039062 8.445312 19.691406 8.78125 19.265625 8.78125 L 13.304688 8.78125 C 12.878906 8.78125 12.53125 8.445312 12.53125 8.019531 L 12.53125 2.722656 C 12.53125 2.296875 12.878906 1.960938 13.304688 1.960938 Z M 10.125 2.046875 C 10.066406 2.050781 10.003906 2.058594 9.941406 2.078125 C 9.441406 2.207031 9.148438 2.710938 9.28125 3.207031 C 9.414062 3.707031 9.914062 4.011719 10.414062 3.882812 C 10.910156 3.75 11.21875 3.234375 11.085938 2.734375 C 10.972656 2.300781 10.558594 2.023438 10.125 2.046875 Z M 5.859375 4.066406 C 5.496094 4.121094 5.246094 4.464844 5.300781 4.828125 C 5.351562 5.1875 5.683594 5.4375 6.042969 5.386719 C 6.40625 5.332031 6.65625 4.988281 6.601562 4.625 C 6.550781 4.265625 6.21875 4.015625 5.859375 4.066406 Z M 3.566406 12.1875 C 2.925781 12.191406 2.441406 12.191406 2.25 12.203125 C 1.472656 12.25 1.070312 12.734375 0.917969 13.449219 C 0.898438 13.808594 0.917969 19.75 0.917969 19.75 C 0.917969 20.484375 1.515625 21.082031 2.25 21.082031 L 9.152344 21.082031 C 9.886719 21.082031 10.46875 20.484375 10.46875 19.75 C 10.46875 19.019531 10.574219 13.546875 10.382812 13.046875 C 10.195312 12.550781 9.71875 12.203125 9.152344 12.203125 C 8.726562 12.203125 5.484375 12.183594 3.566406 12.1875 Z M 2.707031 13.234375 L 8.664062 13.234375 C 9.089844 13.234375 9.4375 13.566406 9.4375 13.992188 L 9.4375 19.292969 C 9.4375 19.71875 9.089844 20.050781 8.664062 20.050781 L 2.707031 20.050781 C 2.28125 20.050781 1.933594 19.71875 1.933594 19.292969 L 1.933594 13.992188 C 1.933594 13.566406 2.28125 13.234375 2.707031 13.234375 Z M 2.707031 13.234375 "/>
</g>
</svg>
