<?xml version="1.0" encoding="UTF-8"?>
<svg xmlns="http://www.w3.org/2000/svg" xmlns:xlink="http://www.w3.org/1999/xlink" width="22" height="22" viewBox="0 0 22 22" version="1.1">
<g id="surface1">
<path style=" stroke:none;fill-rule:nonzero;fill:rgb(100%,100%,100%);fill-opacity:1;" d="M 12.761719 2.476562 C 12.25 2.535156 11.886719 2.996094 11.945312 3.507812 C 12.003906 4.019531 12.464844 4.398438 12.976562 4.339844 C 13.488281 4.28125 13.851562 3.820312 13.792969 3.308594 C 13.734375 2.796875 13.273438 2.421875 12.761719 2.476562 Z M 9.996094 3.09375 C 9.632812 3.09375 9.339844 3.386719 9.339844 3.753906 C 9.339844 4.117188 9.632812 4.410156 9.996094 4.410156 C 10.363281 4.410156 10.671875 4.117188 10.671875 3.753906 C 10.671875 3.386719 10.363281 3.09375 9.996094 3.09375 Z M 16.070312 3.679688 C 15.347656 3.761719 14.828125 4.40625 14.910156 5.128906 C 14.992188 5.847656 15.648438 6.371094 16.371094 6.289062 C 17.09375 6.207031 17.613281 5.5625 17.53125 4.839844 C 17.449219 4.121094 16.792969 3.597656 16.070312 3.679688 Z M 7.449219 4.066406 C 5.355469 4.066406 3.851562 5.328125 3.851562 7.375 L 3.851562 9.167969 L 3.265625 9.167969 C 2.667969 9.167969 2.363281 9.46875 2.363281 10.070312 L 2.363281 15.167969 C 2.363281 15.460938 2.667969 16.070312 3.265625 16.070312 L 12.046875 16.070312 C 12.527344 16.066406 12.832031 15.460938 12.832031 15.167969 L 12.832031 10.070312 C 12.832031 9.46875 12.53125 9.167969 11.929688 9.167969 L 11.328125 9.167969 L 11.328125 7.375 C 11.328125 5.277344 9.84375 4.066406 7.75 4.066406 Z M 7.449219 5.570312 L 7.75 5.570312 C 9.84375 5.570312 9.839844 7.363281 9.839844 7.964844 L 9.839844 9.167969 L 5.355469 9.167969 L 5.355469 7.964844 C 5.355469 7.363281 5.355469 5.570312 7.449219 5.570312 Z M 18.332031 6.917969 C 17.449219 7.019531 16.816406 7.824219 16.914062 8.707031 C 17.015625 9.59375 17.804688 10.226562 18.691406 10.125 C 19.578125 10.027344 20.222656 9.234375 20.125 8.351562 C 20.023438 7.464844 19.21875 6.816406 18.332031 6.917969 Z M 18.074219 11.488281 C 17.003906 11.609375 16.222656 12.578125 16.34375 13.648438 C 16.464844 14.722656 17.433594 15.488281 18.503906 15.367188 C 19.578125 15.246094 20.34375 14.277344 20.222656 13.207031 C 20.101562 12.132812 19.148438 11.367188 18.074219 11.488281 Z M 18.074219 11.488281 "/>
</g>
</svg>
