<?xml version="1.0" encoding="UTF-8"?>
<svg xmlns="http://www.w3.org/2000/svg" xmlns:xlink="http://www.w3.org/1999/xlink" width="96" height="96" viewBox="0 0 96 96" version="1.1">
<g id="surface1">
<path style=" stroke:none;fill-rule:nonzero;fill:rgb(100%,100%,100%);fill-opacity:1;" d="M 61.8125 4 C 59.019531 4.011719 56.847656 4.015625 56 4.0625 C 52.824219 4.25 51.1875 6.136719 50.4375 8.9375 C 49.4375 7.058594 47.628906 5.621094 45.375 5.25 C 44.894531 5.171875 44.40625 5.171875 43.9375 5.1875 C 40.664062 5.3125 37.804688 7.707031 37.25 11.0625 C 36.617188 14.898438 39.226562 18.492188 43.0625 19.125 C 45.988281 19.609375 48.792969 18.25 50.25 15.875 C 50.230469 23.589844 50.25 37 50.25 37 C 50.25 40.195312 52.804688 42.8125 56 42.8125 L 86.1875 42.8125 C 89.382812 42.8125 91.9375 40.195312 91.9375 37 C 91.9375 33.804688 92.324219 9.921875 91.5 7.75 C 90.671875 5.582031 88.660156 4.0625 86.1875 4.0625 C 84.332031 4.0625 70.1875 3.972656 61.8125 4 Z M 58.0625 8.5625 L 84.0625 8.5625 C 85.917969 8.5625 87.4375 10.019531 87.4375 11.875 L 87.4375 35 C 87.4375 36.855469 85.917969 38.3125 84.0625 38.3125 L 58.0625 38.3125 C 56.207031 38.3125 54.6875 36.855469 54.6875 35 L 54.6875 11.875 C 54.6875 10.019531 56.207031 8.5625 58.0625 8.5625 Z M 25.5625 14.5 C 22.894531 14.601562 20.574219 16.578125 20.125 19.3125 C 19.609375 22.4375 21.75 25.359375 24.875 25.875 C 28 26.390625 30.921875 24.3125 31.4375 21.1875 C 31.953125 18.0625 29.875 15.078125 26.75 14.5625 C 26.359375 14.5 25.941406 14.484375 25.5625 14.5 Z M 14.4375 32.9375 C 12.546875 33.007812 10.882812 34.375 10.5625 36.3125 C 10.195312 38.527344 11.722656 40.632812 13.9375 41 C 16.15625 41.367188 18.257812 39.839844 18.625 37.625 C 18.992188 35.40625 17.46875 33.367188 15.25 33 C 14.972656 32.953125 14.707031 32.925781 14.4375 32.9375 Z M 15.5625 53.1875 C 12.769531 53.195312 10.65625 53.199219 9.8125 53.25 C 6.425781 53.449219 4.671875 55.5625 4 58.6875 C 3.957031 59.453125 3.992188 66.148438 4 72.6875 C 4 72.832031 4 72.855469 4 73 C 4.011719 79.679688 4 86.1875 4 86.1875 C 4 89.382812 6.617188 92 9.8125 92 L 39.9375 92 C 43.132812 92 45.6875 89.382812 45.6875 86.1875 C 45.6875 82.992188 46.140625 59.105469 45.3125 56.9375 C 44.488281 54.765625 42.410156 53.25 39.9375 53.25 C 38.082031 53.25 23.9375 53.160156 15.5625 53.1875 Z M 11.8125 57.75 L 37.8125 57.75 C 39.667969 57.75 41.1875 59.207031 41.1875 61.0625 L 41.1875 84.1875 C 41.1875 86.042969 39.667969 87.5 37.8125 87.5 L 11.8125 87.5 C 9.957031 87.5 8.4375 86.042969 8.4375 84.1875 L 8.4375 61.0625 C 8.4375 59.207031 9.957031 57.75 11.8125 57.75 Z M 12.9375 62.1875 L 12.9375 83.0625 L 36.75 83.0625 L 36.75 62.1875 Z M 12.9375 62.1875 "/>
</g>
</svg>
