<?xml version="1.0" encoding="UTF-8"?>
<svg xmlns="http://www.w3.org/2000/svg" xmlns:xlink="http://www.w3.org/1999/xlink" width="96" height="96" viewBox="0 0 96 96" version="1.1">
<g id="surface1">
<path style=" stroke:none;fill-rule:nonzero;fill:rgb(100%,100%,100%);fill-opacity:1;" d="M 55.875 12.3125 C 54.449219 12.476562 53.402344 13.765625 53.5625 15.1875 C 53.722656 16.609375 55.011719 17.597656 56.4375 17.4375 C 57.859375 17.277344 58.910156 15.988281 58.75 14.5625 C 58.585938 13.140625 57.296875 12.152344 55.875 12.3125 Z M 32.5 17.75 C 23.363281 17.75 16.8125 23.25 16.8125 32.1875 L 16.8125 40 L 14.25 40 C 11.640625 40 10.3125 41.316406 10.3125 43.9375 L 10.3125 66.1875 C 10.3125 67.46875 11.640625 70.125 14.25 70.125 L 52.5625 70.125 C 54.671875 70.113281 56 67.46875 56 66.1875 L 56 43.9375 C 56 41.316406 54.671875 40 52.0625 40 L 49.4375 40 L 49.4375 32.1875 C 49.4375 23.023438 42.949219 17.75 33.8125 17.75 Z M 70.3125 17.75 C 68.105469 18 66.5625 19.984375 66.8125 22.1875 C 67.0625 24.390625 69.042969 26 71.25 25.75 C 73.457031 25.5 75 23.515625 74.75 21.3125 C 74.5 19.109375 72.519531 17.5 70.3125 17.75 Z M 32.5 24.3125 L 33.8125 24.3125 C 42.949219 24.3125 42.9375 32.128906 42.9375 34.75 L 42.9375 40 L 23.375 40 L 23.375 34.75 C 23.375 32.128906 23.363281 24.3125 32.5 24.3125 Z M 80.1875 31.9375 C 77.265625 32.265625 75.167969 34.890625 75.5 37.8125 C 75.828125 40.734375 78.453125 42.828125 81.375 42.5 C 84.296875 42.171875 86.394531 39.546875 86.0625 36.625 C 85.730469 33.703125 83.109375 31.609375 80.1875 31.9375 Z M 80.4375 51.3125 C 79.953125 51.269531 79.5 51.320312 79 51.375 C 74.992188 51.824219 72.109375 55.433594 72.5625 59.4375 C 73.011719 63.441406 76.621094 66.328125 80.625 65.875 C 84.628906 65.421875 87.515625 61.816406 87.0625 57.8125 C 86.664062 54.308594 83.816406 51.613281 80.4375 51.3125 Z M 67.6875 70.6875 C 62.972656 70.6875 59.1875 74.535156 59.1875 79.25 C 59.1875 83.964844 62.972656 87.75 67.6875 87.75 C 72.402344 87.75 76.25 83.964844 76.25 79.25 C 76.25 74.535156 72.402344 70.6875 67.6875 70.6875 Z M 67.6875 70.6875 "/>
</g>
</svg>
