<?xml version="1.0" encoding="UTF-8"?>
<svg xmlns="http://www.w3.org/2000/svg" xmlns:xlink="http://www.w3.org/1999/xlink" width="128" height="128" viewBox="0 0 128 128" version="1.1">
<g id="surface1">
<path style=" stroke:none;fill-rule:nonzero;fill:rgb(100%,100%,100%);fill-opacity:1;" d="M 82.417969 5.332031 C 78.695312 5.347656 75.796875 5.351562 74.667969 5.417969 C 70.148438 5.683594 67.894531 8.503906 67 12.667969 C 66.886719 14.761719 67 49.332031 67 49.332031 C 67 53.59375 70.40625 57.082031 74.667969 57.082031 L 114.917969 57.082031 C 119.179688 57.082031 122.582031 53.59375 122.582031 49.332031 C 122.582031 45.070312 123.101562 13.226562 122 10.332031 C 120.898438 7.441406 118.214844 5.417969 114.917969 5.417969 C 112.445312 5.417969 93.582031 5.296875 82.417969 5.332031 Z M 77.417969 11.417969 L 112.082031 11.417969 C 114.558594 11.417969 116.582031 13.359375 116.582031 15.832031 L 116.582031 46.667969 C 116.582031 49.140625 114.558594 51.082031 112.082031 51.082031 L 77.417969 51.082031 C 74.941406 51.082031 72.917969 49.140625 72.917969 46.667969 L 72.917969 15.832031 C 72.917969 13.359375 74.941406 11.417969 77.417969 11.417969 Z M 17.75 65.75 C 15.5625 65.691406 13.402344 66.316406 11.417969 67.582031 C 8.59375 69.386719 6.855469 72.195312 6.332031 75.25 C 5.878906 76.144531 5.570312 77.144531 5.332031 78.25 C 5.277344 79.273438 5.320312 88.199219 5.332031 96.917969 C 5.332031 97.109375 5.332031 97.140625 5.332031 97.332031 C 5.347656 106.238281 5.332031 114.917969 5.332031 114.917969 C 5.332031 119.179688 8.820312 122.667969 13.082031 122.667969 L 53.25 122.667969 C 56.789062 122.667969 59.683594 120.257812 60.582031 117 C 63.9375 114.671875 64.882812 110.140625 62.667969 106.667969 C 62.203125 105.941406 61.632812 105.347656 61 104.832031 C 61.117188 93.929688 61.242188 78.078125 60.417969 75.917969 C 59.316406 73.023438 56.546875 71 53.25 71 C 51.253906 71 37.691406 70.925781 27 70.917969 C 24.882812 67.671875 21.359375 65.84375 17.75 65.75 Z M 15.75 77 L 50.417969 77 C 52.890625 77 54.917969 78.941406 54.917969 81.417969 L 54.917969 112.25 C 54.917969 114.726562 52.890625 116.667969 50.417969 116.667969 L 15.75 116.667969 C 13.273438 116.667969 11.25 114.726562 11.25 112.25 L 11.25 81.417969 C 11.25 78.941406 13.273438 77 15.75 77 Z M 17.25 82.917969 L 17.25 110.75 L 49 110.75 L 49 82.917969 Z M 102.917969 85.917969 C 102.417969 85.945312 101.976562 86.015625 101.5 86.25 C 99.589844 87.1875 98.730469 89.507812 99.667969 91.417969 C 100.601562 93.328125 102.921875 94.101562 104.832031 93.167969 C 106.742188 92.230469 107.519531 89.992188 106.582031 88.082031 C 105.882812 86.652344 104.414062 85.832031 102.917969 85.917969 Z M 83 101.5 C 81.957031 101.472656 80.863281 101.8125 79.917969 102.417969 C 77.390625 104.027344 76.636719 107.390625 78.25 109.917969 C 79.863281 112.441406 83.226562 113.113281 85.75 111.5 C 88.273438 109.886719 89.027344 106.523438 87.417969 104 C 86.410156 102.421875 84.742188 101.546875 83 101.5 Z M 83 101.5 "/>
</g>
</svg>
