<?xml version="1.0" encoding="UTF-8"?>
<svg xmlns="http://www.w3.org/2000/svg" xmlns:xlink="http://www.w3.org/1999/xlink" width="128" height="128" viewBox="0 0 128 128" version="1.1">
<g id="surface1">
<path style=" stroke:none;fill-rule:nonzero;fill:rgb(100%,100%,100%);fill-opacity:1;" d="M 82.417969 5.332031 C 78.695312 5.347656 75.796875 5.351562 74.667969 5.417969 C 70.148438 5.683594 67.894531 8.503906 67 12.667969 C 66.886719 14.761719 67 49.332031 67 49.332031 C 67 53.59375 70.40625 57.082031 74.667969 57.082031 L 114.917969 57.082031 C 119.179688 57.082031 122.582031 53.59375 122.582031 49.332031 C 122.582031 45.070312 123.101562 13.226562 122 10.332031 C 120.898438 7.441406 118.214844 5.417969 114.917969 5.417969 C 112.445312 5.417969 93.582031 5.296875 82.417969 5.332031 Z M 77.417969 11.417969 L 112.082031 11.417969 C 114.558594 11.417969 116.582031 13.359375 116.582031 15.832031 L 116.582031 46.667969 C 116.582031 49.140625 114.558594 51.082031 112.082031 51.082031 L 77.417969 51.082031 C 74.941406 51.082031 72.917969 49.140625 72.917969 46.667969 L 72.917969 15.832031 C 72.917969 13.359375 74.941406 11.417969 77.417969 11.417969 Z M 78.917969 17.332031 L 78.917969 45.167969 L 110.582031 45.167969 L 110.582031 17.332031 Z M 110.667969 58.832031 C 109.199219 58.960938 107.730469 59.503906 106.5 60.5 C 103.21875 63.15625 102.757812 67.96875 105.417969 71.25 C 108.074219 74.53125 112.882812 75.074219 116.167969 72.417969 C 119.449219 69.757812 119.90625 64.949219 117.25 61.667969 C 115.589844 59.613281 113.113281 58.621094 110.667969 58.832031 Z M 20.75 70.917969 C 17.027344 70.929688 14.210938 70.933594 13.082031 71 C 8.566406 71.265625 6.226562 74.085938 5.332031 78.25 C 5.277344 79.273438 5.320312 88.199219 5.332031 96.917969 C 5.332031 97.109375 5.332031 97.140625 5.332031 97.332031 C 5.347656 106.238281 5.332031 114.917969 5.332031 114.917969 C 5.332031 119.179688 8.820312 122.667969 13.082031 122.667969 L 53.25 122.667969 C 57.511719 122.667969 60.917969 119.179688 60.917969 114.917969 C 60.917969 110.65625 61.519531 78.808594 60.417969 75.917969 C 59.316406 73.023438 56.546875 71 53.25 71 C 50.777344 71 31.914062 70.878906 20.75 70.917969 Z M 15.75 77 L 50.417969 77 C 52.890625 77 54.917969 78.941406 54.917969 81.417969 L 54.917969 112.25 C 54.917969 114.726562 52.890625 116.667969 50.417969 116.667969 L 15.75 116.667969 C 13.273438 116.667969 11.25 114.726562 11.25 112.25 L 11.25 81.417969 C 11.25 78.941406 13.273438 77 15.75 77 Z M 102.167969 82.582031 C 100.363281 82.738281 98.59375 83.441406 97.082031 84.667969 C 93.050781 87.929688 92.488281 93.800781 95.75 97.832031 C 99.011719 101.863281 104.886719 102.511719 108.917969 99.25 C 112.949219 95.988281 113.597656 90.03125 110.332031 86 C 108.292969 83.480469 105.167969 82.324219 102.167969 82.582031 Z M 17.25 82.917969 L 17.25 110.75 L 49 110.75 L 49 82.917969 Z M 81.25 97.417969 C 79.070312 97.605469 76.996094 98.433594 75.167969 99.917969 C 70.289062 103.867188 69.46875 111.039062 73.417969 115.917969 C 77.367188 120.796875 84.539062 121.53125 89.417969 117.582031 C 94.296875 113.632812 95.03125 106.460938 91.082031 101.582031 C 88.613281 98.535156 84.886719 97.101562 81.25 97.417969 Z M 81.25 97.417969 "/>
</g>
</svg>
