<?xml version="1.0" encoding="UTF-8"?>
<svg xmlns="http://www.w3.org/2000/svg" xmlns:xlink="http://www.w3.org/1999/xlink" width="128" height="128" viewBox="0 0 128 128" version="1.1">
<g id="surface1">
<path style=" stroke:none;fill-rule:nonzero;fill:rgb(100%,100%,100%);fill-opacity:1;" d="M 82.417969 5.332031 C 78.695312 5.347656 75.796875 5.351562 74.667969 5.417969 C 70.148438 5.683594 67.894531 8.503906 67 12.667969 C 66.886719 14.761719 67 49.332031 67 49.332031 C 67 53.59375 70.40625 57.082031 74.667969 57.082031 L 114.917969 57.082031 C 119.179688 57.082031 122.582031 53.59375 122.582031 49.332031 C 122.582031 45.070312 123.101562 13.226562 122 10.332031 C 120.898438 7.441406 118.214844 5.417969 114.917969 5.417969 C 112.445312 5.417969 93.582031 5.296875 82.417969 5.332031 Z M 77.417969 11.417969 L 112.082031 11.417969 C 114.558594 11.417969 116.582031 13.359375 116.582031 15.832031 L 116.582031 46.667969 C 116.582031 49.140625 114.558594 51.082031 112.082031 51.082031 L 77.417969 51.082031 C 74.941406 51.082031 72.917969 49.140625 72.917969 46.667969 L 72.917969 15.832031 C 72.917969 13.359375 74.941406 11.417969 77.417969 11.417969 Z M 17.667969 38.832031 C 11.390625 38.855469 6.3125 43.972656 6.332031 50.25 C 6.355469 56.527344 11.472656 61.605469 17.75 61.582031 C 24.027344 61.5625 29.105469 56.445312 29.082031 50.167969 C 29.0625 43.890625 23.945312 38.8125 17.667969 38.832031 Z M 17.75 67.5 C 14.507812 67.511719 11.671875 69.164062 10 71.667969 C 9.984375 71.6875 10.011719 71.730469 10 71.75 C 7.460938 72.871094 5.992188 75.171875 5.332031 78.25 C 5.277344 79.273438 5.320312 88.199219 5.332031 96.917969 C 5.332031 97.109375 5.332031 97.140625 5.332031 97.332031 C 5.347656 106.238281 5.332031 114.917969 5.332031 114.917969 C 5.332031 119.179688 8.820312 122.667969 13.082031 122.667969 L 53.25 122.667969 C 57.511719 122.667969 60.917969 119.179688 60.917969 114.917969 C 60.917969 114.820312 60.917969 114.125 60.917969 114 C 61.796875 113.019531 62.339844 111.742188 62.332031 110.332031 C 62.328125 108.980469 61.816406 107.78125 61 106.832031 C 61.117188 96.378906 61.296875 78.222656 60.417969 75.917969 C 59.316406 73.023438 56.546875 71 53.25 71 C 51.105469 71 36.167969 70.917969 25.082031 70.917969 C 23.351562 68.816406 20.683594 67.492188 17.75 67.5 Z M 15.75 77 L 50.417969 77 C 52.890625 77 54.917969 78.941406 54.917969 81.417969 L 54.917969 112.25 C 54.917969 114.726562 52.890625 116.667969 50.417969 116.667969 L 15.75 116.667969 C 13.273438 116.667969 11.25 114.726562 11.25 112.25 L 11.25 81.417969 C 11.25 78.941406 13.273438 77 15.75 77 Z M 82.917969 102.832031 C 81.132812 103 79.703125 104.398438 79.5 106.25 C 79.269531 108.363281 80.800781 110.269531 82.917969 110.5 C 85.03125 110.730469 86.851562 109.28125 87.082031 107.167969 C 87.316406 105.050781 85.863281 103.148438 83.75 102.917969 C 83.484375 102.886719 83.171875 102.808594 82.917969 102.832031 Z M 82.917969 102.832031 "/>
</g>
</svg>
