<?xml version="1.0" encoding="UTF-8"?>
<svg xmlns="http://www.w3.org/2000/svg" xmlns:xlink="http://www.w3.org/1999/xlink" width="128" height="128" viewBox="0 0 128 128" version="1.1">
<g id="surface1">
<path style=" stroke:none;fill-rule:nonzero;fill:rgb(100%,100%,100%);fill-opacity:1;" d="M 58.082031 4.667969 C 56.605469 4.683594 55.105469 4.953125 53.667969 5.582031 C 47.914062 8.101562 45.316406 14.832031 47.832031 20.582031 C 50.351562 26.335938 57 28.933594 62.75 26.417969 C 64.492188 25.65625 65.878906 24.464844 67 23.082031 C 66.988281 33.863281 67 49.332031 67 49.332031 C 67 53.59375 70.40625 57.082031 74.667969 57.082031 L 114.917969 57.082031 C 119.179688 57.082031 122.582031 53.59375 122.582031 49.332031 C 122.582031 45.070312 123.101562 13.226562 122 10.332031 C 120.898438 7.441406 118.214844 5.417969 114.917969 5.417969 C 112.445312 5.417969 93.582031 5.296875 82.417969 5.332031 C 78.695312 5.347656 75.796875 5.351562 74.667969 5.417969 C 71.203125 5.621094 69.042969 7.339844 67.832031 10 C 65.691406 6.617188 61.957031 4.617188 58.082031 4.667969 Z M 77.417969 11.417969 L 112.082031 11.417969 C 114.558594 11.417969 116.582031 13.359375 116.582031 15.832031 L 116.582031 46.667969 C 116.582031 49.140625 114.558594 51.082031 112.082031 51.082031 L 77.417969 51.082031 C 74.941406 51.082031 72.917969 49.140625 72.917969 46.667969 L 72.917969 15.832031 C 72.917969 13.359375 74.941406 11.417969 77.417969 11.417969 Z M 33.667969 17.332031 C 32.445312 17.347656 31.1875 17.5625 30 18.082031 C 25.25 20.164062 23.085938 25.75 25.167969 30.5 C 27.246094 35.25 32.75 37.414062 37.5 35.332031 C 42.25 33.253906 44.496094 27.667969 42.417969 22.917969 C 40.855469 19.355469 37.324219 17.289062 33.667969 17.332031 Z M 18.917969 41.417969 C 17.921875 41.429688 16.882812 41.660156 15.917969 42.082031 C 12.046875 43.777344 10.304688 48.296875 12 52.167969 C 13.695312 56.035156 18.214844 57.777344 22.082031 56.082031 C 25.953125 54.390625 27.695312 49.871094 26 46 C 24.730469 43.097656 21.898438 41.378906 18.917969 41.417969 Z M 18.582031 70.5 C 17.90625 70.507812 17.242188 70.71875 16.582031 71 C 16.558594 71.011719 16.527344 70.988281 16.5 71 C 15.394531 71.011719 13.585938 70.96875 13.082031 71 C 8.566406 71.265625 6.226562 74.085938 5.332031 78.25 C 5.277344 79.273438 5.320312 88.199219 5.332031 96.917969 C 5.332031 97.109375 5.332031 97.140625 5.332031 97.332031 C 5.347656 106.238281 5.332031 114.917969 5.332031 114.917969 C 5.332031 119.179688 8.820312 122.667969 13.082031 122.667969 L 53.25 122.667969 C 57.511719 122.667969 60.917969 119.179688 60.917969 114.917969 C 60.917969 110.65625 61.519531 78.808594 60.417969 75.917969 C 59.316406 73.023438 56.546875 71 53.25 71 C 50.777344 71 31.914062 70.878906 20.75 70.917969 C 20.074219 70.632812 19.332031 70.492188 18.582031 70.5 Z M 15.75 77 L 50.417969 77 C 52.890625 77 54.917969 78.941406 54.917969 81.417969 L 54.917969 112.25 C 54.917969 114.726562 52.890625 116.667969 50.417969 116.667969 L 15.75 116.667969 C 13.273438 116.667969 11.25 114.726562 11.25 112.25 L 11.25 81.417969 C 11.25 78.941406 13.273438 77 15.75 77 Z M 17.25 82.917969 L 17.25 110.75 L 49 110.75 L 49 82.917969 Z M 17.25 82.917969 "/>
</g>
</svg>
