<?xml version="1.0" encoding="UTF-8"?>
<svg xmlns="http://www.w3.org/2000/svg" xmlns:xlink="http://www.w3.org/1999/xlink" width="128" height="128" viewBox="0 0 128 128" version="1.1">
<g id="surface1">
<path style=" stroke:none;fill-rule:nonzero;fill:rgb(100%,100%,100%);fill-opacity:1;" d="M 82.417969 5.332031 C 78.695312 5.347656 75.796875 5.351562 74.667969 5.417969 C 70.148438 5.683594 67.894531 8.503906 67 12.667969 C 66.886719 14.761719 67 49.332031 67 49.332031 C 67 53.59375 70.40625 57.082031 74.667969 57.082031 L 114.917969 57.082031 C 119.179688 57.082031 122.582031 53.59375 122.582031 49.332031 C 122.582031 45.070312 123.101562 13.226562 122 10.332031 C 120.898438 7.441406 118.214844 5.417969 114.917969 5.417969 C 112.445312 5.417969 93.582031 5.296875 82.417969 5.332031 Z M 77.417969 11.417969 L 112.082031 11.417969 C 114.558594 11.417969 116.582031 13.359375 116.582031 15.832031 L 116.582031 46.667969 C 116.582031 49.140625 114.558594 51.082031 112.082031 51.082031 L 77.417969 51.082031 C 74.941406 51.082031 72.917969 49.140625 72.917969 46.667969 L 72.917969 15.832031 C 72.917969 13.359375 74.941406 11.417969 77.417969 11.417969 Z M 59.082031 13.5 C 57.863281 13.691406 56.734375 14.464844 56.167969 15.667969 C 55.261719 17.589844 56.074219 19.925781 58 20.832031 C 59.925781 21.738281 62.261719 20.925781 63.167969 19 C 64.074219 17.074219 63.175781 14.738281 61.25 13.832031 C 60.527344 13.492188 59.816406 13.386719 59.082031 13.5 Z M 111.25 57.5 C 107.601562 57.765625 104.253906 60.152344 103 63.832031 C 101.332031 68.742188 104.007812 74.082031 108.917969 75.75 C 113.828125 77.417969 119.164062 74.742188 120.832031 69.832031 C 122.503906 64.921875 119.828125 59.585938 114.917969 57.917969 C 113.6875 57.5 112.464844 57.410156 111.25 57.5 Z M 20.75 70.917969 C 17.027344 70.929688 14.210938 70.933594 13.082031 71 C 8.566406 71.265625 6.226562 74.085938 5.332031 78.25 C 5.21875 80.34375 5.332031 114.917969 5.332031 114.917969 C 5.332031 119.179688 8.820312 122.667969 13.082031 122.667969 L 53.25 122.667969 C 57.511719 122.667969 60.917969 119.179688 60.917969 114.917969 C 60.917969 110.65625 61.519531 78.808594 60.417969 75.917969 C 59.316406 73.023438 56.546875 71 53.25 71 C 50.777344 71 31.914062 70.878906 20.75 70.917969 Z M 15.75 77 L 50.417969 77 C 52.890625 77 54.917969 78.941406 54.917969 81.417969 L 54.917969 112.25 C 54.917969 114.726562 52.890625 116.667969 50.417969 116.667969 L 15.75 116.667969 C 13.273438 116.667969 11.25 114.726562 11.25 112.25 L 11.25 81.417969 C 11.25 78.941406 13.273438 77 15.75 77 Z M 102.5 80.75 C 98.082031 81.070312 94.097656 83.960938 92.582031 88.417969 C 90.5625 94.359375 93.722656 100.8125 99.667969 102.832031 C 105.609375 104.855469 112.0625 101.695312 114.082031 95.75 C 116.105469 89.804688 112.945312 83.355469 107 81.332031 C 105.515625 80.828125 103.972656 80.644531 102.5 80.75 Z M 102.5 80.75 "/>
</g>
</svg>
