<?xml version="1.0" encoding="UTF-8"?>
<svg xmlns="http://www.w3.org/2000/svg" xmlns:xlink="http://www.w3.org/1999/xlink" width="24" height="24" viewBox="0 0 24 24" version="1.1">
<g id="surface1">
<path style=" stroke:none;fill-rule:nonzero;fill:rgb(100%,100%,100%);fill-opacity:1;" d="M 15.453125 1 C 14.753906 1.003906 14.210938 1.003906 14 1.015625 C 13.152344 1.066406 12.730469 1.59375 12.5625 2.375 C 12.542969 2.769531 12.5625 9.25 12.5625 9.25 C 12.5625 10.046875 13.203125 10.703125 14 10.703125 L 21.546875 10.703125 C 22.347656 10.703125 22.984375 10.046875 22.984375 9.25 C 22.984375 8.449219 23.082031 2.480469 22.875 1.9375 C 22.667969 1.394531 22.164062 1.015625 21.546875 1.015625 C 21.082031 1.015625 17.546875 0.992188 15.453125 1 Z M 14.515625 2.140625 L 21.015625 2.140625 C 21.480469 2.140625 21.859375 2.503906 21.859375 2.96875 L 21.859375 8.75 C 21.859375 9.214844 21.480469 9.578125 21.015625 9.578125 L 14.515625 9.578125 C 14.050781 9.578125 13.671875 9.214844 13.671875 8.75 L 13.671875 2.96875 C 13.671875 2.503906 14.050781 2.140625 14.515625 2.140625 Z M 3.328125 12.328125 C 2.917969 12.316406 2.511719 12.433594 2.140625 12.671875 C 1.609375 13.011719 1.285156 13.535156 1.1875 14.109375 C 1.101562 14.277344 1.042969 14.464844 1 14.671875 C 0.988281 14.863281 0.996094 16.539062 1 18.171875 C 1 18.207031 1 18.214844 1 18.25 C 1.003906 19.917969 1 21.546875 1 21.546875 C 1 22.347656 1.652344 23 2.453125 23 L 9.984375 23 C 10.648438 23 11.191406 22.546875 11.359375 21.9375 C 11.988281 21.5 12.164062 20.652344 11.75 20 C 11.664062 19.863281 11.554688 19.753906 11.4375 19.65625 C 11.460938 17.613281 11.484375 14.640625 11.328125 14.234375 C 11.121094 13.691406 10.601562 13.3125 9.984375 13.3125 C 9.609375 13.3125 7.066406 13.296875 5.0625 13.296875 C 4.664062 12.6875 4.003906 12.34375 3.328125 12.328125 Z M 2.953125 14.4375 L 9.453125 14.4375 C 9.917969 14.4375 10.296875 14.800781 10.296875 15.265625 L 10.296875 21.046875 C 10.296875 21.511719 9.917969 21.875 9.453125 21.875 L 2.953125 21.875 C 2.488281 21.875 2.109375 21.511719 2.109375 21.046875 L 2.109375 15.265625 C 2.109375 14.800781 2.488281 14.4375 2.953125 14.4375 Z M 3.234375 15.546875 L 3.234375 20.765625 L 9.1875 20.765625 L 9.1875 15.546875 Z M 19.296875 16.109375 C 19.203125 16.113281 19.121094 16.128906 19.03125 16.171875 C 18.671875 16.347656 18.511719 16.78125 18.6875 17.140625 C 18.863281 17.5 19.296875 17.644531 19.65625 17.46875 C 20.015625 17.292969 20.160156 16.875 19.984375 16.515625 C 19.851562 16.246094 19.578125 16.09375 19.296875 16.109375 Z M 15.5625 19.03125 C 15.367188 19.027344 15.160156 19.089844 14.984375 19.203125 C 14.511719 19.503906 14.371094 20.136719 14.671875 20.609375 C 14.972656 21.082031 15.605469 21.207031 16.078125 20.90625 C 16.550781 20.605469 16.691406 19.972656 16.390625 19.5 C 16.203125 19.203125 15.890625 19.039062 15.5625 19.03125 Z M 15.5625 19.03125 "/>
</g>
</svg>
