<?xml version="1.0" encoding="UTF-8"?>
<svg xmlns="http://www.w3.org/2000/svg" xmlns:xlink="http://www.w3.org/1999/xlink" width="24" height="24" viewBox="0 0 24 24" version="1.1">
<g id="surface1">
<path style=" stroke:none;fill-rule:nonzero;fill:rgb(100%,100%,100%);fill-opacity:1;" d="M 13.90625 2.578125 C 13.28125 2.648438 12.835938 3.21875 12.90625 3.84375 C 12.976562 4.46875 13.53125 4.914062 14.15625 4.84375 C 14.78125 4.773438 15.242188 4.21875 15.171875 3.59375 C 15.101562 2.96875 14.53125 2.507812 13.90625 2.578125 Z M 10.90625 3.375 C 10.507812 3.375 10.1875 3.695312 10.1875 4.09375 C 10.1875 4.492188 10.507812 4.8125 10.90625 4.8125 C 11.304688 4.8125 11.640625 4.492188 11.640625 4.09375 C 11.640625 3.695312 11.304688 3.375 10.90625 3.375 Z M 8.125 4.4375 C 5.839844 4.4375 4.203125 5.8125 4.203125 8.046875 L 4.203125 10 L 3.5625 10 C 2.910156 10 2.578125 10.328125 2.578125 10.984375 L 2.578125 16.546875 C 2.578125 16.867188 2.910156 17.53125 3.5625 17.53125 L 13.140625 17.53125 C 13.667969 17.527344 14 16.867188 14 16.546875 L 14 10.984375 C 14 10.328125 13.667969 10 13.015625 10 L 12.359375 10 L 12.359375 8.046875 C 12.359375 5.753906 10.738281 4.4375 8.453125 4.4375 Z M 8.125 6.078125 L 8.453125 6.078125 C 10.738281 6.078125 10.734375 8.03125 10.734375 8.6875 L 10.734375 10 L 5.84375 10 L 5.84375 8.6875 C 5.84375 8.03125 5.839844 6.078125 8.125 6.078125 Z M 8.125 6.078125 "/>
</g>
</svg>
