<?xml version="1.0" encoding="UTF-8"?>
<svg xmlns="http://www.w3.org/2000/svg" xmlns:xlink="http://www.w3.org/1999/xlink" width="24" height="24" viewBox="0 0 24 24" version="1.1">
<g id="surface1">
<path style=" stroke:none;fill-rule:nonzero;fill:rgb(74.509804%,74.509804%,74.509804%);fill-opacity:1;" d="M 7.5 7.5 L 7.5 10.5 L 16.5 10.5 L 16.5 7.5 Z M 7.5 12 L 7.5 15 L 13.5 15 L 13.875 14.8125 L 16.5 12.1875 L 16.5 12 Z M 7.5 16.59375 L 7.5 19.5 L 12 19.5 L 12 16.59375 Z M 7.5 16.59375 "/>
<path style=" stroke:none;fill-rule:nonzero;fill:rgb(74.509804%,74.509804%,74.509804%);fill-opacity:1;" d="M 8.207031 0 C 7.46875 0 7.011719 0.34375 6.660156 0.703125 C 6.296875 1.0625 6 1.542969 6 2.246094 L 6 2.996094 L 3 2.996094 L 3 23.996094 L 15 23.996094 L 15 20.996094 L 6 20.996094 L 6 5.996094 L 9 5.996094 L 9 2.996094 L 15 2.996094 L 15 5.996094 L 18 5.996094 L 18 10.496094 L 21 10.496094 L 21 2.996094 L 18 2.996094 L 18 2.34375 C 17.960938 1.695312 17.742188 1.261719 17.390625 0.84375 C 17.054688 0.445312 16.449219 0.046875 15.65625 0.046875 L 15.65625 0 L 8.203125 0 Z M 8.207031 0 "/>
<path style=" stroke:none;fill-rule:nonzero;fill:rgb(74.509804%,74.509804%,74.509804%);fill-opacity:1;" d="M 19.125 12 C 18.859375 12.074219 18.613281 12.222656 18.421875 12.421875 L 13.921875 16.875 C 13.570312 17.222656 13.40625 17.796875 13.5 18.28125 L 13.5 19.5 L 18.1875 19.5 L 16.921875 21.375 C 16.695312 21.597656 16.554688 21.90625 16.5 22.21875 L 16.5 24 L 18 24 C 18.394531 24.007812 18.792969 23.804688 19.078125 23.53125 L 23.578125 19.03125 C 23.851562 18.746094 24.007812 18.394531 24 18 C 24.003906 17.9375 24.003906 17.875 24 17.8125 L 24 16.5 L 22.59375 16.5 C 22.5625 16.5 22.53125 16.5 22.5 16.5 L 19.3125 16.5 L 20.578125 14.53125 C 20.804688 14.308594 20.945312 14.035156 21 13.734375 L 21 12 Z M 19.125 12 "/>
<path style=" stroke:none;fill-rule:nonzero;fill:rgb(0%,0%,0%);fill-opacity:1;" d="M 3.015625 13.492188 L 3.015625 2.996094 L 6.011719 2.996094 L 6.027344 2.386719 C 6.039062 1.859375 6.050781 1.75 6.109375 1.589844 C 6.363281 0.886719 7.011719 0.269531 7.707031 0.0664062 C 7.878906 0.015625 8.199219 0.0117188 11.769531 0.00390625 C 14.4375 -0.00390625 15.648438 0.00390625 15.648438 0.0234375 C 15.648438 0.0429688 15.695312 0.0585938 15.757812 0.0585938 C 15.917969 0.0585938 16.320312 0.144531 16.515625 0.226562 C 17.023438 0.433594 17.484375 0.875 17.753906 1.414062 C 17.90625 1.722656 17.96875 2.027344 17.992188 2.542969 L 18.007812 2.996094 L 21.003906 2.996094 L 21.003906 10.488281 L 18 10.488281 L 18 6 L 14.996094 6 L 14.996094 2.996094 L 8.992188 2.996094 L 8.992188 6 L 5.988281 6 L 5.988281 21.015625 L 14.996094 21.015625 L 14.996094 23.984375 L 3.015625 23.984375 Z M 3.015625 13.492188 "/>
<path style=" stroke:none;fill-rule:nonzero;fill:rgb(100%,100%,0%);fill-opacity:1;" d="M 16.519531 23.019531 L 16.527344 22.050781 L 16.640625 21.816406 C 16.703125 21.6875 16.792969 21.535156 16.84375 21.476562 C 16.933594 21.375 18.183594 19.539062 18.183594 19.511719 C 18.183594 19.503906 17.136719 19.496094 15.851562 19.496094 L 13.519531 19.496094 L 13.503906 18.667969 C 13.488281 17.757812 13.507812 17.574219 13.65625 17.269531 C 13.753906 17.066406 14.167969 16.640625 16.84375 14 C 18.542969 12.324219 18.65625 12.21875 18.871094 12.113281 L 19.097656 12.007812 L 21.003906 12.007812 L 21 12.851562 C 21 13.742188 20.984375 13.867188 20.847656 14.140625 C 20.808594 14.21875 20.726562 14.34375 20.664062 14.421875 C 20.503906 14.613281 19.300781 16.484375 19.324219 16.507812 C 19.332031 16.515625 20.382812 16.527344 21.65625 16.527344 L 23.96875 16.527344 L 23.980469 17.230469 C 23.992188 18.15625 23.972656 18.371094 23.847656 18.628906 C 23.757812 18.816406 23.550781 19.03125 21.300781 21.277344 C 19.1875 23.386719 18.824219 23.738281 18.671875 23.8125 C 18.34375 23.972656 18.238281 23.984375 17.339844 23.984375 L 16.511719 23.984375 Z M 16.519531 23.019531 "/>
<path style=" stroke:none;fill-rule:nonzero;fill:rgb(100%,0%,0%);fill-opacity:1;" d="M 7.503906 18.058594 L 7.503906 16.617188 L 11.992188 16.617188 L 11.992188 19.496094 L 7.503906 19.496094 Z M 7.503906 18.058594 "/>
<path style=" stroke:none;fill-rule:nonzero;fill:rgb(100%,0%,0%);fill-opacity:1;" d="M 7.503906 13.492188 L 7.503906 12.007812 L 16.484375 12.007812 L 16.484375 12.089844 C 16.484375 12.164062 16.261719 12.394531 15.160156 13.496094 C 14.128906 14.523438 13.800781 14.835938 13.675781 14.898438 L 13.511719 14.976562 L 7.503906 14.976562 Z M 7.503906 13.492188 "/>
<path style=" stroke:none;fill-rule:nonzero;fill:rgb(100%,0%,0%);fill-opacity:1;" d="M 7.503906 9.003906 L 7.503906 7.515625 L 16.484375 7.515625 L 16.484375 10.488281 L 7.503906 10.488281 Z M 7.503906 9.003906 "/>
<path style=" stroke:none;fill-rule:nonzero;fill:rgb(100%,100%,100%);fill-opacity:1;" d="M 3.03125 13.496094 L 3.03125 3.070312 L 6.082031 3.070312 L 6.082031 2.40625 C 6.082031 1.445312 6.4375 0.839844 7.347656 0.261719 C 7.625 0.0859375 7.9375 0.0703125 11.464844 0.0351562 C 14.066406 0.015625 15.476562 0.0390625 15.890625 0.121094 C 17.09375 0.351562 17.726562 1.035156 17.910156 2.304688 L 18.019531 3.070312 L 20.929688 3.070312 L 20.929688 10.394531 L 18.085938 10.394531 L 18.058594 8.179688 L 18.03125 5.96875 L 15.03125 5.914062 L 15.03125 2.96875 L 8.929688 2.96875 L 8.929688 5.917969 L 5.980469 5.917969 L 5.980469 21.070312 L 14.929688 21.070312 L 14.929688 23.917969 L 3.03125 23.917969 Z M 3.03125 13.496094 "/>
</g>
</svg>
