<?xml version="1.0" encoding="UTF-8"?>
<svg xmlns="http://www.w3.org/2000/svg" xmlns:xlink="http://www.w3.org/1999/xlink" width="24" height="24" viewBox="0 0 24 24" version="1.1">
<defs>
<clipPath id="clip1">
  <path d="M 1.5 0 L 19.5 0 L 19.5 15 L 1.5 15 Z M 1.5 15 L 15 15 L 15 24 L 1.5 24 Z M 1.5 15 "/>
</clipPath>
<filter id="alpha" filterUnits="objectBoundingBox" x="0%" y="0%" width="100%" height="100%">
  <feColorMatrix type="matrix" in="SourceGraphic" values="0 0 0 0 1 0 0 0 0 1 0 0 0 0 1 0 0 0 1 0"/>
</filter>
<image id="image15" width="24" height="24" xlink:href="data:image/png;base64,iVBORw0KGgoAAAANSUhEUgAAABgAAAAYCAYAAADgdz34AAAABmJLR0QA/wD/AP+gvaeTAAAAQ0lEQVRIiWNkQAP/v5VKM7B2paKLEwKMrIwN2MSZSDWIVDBqwagFoxaMWjBqwagFoxaMEAtYMET+H/zHwBD2jVoWAAAP4wg8TkldjgAAAABJRU5ErkJggg=="/>
<mask id="mask0">
  <g filter="url(#alpha)">
<use xlink:href="#image15"/>
  </g>
</mask>
<clipPath id="clip2">
  <rect x="0" y="0" width="24" height="24"/>
</clipPath>
<g id="surface14" clip-path="url(#clip2)">
<path style=" stroke:none;fill-rule:nonzero;fill:rgb(74.509804%,74.509804%,74.509804%);fill-opacity:1;" d="M 10.3125 0 C 9.558594 0.09375 8.992188 0.738281 9 1.5 L 9 6.84375 L 7.078125 4.921875 C 6.695312 4.53125 6.128906 4.375 5.601562 4.515625 C 5.070312 4.65625 4.65625 5.070312 4.515625 5.601562 C 4.375 6.128906 4.53125 6.695312 4.921875 7.078125 L 9 11.160156 L 9 12.847656 L 4.921875 16.925781 C 4.53125 17.308594 4.375 17.871094 4.515625 18.402344 C 4.65625 18.929688 5.070312 19.34375 5.597656 19.484375 C 6.128906 19.625 6.691406 19.46875 7.078125 19.082031 L 9 17.160156 L 9 22.5 C 8.984375 23.117188 9.351562 23.679688 9.921875 23.917969 C 10.492188 24.15625 11.148438 24.023438 11.578125 23.578125 L 17.578125 17.578125 C 17.871094 17.296875 18.035156 16.90625 18.035156 16.5 C 18.035156 16.09375 17.871094 15.703125 17.578125 15.421875 L 14.15625 12.003906 L 17.578125 8.582031 C 17.871094 8.296875 18.035156 7.910156 18.035156 7.503906 C 18.035156 7.09375 17.871094 6.707031 17.578125 6.425781 L 11.578125 0.425781 C 11.246094 0.09375 10.777344 -0.0625 10.3125 0.00390625 Z M 12 5.160156 L 14.34375 7.5 L 12 9.839844 L 12 5.152344 Z M 12 14.160156 L 14.34375 16.5 L 12 18.839844 L 12 14.152344 Z M 12 14.160156 "/>
</g>
<image id="image24" width="24" height="24" xlink:href="data:image/png;base64,iVBORw0KGgoAAAANSUhEUgAAABgAAAAYCAYAAADgdz34AAAABmJLR0QA/wD/AP+gvaeTAAAAL0lEQVRIiWNgGAWDDvzff5jl/1czSdpZ8HmW2P/f/xtoZsEoGAWjYBSMglEwJAEAYtgK5G9GNIoAAAAASUVORK5CYII="/>
<mask id="mask1">
  <g filter="url(#alpha)">
<use xlink:href="#image24"/>
  </g>
</mask>
<clipPath id="clip3">
  <rect x="0" y="0" width="24" height="24"/>
</clipPath>
<g id="surface23" clip-path="url(#clip3)">
<path style=" stroke:none;fill-rule:nonzero;fill:rgb(74.509804%,74.509804%,74.509804%);fill-opacity:1;" d="M 4.539062 4.515625 L 6.03125 4.515625 L 6.03125 6.007812 L 4.539062 6.007812 Z M 4.539062 4.515625 "/>
</g>
<image id="image33" width="24" height="24" xlink:href="data:image/png;base64,iVBORw0KGgoAAAANSUhEUgAAABgAAAAYCAYAAADgdz34AAAABmJLR0QA/wD/AP+gvaeTAAAAMklEQVRIiWNgGAWjYBSMglEwCoYl+P+9We7/b/46apnHhCFyj+EFw6/Dc6hlwSgYeAAAwX4JQCaYSekAAAAASUVORK5CYII="/>
<mask id="mask2">
  <g filter="url(#alpha)">
<use xlink:href="#image33"/>
  </g>
</mask>
<clipPath id="clip4">
  <rect x="0" y="0" width="24" height="24"/>
</clipPath>
<g id="surface32" clip-path="url(#clip4)">
<path style=" stroke:none;fill-rule:nonzero;fill:rgb(74.509804%,74.509804%,74.509804%);fill-opacity:1;" d="M 4.5 18 L 5.992188 18 L 5.992188 19.492188 L 4.5 19.492188 Z M 4.5 18 "/>
</g>
<image id="image42" width="24" height="24" xlink:href="data:image/png;base64,iVBORw0KGgoAAAANSUhEUgAAABgAAAAYCAYAAADgdz34AAAABmJLR0QA/wD/AP+gvaeTAAAALklEQVRIiWNgGAWjYBSMglEwCkbBKKAb+P/VTPL/GWZW2lnw+3/D/2+l0uToBQDXtAoVvCfdyAAAAABJRU5ErkJggg=="/>
<mask id="mask3">
  <g filter="url(#alpha)">
<use xlink:href="#image42"/>
  </g>
</mask>
<clipPath id="clip5">
  <rect x="0" y="0" width="24" height="24"/>
</clipPath>
<g id="surface41" clip-path="url(#clip5)">
<path style=" stroke:none;fill-rule:nonzero;fill:rgb(74.509804%,74.509804%,74.509804%);fill-opacity:1;" d="M 9 22.515625 L 10.492188 22.515625 L 10.492188 24.007812 L 9 24.007812 Z M 9 22.515625 "/>
</g>
<image id="image51" width="24" height="24" xlink:href="data:image/png;base64,iVBORw0KGgoAAAANSUhEUgAAABgAAAAYCAYAAADgdz34AAAABmJLR0QA/wD/AP+gvaeTAAAAMklEQVRIiWNgIAL8//2/4f+3Umli1JIF/n8rlf5/hpmVZhaMglEwCkbBKBgFo2AUEAQAzYwKV41CAmUAAAAASUVORK5CYII="/>
<mask id="mask4">
  <g filter="url(#alpha)">
<use xlink:href="#image51"/>
  </g>
</mask>
<clipPath id="clip6">
  <rect x="0" y="0" width="24" height="24"/>
</clipPath>
<g id="surface50" clip-path="url(#clip6)">
<path style=" stroke:none;fill-rule:nonzero;fill:rgb(74.509804%,74.509804%,74.509804%);fill-opacity:1;" d="M 9 0 L 10.492188 0 L 10.492188 1.492188 L 9 1.492188 Z M 9 0 "/>
</g>
</defs>
<g id="surface6">
<g clip-path="url(#clip1)" clip-rule="nonzero">
<use xlink:href="#surface14" mask="url(#mask0)"/>
</g>
<use xlink:href="#surface23" mask="url(#mask1)"/>
<use xlink:href="#surface32" mask="url(#mask2)"/>
<use xlink:href="#surface41" mask="url(#mask3)"/>
<use xlink:href="#surface50" mask="url(#mask4)"/>
<path style=" stroke:none;fill-rule:nonzero;fill:rgb(74.509804%,74.509804%,74.509804%);fill-opacity:1;" d="M 16.5 16.5 L 18.5625 16.5 L 20.25 18.140625 L 21.890625 16.5 L 24 16.5 L 24 18.703125 L 22.359375 20.296875 L 24 21.890625 L 24 24 L 21.84375 24 L 20.25 22.40625 L 18.65625 24 L 16.5 24 L 16.5 21.890625 L 18.09375 20.296875 L 16.5 18.703125 Z M 16.5 16.5 "/>
</g>
</svg>
