<?xml version="1.0" encoding="UTF-8"?>
<svg xmlns="http://www.w3.org/2000/svg" xmlns:xlink="http://www.w3.org/1999/xlink" width="24" height="24" viewBox="0 0 24 24" version="1.1">
<defs>
<filter id="alpha" filterUnits="objectBoundingBox" x="0%" y="0%" width="100%" height="100%">
  <feColorMatrix type="matrix" in="SourceGraphic" values="0 0 0 0 1 0 0 0 0 1 0 0 0 0 1 0 0 0 1 0"/>
</filter>
<image id="image12" width="24" height="24" xlink:href="data:image/png;base64,iVBORw0KGgoAAAANSUhEUgAAABgAAAAYCAYAAADgdz34AAAABmJLR0QA/wD/AP+gvaeTAAAAVElEQVRIiWNgoDFgZGBgYPh/hpmVQV1VgKom37z9gdHk72+IBZ81RBnYprlQ1YJfWXsYeW+8ZqKqoVjAqAWjFoxaMGrBqAWjFgwPC2he6VPVTGwAAFdvFSqj5k23AAAAAElFTkSuQmCC"/>
<mask id="mask0">
  <g filter="url(#alpha)">
<use xlink:href="#image12"/>
  </g>
</mask>
<clipPath id="clip1">
  <rect x="0" y="0" width="24" height="24"/>
</clipPath>
<g id="surface11" clip-path="url(#clip1)">
<path style=" stroke:none;fill-rule:nonzero;fill:rgb(74.509804%,74.509804%,74.509804%);fill-opacity:1;" d="M 4.5 1.5 C 2.839844 1.5 1.5 2.839844 1.5 4.5 L 1.5 9 L 4.5 9 C 4.5 8.167969 5.167969 7.5 6 7.5 L 7.5 7.5 L 7.5 6 C 7.5 5.167969 8.167969 4.5 9 4.5 L 15 4.5 C 15.832031 4.5 16.449219 5.171875 16.5 6 L 16.5 7.5 L 18 7.5 C 18.832031 7.5 19.5 8.167969 19.5 9 L 22.5 9 L 22.5 4.5 C 22.5 2.839844 21.160156 1.5 19.5 1.5 Z M 1.5 16.5 L 1.5 19.5 C 1.5 21.160156 2.839844 22.5 4.5 22.5 L 19.5 22.5 C 21.160156 22.5 22.5 21.160156 22.5 19.5 L 22.5 16.5 L 19.5 16.5 L 19.5 18 C 19.5 18.832031 18.832031 19.5 18 19.5 L 6 19.5 C 5.167969 19.5 4.5 18.832031 4.5 18 L 4.5 16.5 Z M 1.5 16.5 "/>
</g>
<image id="image21" width="24" height="24" xlink:href="data:image/png;base64,iVBORw0KGgoAAAANSUhEUgAAABgAAAAYCAYAAADgdz34AAAABmJLR0QA/wD/AP+gvaeTAAAAPklEQVRIiWNgGAWjYBSMglEwCoYDYMQn+f9xBCeDaKIsXhNez3/MKLviOy5pFrya52r/ZEie/5igmlEwqAEA1N0MbTexsmcAAAAASUVORK5CYII="/>
<mask id="mask1">
  <g filter="url(#alpha)">
<use xlink:href="#image21"/>
  </g>
</mask>
<clipPath id="clip2">
  <rect x="0" y="0" width="24" height="24"/>
</clipPath>
<g id="surface20" clip-path="url(#clip2)">
<path style=" stroke:none;fill-rule:nonzero;fill:rgb(74.509804%,74.509804%,74.509804%);fill-opacity:1;" d="M 7.5 18 L 16.5 18 L 16.5 19.5 L 7.5 19.5 Z M 7.5 18 "/>
</g>
</defs>
<g id="surface3">
<use xlink:href="#surface11" mask="url(#mask0)"/>
<path style=" stroke:none;fill-rule:nonzero;fill:rgb(100%,100%,100%);fill-opacity:1;" d="M 7.5 12.75 C 7.5 13.992188 6.492188 15 5.25 15 C 4.007812 15 3 13.992188 3 12.75 C 3 11.507812 4.007812 10.5 5.25 10.5 C 6.492188 10.5 7.5 11.507812 7.5 12.75 Z M 7.5 12.75 "/>
<path style=" stroke:none;fill-rule:nonzero;fill:rgb(100%,100%,100%);fill-opacity:1;" d="M 13.5 12.75 C 13.5 13.992188 12.492188 15 11.25 15 C 10.007812 15 9 13.992188 9 12.75 C 9 11.507812 10.007812 10.5 11.25 10.5 C 12.492188 10.5 13.5 11.507812 13.5 12.75 Z M 13.5 12.75 "/>
<path style=" stroke:none;fill-rule:nonzero;fill:rgb(100%,100%,100%);fill-opacity:1;" d="M 19.5 12.75 C 19.5 13.992188 18.492188 15 17.25 15 C 16.007812 15 15 13.992188 15 12.75 C 15 11.507812 16.007812 10.5 17.25 10.5 C 18.492188 10.5 19.5 11.507812 19.5 12.75 Z M 19.5 12.75 "/>
<use xlink:href="#surface20" mask="url(#mask1)"/>
<path style=" stroke:none;fill-rule:nonzero;fill:rgb(100%,100%,100%);fill-opacity:1;" d="M 1.523438 6.351562 C 1.554688 4.140625 1.585938 3.671875 1.734375 3.34375 C 2.035156 2.667969 2.5 2.183594 3.152344 1.855469 L 3.773438 1.546875 L 11.925781 1.546875 C 21.234375 1.546875 20.691406 1.496094 21.597656 2.402344 C 22.402344 3.210938 22.453125 3.453125 22.453125 6.445312 L 22.453125 8.96875 L 19.539062 8.96875 L 19.421875 8.585938 C 19.179688 7.78125 18.550781 7.449219 17.257812 7.445312 L 16.585938 7.445312 L 16.53125 6.535156 C 16.476562 5.542969 16.308594 5.132812 15.8125 4.761719 C 15.535156 4.554688 15.398438 4.542969 12.097656 4.519531 C 8.988281 4.492188 8.640625 4.507812 8.324219 4.671875 C 7.699219 4.992188 7.558594 5.300781 7.519531 6.421875 L 7.488281 7.417969 L 6.539062 7.46875 C 5.238281 7.535156 4.800781 7.820312 4.511719 8.792969 C 4.464844 8.949219 4.300781 8.96875 2.976562 8.96875 L 1.488281 8.96875 Z M 1.523438 6.351562 "/>
<path style=" stroke:none;fill-rule:nonzero;fill:rgb(100%,100%,100%);fill-opacity:1;" d="M 3.84375 22.402344 C 2.996094 22.226562 2.242188 21.621094 1.796875 20.765625 C 1.578125 20.34375 1.558594 20.160156 1.523438 18.402344 L 1.484375 16.496094 L 4.453125 16.496094 L 4.453125 17.335938 C 4.453125 18.441406 4.703125 18.984375 5.371094 19.320312 L 5.828125 19.550781 L 12.148438 19.523438 C 18.355469 19.496094 18.480469 19.492188 18.753906 19.285156 C 19.347656 18.839844 19.453125 18.59375 19.488281 17.503906 L 19.523438 16.496094 L 22.46875 16.496094 L 22.4375 18.453125 C 22.40625 20.253906 22.386719 20.445312 22.175781 20.839844 C 21.863281 21.421875 21.296875 21.96875 20.734375 22.226562 C 20.273438 22.441406 20.191406 22.445312 12.234375 22.460938 C 7.816406 22.46875 4.039062 22.441406 3.84375 22.402344 Z M 3.84375 22.402344 "/>
</g>
</svg>
