<?xml version="1.0" encoding="UTF-8"?>
<svg xmlns="http://www.w3.org/2000/svg" xmlns:xlink="http://www.w3.org/1999/xlink" width="24" height="24" viewBox="0 0 24 24" version="1.1">
<defs>
<filter id="alpha" filterUnits="objectBoundingBox" x="0%" y="0%" width="100%" height="100%">
  <feColorMatrix type="matrix" in="SourceGraphic" values="0 0 0 0 1 0 0 0 0 1 0 0 0 0 1 0 0 0 1 0"/>
</filter>
<image id="image12" width="24" height="24" xlink:href="data:image/png;base64,iVBORw0KGgoAAAANSUhEUgAAABgAAAAYCAYAAADgdz34AAAABmJLR0QA/wD/AP+gvaeTAAAAM0lEQVRIiWNgGAWjYBSMglEwCoY9+P9ZQ/T/z32R/3/ui/z/WUOUHDOYqO0oulswCggCAG4kCoFbvQPRAAAAAElFTkSuQmCC"/>
<mask id="mask0">
  <g filter="url(#alpha)">
<use xlink:href="#image12"/>
  </g>
</mask>
<clipPath id="clip1">
  <rect x="0" y="0" width="24" height="24"/>
</clipPath>
<g id="surface11" clip-path="url(#clip1)">
<path style=" stroke:none;fill-rule:nonzero;fill:rgb(74.509804%,74.509804%,74.509804%);fill-opacity:1;" d="M 7.5 18 L 10.5 18 L 10.5 21 L 7.5 21 Z M 7.5 18 "/>
</g>
<image id="image21" width="24" height="24" xlink:href="data:image/png;base64,iVBORw0KGgoAAAANSUhEUgAAABgAAAAYCAYAAADgdz34AAAABmJLR0QA/wD/AP+gvaeTAAAAMElEQVRIiWNgGAWjYBSMglEwCoYDYCRVw/+f+yLhmtmdlhNSz0SqBaQCmlswCggCAFVcBAZhfw2NAAAAAElFTkSuQmCC"/>
<mask id="mask1">
  <g filter="url(#alpha)">
<use xlink:href="#image21"/>
  </g>
</mask>
<clipPath id="clip2">
  <rect x="0" y="0" width="24" height="24"/>
</clipPath>
<g id="surface20" clip-path="url(#clip2)">
<path style=" stroke:none;fill-rule:nonzero;fill:rgb(74.509804%,74.509804%,74.509804%);fill-opacity:1;" d="M 12 18 L 15 18 L 15 21 L 12 21 Z M 12 18 "/>
</g>
</defs>
<g id="surface3">
<path style=" stroke:none;fill-rule:nonzero;fill:rgb(74.509804%,74.509804%,74.509804%);fill-opacity:1;" d="M 4.5 1.5 C 2.839844 1.5 1.5 2.839844 1.5 4.5 L 1.5 19.5 C 1.5 21.160156 2.839844 22.5 4.5 22.5 L 15 22.5 L 15 19.5 L 6 19.5 C 5.167969 19.5 4.5 18.832031 4.5 18 L 4.5 9 C 4.5 8.167969 5.167969 7.5 6 7.5 L 7.5 7.5 L 7.5 6 C 7.5 5.167969 8.167969 4.5 9 4.5 L 15 4.5 C 15.832031 4.5 16.449219 5.171875 16.5 6 L 16.5 7.5 L 18 7.5 C 18.832031 7.5 19.5 8.167969 19.5 9 L 19.5 15 L 22.5 15 L 22.5 4.5 C 22.5 2.839844 21.160156 1.5 19.5 1.5 Z M 4.5 1.5 "/>
<use xlink:href="#surface11" mask="url(#mask0)"/>
<path style=" stroke:none;fill-rule:nonzero;fill:rgb(74.509804%,74.509804%,74.509804%);fill-opacity:1;" d="M 16.5 16.5 L 18.5625 16.5 L 20.25 18.140625 L 21.890625 16.5 L 24 16.5 L 24 18.703125 L 22.359375 20.296875 L 24 21.890625 L 24 24 L 21.84375 24 L 20.25 22.40625 L 18.65625 24 L 16.5 24 L 16.5 21.890625 L 18.09375 20.296875 L 16.5 18.703125 Z M 16.5 16.5 "/>
<use xlink:href="#surface20" mask="url(#mask1)"/>
<path style=" stroke:none;fill-rule:nonzero;fill:rgb(100%,100%,100%);fill-opacity:1;" d="M 3.707031 22.347656 C 2.683594 22.074219 1.828125 21.164062 1.609375 20.125 C 1.535156 19.753906 1.507812 17.144531 1.527344 11.710938 L 1.554688 3.832031 L 1.796875 3.296875 C 2.117188 2.59375 2.882812 1.902344 3.566406 1.699219 C 4.007812 1.566406 5.242188 1.546875 12.046875 1.546875 C 19.84375 1.546875 20.015625 1.550781 20.566406 1.757812 C 21.304688 2.03125 21.96875 2.695312 22.242188 3.433594 C 22.445312 3.976562 22.453125 4.183594 22.453125 9.480469 L 22.453125 14.96875 L 19.503906 14.96875 L 19.503906 11.789062 C 19.503906 8.144531 19.492188 8.085938 18.6875 7.671875 C 18.332031 7.488281 18.074219 7.445312 17.398438 7.445312 L 16.554688 7.445312 L 16.554688 6.707031 C 16.554688 5.726562 16.425781 5.320312 15.992188 4.898438 L 15.628906 4.546875 L 12.101562 4.519531 C 8.71875 4.492188 8.558594 4.5 8.242188 4.695312 C 7.664062 5.050781 7.507812 5.4375 7.503906 6.492188 L 7.503906 7.425781 L 6.496094 7.460938 C 5.40625 7.496094 5.160156 7.601562 4.714844 8.195312 C 4.507812 8.46875 4.503906 8.585938 4.503906 13.496094 C 4.503906 18.40625 4.507812 18.519531 4.714844 18.792969 C 4.832031 18.949219 5.050781 19.167969 5.207031 19.285156 C 5.476562 19.488281 5.621094 19.496094 10.207031 19.523438 L 14.929688 19.550781 L 14.929688 22.496094 L 9.5625 22.488281 C 5.507812 22.484375 4.082031 22.449219 3.707031 22.347656 Z M 3.707031 22.347656 "/>
<path style=" stroke:none;fill-rule:nonzero;fill:rgb(100%,0%,0%);fill-opacity:1;" d="M 16.554688 22.878906 L 16.554688 21.839844 L 17.339844 21.046875 L 18.128906 20.257812 L 17.339844 19.46875 L 16.554688 18.675781 L 16.554688 16.496094 L 18.535156 16.496094 L 19.375 17.328125 L 20.210938 18.164062 L 21.066406 17.328125 L 21.921875 16.496094 L 23.980469 16.496094 L 23.980469 18.6875 L 22.351562 20.304688 L 23.980469 21.941406 L 23.980469 23.917969 L 21.796875 23.917969 L 20.21875 22.347656 L 19.425781 23.132812 L 18.636719 23.917969 L 16.554688 23.917969 Z M 16.554688 22.878906 "/>
</g>
</svg>
