<?xml version="1.0" encoding="UTF-8"?>
<svg xmlns="http://www.w3.org/2000/svg" xmlns:xlink="http://www.w3.org/1999/xlink" width="24" height="24" viewBox="0 0 24 24" version="1.1">
<defs>
<clipPath id="clip1">
  <path d="M 0 0 L 24 0 L 24 15 L 0 15 Z M 0 0 "/>
</clipPath>
<clipPath id="clip2">
  <path d="M 10.5 15 L 0 4.5 L 0 -2.25 L 24.75 -2.25 L 24.75 4.5 L 13.5 15 Z M 10.5 15 "/>
</clipPath>
<filter id="alpha" filterUnits="objectBoundingBox" x="0%" y="0%" width="100%" height="100%">
  <feColorMatrix type="matrix" in="SourceGraphic" values="0 0 0 0 1 0 0 0 0 1 0 0 0 0 1 0 0 0 1 0"/>
</filter>
<image id="image11" width="24" height="24" xlink:href="data:image/png;base64,iVBORw0KGgoAAAANSUhEUgAAABgAAAAYCAYAAADgdz34AAAABmJLR0QA/wD/AP+gvaeTAAAAM0lEQVRIiWNgGAUEACMDAwPD/5/7Imli+jHW1Uw0MRgJjFowasGoBaMWjFowasGoBUQBAAscBK9YgGy/AAAAAElFTkSuQmCC"/>
<mask id="mask0">
  <g filter="url(#alpha)">
<use xlink:href="#image11"/>
  </g>
</mask>
<clipPath id="clip3">
  <rect x="0" y="0" width="24" height="24"/>
</clipPath>
<g id="surface10" clip-path="url(#clip3)">
<path style=" stroke:none;fill-rule:nonzero;fill:rgb(74.509804%,74.509804%,74.509804%);fill-opacity:1;" d="M 12 3 L 12 4.5 L 13.5 4.5 L 13.5 3.046875 C 13.015625 3.007812 12.507812 3 12 3 Z M 13.5 4.5 L 13.5 6 L 15 6 L 15 4.5 Z M 15 4.5 L 16.5 4.5 L 16.5 3.609375 C 16.011719 3.464844 15.523438 3.375 15 3.28125 Z M 16.5 4.5 L 16.5 6 L 18 6 L 18 4.5 Z M 18 4.5 L 18.75 4.5 C 18.5 4.375 18.261719 4.28125 18 4.171875 Z M 18 6 L 18 7.5 L 19.5 7.5 L 19.5 6 Z M 19.5 6 L 21 6 L 21 7.5 L 22.5 7.5 C 21.664062 6.492188 20.652344 5.613281 19.5 4.921875 Z M 22.5 7.5 L 22.5 9 L 21 9 L 21 10.5 L 19.5 10.5 L 19.5 12 L 18 12 L 18 13.5 L 16.5 13.5 L 16.5 15 L 15 15 L 15 13.5 L 13.5 13.5 L 13.5 15 L 12 15 L 12 13.5 L 10.5 13.5 L 10.5 15 L 9 15 L 9 13.5 L 7.5 13.5 L 7.5 12 L 6 12 L 6 10.5 L 4.5 10.5 L 4.5 9 L 3 9 L 3 7.5 L 2.15625 7.5 C -0.191406 10.277344 1.5 14.0625 1.5 18 C 1.5 25.824219 3.585938 27 12 27 C 20.414062 27 22.5 25.824219 22.5 18 C 22.5 14.4375 24.441406 9.839844 22.5 7.5 Z M 3 7.5 L 4.5 7.5 L 4.5 6 L 3.65625 6 C 3.4375 6.183594 3.203125 6.363281 3 6.5625 Z M 4.5 6 L 6 6 L 6 4.5 L 5.90625 4.5 C 5.414062 4.761719 4.949219 5.023438 4.5 5.34375 Z M 6 4.5 L 7.5 4.5 L 7.5 3.75 C 6.980469 3.9375 6.480469 4.203125 6 4.453125 Z M 7.5 4.5 L 7.5 6 L 9 6 L 9 4.5 Z M 9 4.5 L 10.5 4.5 L 10.5 3.09375 C 9.984375 3.148438 9.484375 3.21875 9 3.328125 Z M 10.5 4.5 L 10.5 6 L 12 6 L 12 4.5 Z M 12 6 L 12 7.5 L 13.5 7.5 L 13.5 6 Z M 13.5 7.5 L 13.5 9 L 15 9 L 15 7.5 Z M 15 7.5 L 16.5 7.5 L 16.5 6 L 15 6 Z M 16.5 7.5 L 16.5 9 L 18 9 L 18 7.5 Z M 18 9 L 18 10.5 L 19.5 10.5 L 19.5 9 Z M 19.5 9 L 21 9 L 21 7.5 L 19.5 7.5 Z M 18 10.5 L 16.5 10.5 L 16.5 12 L 18 12 Z M 16.5 12 L 15 12 L 15 13.5 L 16.5 13.5 Z M 15 12 L 15 10.5 L 13.5 10.5 L 13.5 12 Z M 13.5 12 L 12 12 L 12 13.5 L 13.5 13.5 Z M 12 12 L 12 10.5 L 10.5 10.5 L 10.5 12 Z M 10.5 12 L 9 12 L 9 13.5 L 10.5 13.5 Z M 9 12 L 9 10.5 L 7.5 10.5 L 7.5 12 Z M 7.5 10.5 L 7.5 9 L 6 9 L 6 10.5 Z M 6 9 L 6 7.5 L 4.5 7.5 L 4.5 9 Z M 6 7.5 L 7.5 7.5 L 7.5 6 L 6 6 Z M 7.5 7.5 L 7.5 9 L 9 9 L 9 7.5 Z M 9 7.5 L 10.5 7.5 L 10.5 6 L 9 6 Z M 10.5 7.5 L 10.5 9 L 12 9 L 12 7.5 Z M 12 9 L 12 10.5 L 13.5 10.5 L 13.5 9 Z M 10.5 9 L 9 9 L 9 10.5 L 10.5 10.5 Z M 15 10.5 L 16.5 10.5 L 16.5 9 L 15 9 Z M 15 10.5 "/>
</g>
</defs>
<g id="surface2">
<g clip-path="url(#clip1)" clip-rule="nonzero">
<g clip-path="url(#clip2)" clip-rule="nonzero">
<use xlink:href="#surface10" mask="url(#mask0)"/>
</g>
</g>
<path style=" stroke:none;fill-rule:nonzero;fill:rgb(100%,100%,100%);fill-opacity:1;" d="M 15 19.5 C 15 21.15625 13.65625 22.5 12 22.5 C 10.34375 22.5 9 21.15625 9 19.5 C 9 17.84375 10.34375 16.5 12 16.5 C 13.65625 16.5 15 17.84375 15 19.5 Z M 15 19.5 "/>
</g>
</svg>
