<?xml version="1.0" encoding="UTF-8"?>
<svg xmlns="http://www.w3.org/2000/svg" xmlns:xlink="http://www.w3.org/1999/xlink" width="24" height="24" viewBox="0 0 24 24" version="1.1">
<g id="surface1">
<path style=" stroke:none;fill-rule:evenodd;fill:rgb(100%,100%,100%);fill-opacity:1;" d="M 18 0 L 18 22.5 L 22.5 22.5 L 22.5 0 Z M 18 0 "/>
<path style=" stroke:none;fill-rule:evenodd;fill:rgb(100%,100%,100%);fill-opacity:1;" d="M 12 4.5 L 12 22.5 L 16.5 22.5 L 16.5 4.5 Z M 12 4.5 "/>
<path style=" stroke:none;fill-rule:evenodd;fill:rgb(100%,100%,100%);fill-opacity:1;" d="M 6 9 L 6 22.5 L 10.5 22.5 L 10.5 9 Z M 6 9 "/>
<path style=" stroke:none;fill-rule:evenodd;fill:rgb(100%,100%,100%);fill-opacity:1;" d="M 0 13.5 L 0 22.5 L 4.5 22.5 L 4.5 13.5 Z M 0 13.5 "/>
</g>
</svg>
