<?xml version="1.0" encoding="UTF-8"?>
<svg xmlns="http://www.w3.org/2000/svg" xmlns:xlink="http://www.w3.org/1999/xlink" width="24" height="24" viewBox="0 0 24 24" version="1.1">
<defs>
<filter id="alpha" filterUnits="objectBoundingBox" x="0%" y="0%" width="100%" height="100%">
  <feColorMatrix type="matrix" in="SourceGraphic" values="0 0 0 0 1 0 0 0 0 1 0 0 0 0 1 0 0 0 1 0"/>
</filter>
<image id="image12" width="24" height="24" xlink:href="data:image/png;base64,iVBORw0KGgoAAAANSUhEUgAAABgAAAAYCAYAAADgdz34AAAABmJLR0QA/wD/AP+gvaeTAAAAR0lEQVRIiWNkoBL4/3NfJIrAr6w9jLw3XjNRywJcYNSCUQtGLRi1YNSCUQtGLRgcFjBSy6D/nzVEUQRu3v7AaPL3N7XMxwkAKYsOLbWDIfkAAAAASUVORK5CYII="/>
<mask id="mask0">
  <g filter="url(#alpha)">
<use xlink:href="#image12"/>
  </g>
</mask>
<clipPath id="clip1">
  <rect x="0" y="0" width="24" height="24"/>
</clipPath>
<g id="surface11" clip-path="url(#clip1)">
<path style=" stroke:none;fill-rule:evenodd;fill:rgb(74.509804%,74.509804%,74.509804%);fill-opacity:1;" d="M 18 0 L 18 22.5 L 22.5 22.5 L 22.5 0 Z M 18 0 "/>
</g>
<image id="image21" width="24" height="24" xlink:href="data:image/png;base64,iVBORw0KGgoAAAANSUhEUgAAABgAAAAYCAYAAADgdz34AAAABmJLR0QA/wD/AP+gvaeTAAAASUlEQVRIiWNgGAUDDRhJ1fD/s4YoisDN2x8YTf7+pp4FP/dFogj8ytrDyHvjNS71TKRaQCoYtWDUglELRi0YtWBIWEDzGo3mAABCLRUkrrfsdgAAAABJRU5ErkJggg=="/>
<mask id="mask1">
  <g filter="url(#alpha)">
<use xlink:href="#image21"/>
  </g>
</mask>
<clipPath id="clip2">
  <rect x="0" y="0" width="24" height="24"/>
</clipPath>
<g id="surface20" clip-path="url(#clip2)">
<path style=" stroke:none;fill-rule:evenodd;fill:rgb(74.509804%,74.509804%,74.509804%);fill-opacity:1;" d="M 12 4.5 L 12 22.5 L 16.5 22.5 L 16.5 4.5 Z M 12 4.5 "/>
</g>
</defs>
<g id="surface3">
<use xlink:href="#surface11" mask="url(#mask0)"/>
<use xlink:href="#surface20" mask="url(#mask1)"/>
<path style=" stroke:none;fill-rule:evenodd;fill:rgb(100%,100%,100%);fill-opacity:1;" d="M 6 9 L 6 22.5 L 10.5 22.5 L 10.5 9 Z M 6 9 "/>
<path style=" stroke:none;fill-rule:evenodd;fill:rgb(100%,100%,100%);fill-opacity:1;" d="M 0 13.5 L 0 22.5 L 4.5 22.5 L 4.5 13.5 Z M 0 13.5 "/>
</g>
</svg>
