<?xml version="1.0" encoding="UTF-8"?>
<svg xmlns="http://www.w3.org/2000/svg" xmlns:xlink="http://www.w3.org/1999/xlink" width="24" height="24" viewBox="0 0 24 24" version="1.1">
<g id="surface1">
<path style=" stroke:none;fill-rule:nonzero;fill:rgb(100%,100%,100%);fill-opacity:1;" d="M 3 1.5 L 3 12 C 3 15.109375 5.265625 17.523438 7.265625 19.3125 C 9.265625 21.101562 11.25 22.3125 11.25 22.3125 L 12 22.734375 L 12.796875 22.265625 C 12.796875 22.265625 14.738281 21.070312 16.734375 19.265625 C 18.730469 17.449219 20.992188 15.050781 20.992188 11.992188 L 20.992188 1.492188 L 2.992188 1.492188 Z M 6 4.5 L 18 4.5 L 18 12 C 18 13.378906 16.519531 15.476562 14.765625 17.0625 C 13.40625 18.289062 12.546875 18.769531 12 19.125 C 11.46875 18.789062 10.605469 18.335938 9.234375 17.109375 C 7.480469 15.535156 5.992188 13.464844 5.992188 11.992188 L 5.992188 4.492188 Z M 6 4.5 "/>
</g>
</svg>
