<?xml version="1.0" encoding="UTF-8"?>
<svg xmlns="http://www.w3.org/2000/svg" xmlns:xlink="http://www.w3.org/1999/xlink" width="24" height="24" viewBox="0 0 24 24" version="1.1">
<g id="surface1">
<path style=" stroke:none;fill-rule:nonzero;fill:rgb(100%,100%,100%);fill-opacity:1;" d="M 10.140625 2.015625 C 9.757812 2.015625 9.453125 2.21875 9.265625 2.46875 C 9.078125 2.714844 9 3.003906 9 3.265625 L 9 5 L 6.125 5 C 5.230469 5 4.5 5.726562 4.5 6.625 L 4.5 19.875 C 4.5 20.773438 5.230469 21.5 6.125 21.5 L 18.375 21.5 C 19.273438 21.5 20 20.773438 20 19.875 L 20 6.625 C 20 5.726562 19.273438 5 18.375 5 L 15.5 5 L 15.5 3.28125 C 15.5 3.003906 15.402344 2.71875 15.21875 2.484375 C 15.035156 2.25 14.75 2.0625 14.40625 2.0625 Z M 10.140625 2.515625 L 14.40625 2.5625 C 14.566406 2.5625 14.710938 2.652344 14.828125 2.796875 C 14.945312 2.945312 15 3.144531 15 3.28125 L 15 5.28125 L 15.09375 5.34375 L 15.1875 5.421875 C 15.195312 5.429688 15.195312 5.429688 15.203125 5.4375 L 16.421875 6.40625 C 16.414062 6.476562 16.417969 6.570312 16.375 6.71875 C 16.347656 6.816406 16.304688 6.90625 16.265625 6.953125 C 16.226562 7 16.226562 7 16.1875 7 L 8.375 7 C 8.371094 7 8.363281 7 8.359375 7 C 8.34375 7 8.335938 6.992188 8.3125 6.953125 C 8.28125 6.90625 8.253906 6.828125 8.234375 6.734375 C 8.203125 6.589844 8.203125 6.5 8.203125 6.4375 L 9.078125 5.6875 L 9.375 5.4375 C 9.378906 5.433594 9.371094 5.425781 9.375 5.421875 L 9.40625 5.40625 L 9.5 5.328125 L 9.5 3.265625 C 9.5 3.121094 9.558594 2.914062 9.671875 2.765625 C 9.785156 2.617188 9.921875 2.515625 10.140625 2.515625 Z M 6.96875 6.5 L 7.703125 6.5 C 7.710938 6.59375 7.722656 6.71875 7.75 6.84375 C 7.777344 6.976562 7.816406 7.105469 7.90625 7.234375 C 7.996094 7.367188 8.148438 7.492188 8.34375 7.5 L 16.171875 7.5 C 16.375 7.507812 16.550781 7.394531 16.65625 7.265625 C 16.761719 7.136719 16.820312 7 16.859375 6.859375 C 16.894531 6.726562 16.914062 6.601562 16.921875 6.5 L 17.53125 6.5 C 17.792969 6.5 18 6.707031 18 6.96875 L 18 17.125 C 17.320312 17.304688 16.890625 17.53125 16.015625 17.296875 C 15.933594 17.277344 15.84375 17.304688 15.78125 17.359375 C 15.71875 17.417969 15.6875 17.492188 15.703125 17.578125 L 16.046875 19.5 L 6.96875 19.5 C 6.707031 19.5 6.5 19.292969 6.5 19.03125 L 6.5 6.96875 C 6.5 6.707031 6.707031 6.5 6.96875 6.5 Z M 12.25 10.25 C 11.875 10.25 11.5 10.5 11.5 11 L 11.5 14.5 L 13 14.5 L 13 11 C 13 10.5 12.625 10.25 12.25 10.25 Z M 12.25 14.96875 C 11.804688 14.96875 11.507812 15.28125 11.5 15.734375 C 11.5 16.167969 11.796875 16.5 12.25 16.5 C 12.695312 16.5 13 16.167969 13 15.734375 C 13 15.28125 12.695312 14.96875 12.25 14.96875 Z M 17.609375 17.75 C 17.445312 17.960938 17.339844 18.082031 17.109375 18.375 L 16.484375 19.15625 L 16.234375 17.78125 C 16.765625 17.855469 17.21875 17.855469 17.609375 17.75 Z M 17.609375 17.75 "/>
</g>
</svg>
