<?xml version="1.0" encoding="UTF-8"?>
<svg xmlns="http://www.w3.org/2000/svg" xmlns:xlink="http://www.w3.org/1999/xlink" width="24" height="24" viewBox="0 0 24 24" version="1.1">
<g id="surface1">
<path style=" stroke:none;fill-rule:nonzero;fill:rgb(74.509804%,74.509804%,74.509804%);fill-opacity:1;" d="M 11.992188 4.484375 C 7.871094 4.484375 4.484375 7.871094 4.484375 11.992188 C 4.484375 16.117188 7.871094 19.503906 11.992188 19.503906 C 16.117188 19.503906 19.503906 16.117188 19.503906 11.992188 C 19.503906 7.871094 16.117188 4.484375 11.992188 4.484375 Z M 11.992188 4.484375 "/>
<path style=" stroke:none;fill-rule:nonzero;fill:rgb(74.509804%,74.509804%,74.509804%);fill-opacity:1;" d="M 0.84375 10.5 L 2.15625 10.5 C 2.621094 10.5 3 10.878906 3 11.34375 L 3 12.65625 C 3 13.121094 2.621094 13.5 2.15625 13.5 L 0.84375 13.5 C 0.378906 13.5 0 13.121094 0 12.65625 L 0 11.34375 C 0 10.878906 0.378906 10.5 0.84375 10.5 Z M 0.84375 10.5 "/>
<path style=" stroke:none;fill-rule:nonzero;fill:rgb(74.509804%,74.509804%,74.509804%);fill-opacity:1;" d="M 21.84375 10.5 L 23.15625 10.5 C 23.621094 10.5 24 10.878906 24 11.34375 L 24 12.65625 C 24 13.121094 23.621094 13.5 23.15625 13.5 L 21.84375 13.5 C 21.378906 13.5 21 13.121094 21 12.65625 L 21 11.34375 C 21 10.878906 21.378906 10.5 21.84375 10.5 Z M 21.84375 10.5 "/>
<path style=" stroke:none;fill-rule:nonzero;fill:rgb(74.509804%,74.509804%,74.509804%);fill-opacity:1;" d="M 13.5 0.84375 L 13.5 2.15625 C 13.5 2.621094 13.121094 3 12.65625 3 L 11.34375 3 C 10.878906 3 10.5 2.621094 10.5 2.15625 L 10.5 0.84375 C 10.5 0.378906 10.878906 0 11.34375 0 L 12.65625 0 C 13.121094 0 13.5 0.378906 13.5 0.84375 Z M 13.5 0.84375 "/>
<path style=" stroke:none;fill-rule:nonzero;fill:rgb(74.509804%,74.509804%,74.509804%);fill-opacity:1;" d="M 13.5 21.84375 L 13.5 23.15625 C 13.5 23.621094 13.121094 24 12.65625 24 L 11.34375 24 C 10.878906 24 10.5 23.621094 10.5 23.15625 L 10.5 21.84375 C 10.5 21.378906 10.878906 21 11.34375 21 L 12.65625 21 C 13.121094 21 13.5 21.378906 13.5 21.84375 Z M 13.5 21.84375 "/>
<path style=" stroke:none;fill-rule:nonzero;fill:rgb(74.509804%,74.509804%,74.509804%);fill-opacity:1;" d="M 20.949219 5.167969 L 20.023438 6.09375 C 19.695312 6.425781 19.160156 6.425781 18.828125 6.09375 L 17.902344 5.167969 C 17.570312 4.835938 17.570312 4.304688 17.902344 3.972656 L 18.828125 3.046875 C 19.160156 2.714844 19.695312 2.714844 20.023438 3.046875 L 20.949219 3.972656 C 21.28125 4.304688 21.28125 4.835938 20.949219 5.167969 Z M 20.949219 5.167969 "/>
<path style=" stroke:none;fill-rule:nonzero;fill:rgb(74.509804%,74.509804%,74.509804%);fill-opacity:1;" d="M 6.101562 20.015625 L 5.171875 20.945312 C 4.84375 21.273438 4.308594 21.273438 3.980469 20.945312 L 3.050781 20.015625 C 2.722656 19.6875 2.722656 19.152344 3.050781 18.824219 L 3.980469 17.894531 C 4.308594 17.566406 4.84375 17.566406 5.171875 17.894531 L 6.101562 18.824219 C 6.429688 19.152344 6.429688 19.6875 6.101562 20.015625 Z M 6.101562 20.015625 "/>
<path style=" stroke:none;fill-rule:nonzero;fill:rgb(74.509804%,74.509804%,74.509804%);fill-opacity:1;" d="M 5.167969 3.050781 L 6.09375 3.980469 C 6.425781 4.308594 6.425781 4.84375 6.09375 5.171875 L 5.167969 6.101562 C 4.835938 6.429688 4.304688 6.429688 3.972656 6.101562 L 3.046875 5.171875 C 2.714844 4.84375 2.714844 4.308594 3.046875 3.980469 L 3.972656 3.050781 C 4.304688 2.722656 4.835938 2.722656 5.167969 3.050781 Z M 5.167969 3.050781 "/>
<path style=" stroke:none;fill-rule:nonzero;fill:rgb(74.509804%,74.509804%,74.509804%);fill-opacity:1;" d="M 20.015625 17.902344 L 20.945312 18.828125 C 21.273438 19.160156 21.273438 19.695312 20.945312 20.023438 L 20.015625 20.949219 C 19.6875 21.28125 19.152344 21.28125 18.824219 20.949219 L 17.894531 20.023438 C 17.566406 19.695312 17.566406 19.160156 17.894531 18.828125 L 18.824219 17.902344 C 19.152344 17.570312 19.6875 17.570312 20.015625 17.902344 Z M 20.015625 17.902344 "/>
<path style=" stroke:none;fill-rule:nonzero;fill:rgb(100%,40%,0%);fill-opacity:1;" d="M 11.125 2.957031 C 10.859375 2.882812 10.632812 2.664062 10.554688 2.40625 C 10.488281 2.175781 10.488281 0.820312 10.554688 0.59375 C 10.613281 0.394531 10.789062 0.191406 10.984375 0.101562 C 11.140625 0.0273438 11.164062 0.0273438 12.007812 0.0273438 C 12.828125 0.0273438 12.878906 0.03125 13.007812 0.09375 C 13.167969 0.171875 13.328125 0.328125 13.40625 0.484375 C 13.457031 0.585938 13.464844 0.699219 13.472656 1.445312 C 13.484375 2.382812 13.472656 2.464844 13.292969 2.6875 C 13.238281 2.757812 13.121094 2.847656 13.023438 2.894531 L 12.84375 2.984375 L 12.054688 2.988281 C 11.496094 2.992188 11.226562 2.984375 11.125 2.957031 Z M 11.125 2.957031 "/>
<path style=" stroke:none;fill-rule:nonzero;fill:rgb(100%,40%,0%);fill-opacity:1;" d="M 19.253906 6.3125 C 19.039062 6.257812 18.90625 6.15625 18.347656 5.589844 C 17.789062 5.023438 17.753906 4.984375 17.703125 4.8125 C 17.671875 4.691406 17.65625 4.582031 17.671875 4.492188 C 17.710938 4.210938 17.792969 4.089844 18.347656 3.53125 C 18.949219 2.925781 19.117188 2.8125 19.40625 2.8125 C 19.742188 2.8125 19.820312 2.863281 20.449219 3.484375 C 21.121094 4.148438 21.171875 4.226562 21.171875 4.578125 C 21.171875 4.753906 21.15625 4.839844 21.105469 4.933594 C 21.011719 5.101562 19.902344 6.203125 19.761719 6.261719 C 19.621094 6.320312 19.375 6.34375 19.253906 6.3125 Z M 19.253906 6.3125 "/>
<path style=" stroke:none;fill-rule:nonzero;fill:rgb(100%,40%,0%);fill-opacity:1;" d="M 21.566406 13.433594 C 21.371094 13.367188 21.183594 13.195312 21.085938 12.996094 C 21.019531 12.863281 21.015625 12.824219 21.015625 12.007812 L 21.015625 11.15625 L 21.105469 10.976562 C 21.152344 10.878906 21.242188 10.757812 21.304688 10.707031 C 21.519531 10.53125 21.617188 10.515625 22.554688 10.527344 C 23.496094 10.535156 23.515625 10.539062 23.742188 10.761719 C 23.964844 10.976562 23.972656 11.015625 23.972656 11.992188 C 23.972656 12.835938 23.972656 12.859375 23.898438 13.015625 C 23.859375 13.101562 23.765625 13.222656 23.691406 13.285156 C 23.476562 13.472656 23.355469 13.492188 22.488281 13.492188 C 21.832031 13.492188 21.707031 13.484375 21.566406 13.433594 Z M 21.566406 13.433594 "/>
<path style=" stroke:none;fill-rule:nonzero;fill:rgb(100%,40%,0%);fill-opacity:1;" d="M 19.246094 21.167969 C 19.175781 21.152344 19.085938 21.125 19.046875 21.105469 C 18.921875 21.042969 17.8125 19.921875 17.746094 19.792969 C 17.65625 19.621094 17.640625 19.359375 17.703125 19.152344 C 17.753906 19.003906 17.820312 18.925781 18.367188 18.378906 C 18.910156 17.832031 18.992188 17.765625 19.140625 17.71875 C 19.339844 17.652344 19.601562 17.664062 19.777344 17.75 C 19.851562 17.78125 20.128906 18.03125 20.453125 18.347656 C 21.09375 18.980469 21.175781 19.101562 21.167969 19.4375 C 21.167969 19.550781 21.140625 19.691406 21.109375 19.761719 C 21.03125 19.949219 19.953125 21.023438 19.765625 21.101562 C 19.585938 21.179688 19.410156 21.203125 19.246094 21.167969 Z M 19.246094 21.167969 "/>
<path style=" stroke:none;fill-rule:nonzero;fill:rgb(100%,40%,0%);fill-opacity:1;" d="M 11.074219 23.945312 C 10.890625 23.875 10.710938 23.722656 10.617188 23.550781 L 10.523438 23.382812 L 10.523438 21.617188 L 10.617188 21.449219 C 10.71875 21.261719 10.917969 21.097656 11.113281 21.046875 C 11.195312 21.023438 11.519531 21.015625 12.070312 21.019531 C 12.800781 21.027344 12.921875 21.035156 13.007812 21.085938 C 13.183594 21.179688 13.332031 21.335938 13.40625 21.492188 C 13.476562 21.644531 13.480469 21.671875 13.480469 22.5 C 13.480469 23.328125 13.476562 23.355469 13.40625 23.507812 C 13.367188 23.59375 13.273438 23.714844 13.203125 23.777344 C 12.972656 23.972656 12.890625 23.984375 11.980469 23.984375 C 11.445312 23.984375 11.140625 23.96875 11.074219 23.945312 Z M 11.074219 23.945312 "/>
<path style=" stroke:none;fill-rule:nonzero;fill:rgb(100%,40%,0%);fill-opacity:1;" d="M 4.300781 21.132812 C 4.128906 21.070312 3.960938 20.929688 3.457031 20.417969 C 2.886719 19.835938 2.832031 19.753906 2.832031 19.421875 C 2.832031 19.078125 2.882812 19 3.519531 18.363281 C 4.144531 17.738281 4.242188 17.671875 4.546875 17.671875 C 4.894531 17.671875 4.925781 17.6875 5.582031 18.335938 C 6.257812 19 6.328125 19.101562 6.328125 19.421875 C 6.328125 19.726562 6.265625 19.820312 5.640625 20.453125 C 5 21.097656 4.890625 21.171875 4.578125 21.167969 C 4.476562 21.164062 4.351562 21.148438 4.300781 21.132812 Z M 4.300781 21.132812 "/>
<path style=" stroke:none;fill-rule:nonzero;fill:rgb(100%,40%,0%);fill-opacity:1;" d="M 0.613281 13.460938 C 0.40625 13.398438 0.222656 13.238281 0.113281 13.03125 L 0.0117188 12.828125 L 0.0195312 11.960938 C 0.0273438 11.199219 0.0351562 11.082031 0.0859375 10.992188 C 0.179688 10.816406 0.332031 10.667969 0.492188 10.59375 C 0.644531 10.523438 0.671875 10.519531 1.5 10.519531 C 2.328125 10.519531 2.355469 10.523438 2.507812 10.59375 C 2.664062 10.667969 2.820312 10.816406 2.914062 10.992188 C 2.964844 11.078125 2.972656 11.199219 2.980469 11.929688 C 2.984375 12.480469 2.976562 12.804688 2.953125 12.886719 C 2.902344 13.082031 2.738281 13.28125 2.550781 13.382812 L 2.382812 13.476562 L 1.546875 13.484375 C 1.085938 13.484375 0.667969 13.476562 0.613281 13.460938 Z M 0.613281 13.460938 "/>
<path style=" stroke:none;fill-rule:nonzero;fill:rgb(100%,40%,0%);fill-opacity:1;" d="M 4.289062 6.285156 C 4.144531 6.230469 4.046875 6.148438 3.539062 5.640625 C 2.878906 4.980469 2.820312 4.894531 2.820312 4.578125 C 2.820312 4.257812 2.875 4.171875 3.550781 3.503906 C 4.117188 2.9375 4.15625 2.90625 4.328125 2.859375 C 4.550781 2.792969 4.75 2.8125 4.941406 2.90625 C 5.125 3 6.113281 3.980469 6.226562 4.1875 C 6.300781 4.320312 6.3125 4.378906 6.3125 4.578125 C 6.3125 4.773438 6.300781 4.832031 6.226562 4.96875 C 6.109375 5.175781 5.125 6.152344 4.9375 6.25 C 4.746094 6.34375 4.496094 6.359375 4.289062 6.285156 Z M 4.289062 6.285156 "/>
<path style=" stroke:none;fill-rule:nonzero;fill:rgb(100%,100%,0%);fill-opacity:1;" d="M 11.34375 19.464844 C 10.414062 19.375 9.609375 19.148438 8.753906 18.742188 C 6.53125 17.671875 4.960938 15.554688 4.578125 13.105469 C 4.507812 12.671875 4.484375 11.730469 4.53125 11.277344 C 4.882812 7.773438 7.632812 4.972656 11.140625 4.542969 C 11.539062 4.496094 12.449219 4.496094 12.84375 4.542969 C 16.214844 4.957031 18.882812 7.535156 19.414062 10.894531 C 19.492188 11.394531 19.492188 12.589844 19.414062 13.089844 C 19.03125 15.523438 17.523438 17.589844 15.332031 18.695312 C 14.101562 19.316406 12.671875 19.589844 11.34375 19.464844 Z M 11.34375 19.464844 "/>
</g>
</svg>
