<?xml version="1.0" encoding="UTF-8"?>
<svg xmlns="http://www.w3.org/2000/svg" xmlns:xlink="http://www.w3.org/1999/xlink" width="24" height="24" viewBox="0 0 24 24" version="1.1">
<defs>
<filter id="alpha" filterUnits="objectBoundingBox" x="0%" y="0%" width="100%" height="100%">
  <feColorMatrix type="matrix" in="SourceGraphic" values="0 0 0 0 1 0 0 0 0 1 0 0 0 0 1 0 0 0 1 0"/>
</filter>
<image id="image13" width="24" height="24" xlink:href="data:image/png;base64,iVBORw0KGgoAAAANSUhEUgAAABgAAAAYCAYAAADgdz34AAAABmJLR0QA/wD/AP+gvaeTAAAAO0lEQVRIiWNgoDFg/P+9WY5mpv92+Mb4//f/BppZ8O/CDSaaGQ4FoxYQBDRPRTQzexSMglEwCkbBkAIAMt0Pu20eSCQAAAAASUVORK5CYII="/>
<mask id="mask0">
  <g filter="url(#alpha)">
<use xlink:href="#image13"/>
  </g>
</mask>
<clipPath id="clip1">
  <rect x="0" y="0" width="24" height="24"/>
</clipPath>
<g id="surface12" clip-path="url(#clip1)">
<path style=" stroke:none;fill-rule:nonzero;fill:rgb(74.509804%,74.509804%,74.509804%);fill-opacity:1;" d="M 4.964844 1.5 C 4.03125 1.5 3.453125 1.992188 3.042969 2.390625 C 2.632812 2.789062 2.347656 3.1875 2.058594 3.5625 C 1.769531 3.9375 1.480469 4.289062 1.308594 4.453125 C 1.136719 4.617188 1.140625 4.5 1.496094 4.5 C 0.667969 4.5 -0.00390625 5.171875 -0.00390625 6 C -0.00390625 6.828125 0.667969 7.5 1.496094 7.5 C 2.429688 7.5 3.007812 7.007812 3.417969 6.609375 C 3.828125 6.210938 4.113281 5.765625 4.402344 5.390625 C 4.617188 5.113281 4.804688 4.960938 4.964844 4.78125 C 5.125 4.960938 5.3125 5.113281 5.527344 5.390625 C 5.816406 5.765625 6.148438 6.210938 6.558594 6.609375 C 6.96875 7.007812 7.5 7.5 8.433594 7.5 C 9.367188 7.5 9.945312 7.007812 10.355469 6.609375 C 10.765625 6.210938 11.097656 5.765625 11.386719 5.390625 C 11.605469 5.105469 11.742188 4.914062 11.902344 4.734375 C 12.066406 4.914062 12.238281 5.09375 12.464844 5.390625 C 12.753906 5.765625 13.085938 6.210938 13.496094 6.609375 C 13.90625 7.007812 14.484375 7.5 15.417969 7.5 C 16.351562 7.5 16.929688 7.007812 17.339844 6.609375 C 17.75 6.210938 18.035156 5.765625 18.324219 5.390625 C 18.535156 5.113281 18.726562 4.960938 18.886719 4.78125 C 19.046875 4.960938 19.234375 5.113281 19.449219 5.390625 C 19.738281 5.765625 20.023438 6.210938 20.433594 6.609375 C 20.84375 7.007812 21.421875 7.5 22.355469 7.5 C 22.890625 7.519531 23.398438 7.25 23.683594 6.792969 C 23.96875 6.335938 23.984375 5.761719 23.730469 5.289062 C 23.476562 4.816406 22.988281 4.515625 22.449219 4.5 C 22.476562 4.511719 22.632812 4.539062 22.542969 4.453125 C 22.371094 4.289062 22.082031 3.9375 21.792969 3.5625 C 21.503906 3.1875 21.21875 2.789062 20.808594 2.390625 C 20.398438 1.992188 19.820312 1.5 18.886719 1.5 C 17.953125 1.5 17.375 1.992188 16.964844 2.390625 C 16.554688 2.789062 16.269531 3.1875 15.980469 3.5625 C 15.757812 3.851562 15.582031 4.082031 15.417969 4.265625 C 15.253906 4.082031 15.085938 3.859375 14.855469 3.5625 C 14.566406 3.1875 14.234375 2.789062 13.824219 2.390625 C 13.414062 1.992188 12.882812 1.5 11.949219 1.5 C 11.015625 1.5 10.4375 1.992188 10.027344 2.390625 C 9.617188 2.789062 9.285156 3.1875 8.996094 3.5625 C 8.765625 3.859375 8.597656 4.082031 8.433594 4.265625 C 8.269531 4.082031 8.140625 3.851562 7.917969 3.5625 C 7.628906 3.1875 7.296875 2.789062 6.886719 2.390625 C 6.476562 1.992188 5.898438 1.5 4.964844 1.5 Z M 4.964844 1.5 "/>
</g>
<image id="image22" width="24" height="24" xlink:href="data:image/png;base64,iVBORw0KGgoAAAANSUhEUgAAABgAAAAYCAYAAADgdz34AAAABmJLR0QA/wD/AP+gvaeTAAAALUlEQVRIiWNgGAWjYBTQHDD+//2/gWam/7twg4lmhkPBqAUDb8EoGAWjgA4AAAUIBivy2H+CAAAAAElFTkSuQmCC"/>
<mask id="mask1">
  <g filter="url(#alpha)">
<use xlink:href="#image22"/>
  </g>
</mask>
<clipPath id="clip2">
  <rect x="0" y="0" width="24" height="24"/>
</clipPath>
<g id="surface21" clip-path="url(#clip2)">
<path style=" stroke:none;fill-rule:nonzero;fill:rgb(74.509804%,74.509804%,74.509804%);fill-opacity:1;" d="M 4.964844 9 C 4.03125 9 3.453125 9.492188 3.042969 9.890625 C 2.632812 10.289062 2.347656 10.6875 2.058594 11.0625 C 1.769531 11.4375 1.480469 11.789062 1.308594 11.953125 C 1.136719 12.117188 1.140625 12 1.496094 12 C 0.667969 12 -0.00390625 12.671875 -0.00390625 13.5 C -0.00390625 14.328125 0.667969 15 1.496094 15 C 2.429688 15 3.007812 14.507812 3.417969 14.109375 C 3.828125 13.710938 4.113281 13.265625 4.402344 12.890625 C 4.617188 12.617188 4.804688 12.460938 4.964844 12.28125 C 5.125 12.460938 5.3125 12.617188 5.527344 12.890625 C 5.816406 13.265625 6.148438 13.710938 6.558594 14.109375 C 6.96875 14.507812 7.5 15 8.433594 15 C 9.367188 15 9.945312 14.507812 10.355469 14.109375 C 10.765625 13.710938 11.097656 13.265625 11.386719 12.890625 C 11.605469 12.605469 11.742188 12.414062 11.902344 12.234375 C 12.066406 12.414062 12.238281 12.59375 12.464844 12.890625 C 12.753906 13.265625 13.085938 13.710938 13.496094 14.109375 C 13.90625 14.507812 14.484375 15 15.417969 15 C 16.351562 15 16.929688 14.507812 17.339844 14.109375 C 17.75 13.710938 18.035156 13.265625 18.324219 12.890625 C 18.535156 12.617188 18.726562 12.460938 18.886719 12.28125 C 19.046875 12.460938 19.234375 12.617188 19.449219 12.890625 C 19.738281 13.265625 20.023438 13.710938 20.433594 14.109375 C 20.84375 14.507812 21.421875 15 22.355469 15 C 22.890625 15.019531 23.398438 14.75 23.683594 14.292969 C 23.96875 13.835938 23.984375 13.261719 23.730469 12.789062 C 23.476562 12.316406 22.988281 12.015625 22.449219 12 C 22.476562 12.011719 22.632812 12.039062 22.542969 11.953125 C 22.371094 11.789062 22.082031 11.4375 21.792969 11.0625 C 21.503906 10.6875 21.21875 10.289062 20.808594 9.890625 C 20.398438 9.492188 19.820312 9 18.886719 9 C 17.953125 9 17.375 9.492188 16.964844 9.890625 C 16.554688 10.289062 16.269531 10.6875 15.980469 11.0625 C 15.757812 11.351562 15.582031 11.585938 15.417969 11.765625 C 15.253906 11.585938 15.085938 11.359375 14.855469 11.0625 C 14.566406 10.6875 14.234375 10.289062 13.824219 9.890625 C 13.414062 9.492188 12.882812 9 11.949219 9 C 11.015625 9 10.4375 9.492188 10.027344 9.890625 C 9.617188 10.289062 9.285156 10.6875 8.996094 11.0625 C 8.765625 11.359375 8.597656 11.585938 8.433594 11.765625 C 8.269531 11.585938 8.140625 11.351562 7.917969 11.0625 C 7.628906 10.6875 7.296875 10.289062 6.886719 9.890625 C 6.476562 9.492188 5.898438 9 4.964844 9 Z M 4.964844 9 "/>
</g>
<image id="image31" width="24" height="24" xlink:href="data:image/png;base64,iVBORw0KGgoAAAANSUhEUgAAABgAAAAYCAYAAADgdz34AAAABmJLR0QA/wD/AP+gvaeTAAAAPElEQVRIiWNgGAWjYBSMglEwChgYGP9/b5ajmem/Hb4x/v/9v4FmFvy7cIOJZoZDwagFBAHNUxHNzIYBAMtxD7tGPCMwAAAAAElFTkSuQmCC"/>
<mask id="mask2">
  <g filter="url(#alpha)">
<use xlink:href="#image31"/>
  </g>
</mask>
<clipPath id="clip3">
  <rect x="0" y="0" width="24" height="24"/>
</clipPath>
<g id="surface30" clip-path="url(#clip3)">
<path style=" stroke:none;fill-rule:nonzero;fill:rgb(74.509804%,74.509804%,74.509804%);fill-opacity:1;" d="M 4.964844 16.5 C 4.03125 16.5 3.453125 16.992188 3.042969 17.390625 C 2.632812 17.789062 2.347656 18.1875 2.058594 18.5625 C 1.769531 18.9375 1.480469 19.289062 1.308594 19.453125 C 1.136719 19.617188 1.140625 19.5 1.496094 19.5 C 0.667969 19.5 -0.00390625 20.171875 -0.00390625 21 C -0.00390625 21.828125 0.667969 22.5 1.496094 22.5 C 2.429688 22.5 3.007812 22.007812 3.417969 21.609375 C 3.828125 21.210938 4.113281 20.765625 4.402344 20.390625 C 4.617188 20.117188 4.804688 19.960938 4.964844 19.78125 C 5.125 19.960938 5.3125 20.117188 5.527344 20.390625 C 5.816406 20.765625 6.148438 21.210938 6.558594 21.609375 C 6.96875 22.007812 7.5 22.5 8.433594 22.5 C 9.367188 22.5 9.945312 22.007812 10.355469 21.609375 C 10.765625 21.210938 11.097656 20.765625 11.386719 20.390625 C 11.605469 20.105469 11.742188 19.914062 11.902344 19.734375 C 12.066406 19.914062 12.238281 20.09375 12.464844 20.390625 C 12.753906 20.765625 13.085938 21.210938 13.496094 21.609375 C 13.90625 22.007812 14.484375 22.5 15.417969 22.5 C 16.351562 22.5 16.929688 22.007812 17.339844 21.609375 C 17.75 21.210938 18.035156 20.765625 18.324219 20.390625 C 18.535156 20.117188 18.726562 19.960938 18.886719 19.78125 C 19.046875 19.960938 19.234375 20.160156 19.449219 20.4375 C 19.738281 20.8125 20.023438 21.210938 20.433594 21.609375 C 20.84375 22.007812 21.421875 22.5 22.355469 22.5 C 22.890625 22.519531 23.398438 22.25 23.683594 21.792969 C 23.96875 21.335938 23.984375 20.761719 23.730469 20.289062 C 23.476562 19.816406 22.988281 19.515625 22.449219 19.5 C 22.476562 19.511719 22.632812 19.539062 22.542969 19.453125 C 22.371094 19.289062 22.082031 18.9375 21.792969 18.5625 C 21.503906 18.1875 21.21875 17.789062 20.808594 17.390625 C 20.398438 16.992188 19.820312 16.5 18.886719 16.5 C 17.953125 16.5 17.375 16.992188 16.964844 17.390625 C 16.554688 17.789062 16.269531 18.1875 15.980469 18.5625 C 15.757812 18.851562 15.582031 19.085938 15.417969 19.265625 C 15.253906 19.085938 15.085938 18.859375 14.855469 18.5625 C 14.566406 18.1875 14.234375 17.789062 13.824219 17.390625 C 13.414062 16.992188 12.882812 16.5 11.949219 16.5 C 11.015625 16.5 10.4375 16.992188 10.027344 17.390625 C 9.617188 17.789062 9.285156 18.1875 8.996094 18.5625 C 8.765625 18.859375 8.597656 19.085938 8.433594 19.265625 C 8.269531 19.085938 8.140625 18.851562 7.917969 18.5625 C 7.628906 18.1875 7.296875 17.789062 6.886719 17.390625 C 6.476562 16.992188 5.898438 16.5 4.964844 16.5 Z M 4.964844 16.5 "/>
</g>
</defs>
<g id="surface4">
<use xlink:href="#surface12" mask="url(#mask0)"/>
<use xlink:href="#surface21" mask="url(#mask1)"/>
<use xlink:href="#surface30" mask="url(#mask2)"/>
</g>
</svg>
